Pipeline/verification/waveform.vcd
$date
	Fri Nov  7 17:46:38 2025
$end
$version
	Icarus Verilog
$end
$timescale
	1ps
$end
$scope module testbench $end
$scope module uut $end
$var wire 1 ! CLK $end
$var wire 1 " RST $end
$var wire 32 # WriteDataM [31:0] $end
$var wire 32 $ WriteDataE [31:0] $end
$var wire 32 % ResultW [31:0] $end
$var wire 2 & ResultSrcW [1:0] $end
$var wire 2 ' ResultSrcM [1:0] $end
$var wire 2 ( ResultSrcE [1:0] $end
$var wire 2 ) ResultSrcD [1:0] $end
$var wire 1 * RegWriteW $end
$var wire 1 + RegWriteM $end
$var wire 1 , RegWriteE $end
$var wire 1 - RegWriteD $end
$var wire 32 . ReadDataW [31:0] $end
$var wire 5 / RdW [4:0] $end
$var wire 5 0 RdM [4:0] $end
$var wire 5 1 RdE [4:0] $end
$var wire 5 2 RdD [4:0] $end
$var wire 32 3 RD3 [31:0] $end
$var wire 32 4 RD2E [31:0] $end
$var wire 32 5 RD2 [31:0] $end
$var wire 32 6 RD1E [31:0] $end
$var wire 32 7 RD1 [31:0] $end
$var wire 32 8 RD [31:0] $end
$var wire 32 9 PCTargetE [31:0] $end
$var wire 2 : PCSrcE [1:0] $end
$var wire 32 ; PCPlus4W [31:0] $end
$var wire 32 < PCPlus4M [31:0] $end
$var wire 32 = PCPlus4F [31:0] $end
$var wire 32 > PCPlus4E [31:0] $end
$var wire 32 ? PCPlus4D [31:0] $end
$var wire 32 @ PCF [31:0] $end
$var wire 32 A PCE [31:0] $end
$var wire 32 B PCD [31:0] $end
$var wire 1 C MemWriteM $end
$var wire 1 D MemWriteE $end
$var wire 1 E MemWriteD $end
$var wire 32 F InstrD [31:0] $end
$var wire 32 G ImmExtE [31:0] $end
$var wire 32 H ImmExtD [31:0] $end
$var wire 3 I Cond_SrcE [2:0] $end
$var wire 3 J Cond_SrcD [2:0] $end
$var wire 1 K ALUSrcE $end
$var wire 1 L ALUSrcD $end
$var wire 32 M ALUResultW [31:0] $end
$var wire 32 N ALUResultM1 [31:0] $end
$var wire 32 O ALUResultM [31:0] $end
$var wire 32 P ALUResultE [31:0] $end
$var wire 3 Q ALUControlE [2:0] $end
$var wire 3 R ALUControlD [2:0] $end
$scope module DE1 $end
$var wire 3 S ALUControlE [2:0] $end
$var wire 1 K ALUSrcE $end
$var wire 1 ! CLK $end
$var wire 3 T Cond_SrcE [2:0] $end
$var wire 32 U ImmExtE [31:0] $end
$var wire 1 D MemWriteE $end
$var wire 32 V PCE [31:0] $end
$var wire 32 W PCPlus4E [31:0] $end
$var wire 32 X RD1E [31:0] $end
$var wire 32 Y RD2E [31:0] $end
$var wire 1 " RST $end
$var wire 5 Z RdE [4:0] $end
$var wire 1 , RegWriteE $end
$var wire 2 [ ResultSrcE [1:0] $end
$var wire 2 \ ResultSrcD [1:0] $end
$var wire 1 - RegWriteD $end
$var wire 5 ] RdD [4:0] $end
$var wire 32 ^ RD2D [31:0] $end
$var wire 32 _ RD1D [31:0] $end
$var wire 32 ` PCPlus4D [31:0] $end
$var wire 32 a PCD [31:0] $end
$var wire 1 E MemWriteD $end
$var wire 32 b ImmExtD [31:0] $end
$var wire 3 c Cond_SrcD [2:0] $end
$var wire 1 L ALUSrcD $end
$var wire 3 d ALUControlD [2:0] $end
$var reg 3 e ALUControl [2:0] $end
$var reg 1 f ALUSrc $end
$var reg 3 g Cond_Src [2:0] $end
$var reg 32 h ImmExt [31:0] $end
$var reg 1 i MemWrite $end
$var reg 32 j PC [31:0] $end
$var reg 32 k PCPlus4 [31:0] $end
$var reg 32 l RD1 [31:0] $end
$var reg 32 m RD2 [31:0] $end
$var reg 5 n Rd [4:0] $end
$var reg 1 o RegWrite $end
$var reg 2 p ResultSrc [1:0] $end
$upscope $end
$scope module Decode1 $end
$var wire 5 q A1 [4:0] $end
$var wire 5 r A2 [4:0] $end
$var wire 1 ! CLK $end
$var wire 25 s Imm [24:0] $end
$var wire 1 " RST $end
$var wire 5 t Rd11_7 [4:0] $end
$var wire 3 u funct3 [2:0] $end
$var wire 7 v funct7 [6:0] $end
$var wire 7 w op [6:0] $end
$var wire 1 * WE3 $end
$var wire 32 x WD3 [31:0] $end
$var wire 5 y A3 [4:0] $end
$var reg 3 z ALUControlD [2:0] $end
$var reg 1 L ALUSrcD $end
$var reg 3 { Cond_SrcD [2:0] $end
$var reg 32 | ImmExtD [31:0] $end
$var reg 2 } ImmSrcD [1:0] $end
$var reg 1 E MemWriteD $end
$var reg 32 ~ RD1 [31:0] $end
$var reg 32 !" RD2 [31:0] $end
$var reg 5 "" RdD [4:0] $end
$var reg 1 - RegWriteD $end
$var reg 2 #" ResultSrcD [1:0] $end
$var integer 32 $" i [31:0] $end
$upscope $end
$scope module EM1 $end
$var wire 32 %" ALUResultM [31:0] $end
$var wire 1 ! CLK $end
$var wire 1 D MemWriteE $end
$var wire 1 C MemWriteM $end
$var wire 32 &" PCPlus4E [31:0] $end
$var wire 32 '" PCPlus4M [31:0] $end
$var wire 1 " RST $end
$var wire 5 (" RdE [4:0] $end
$var wire 5 )" RdM [4:0] $end
$var wire 1 , RegWriteE $end
$var wire 1 + RegWriteM $end
$var wire 2 *" ResultSrcE [1:0] $end
$var wire 2 +" ResultSrcM [1:0] $end
$var wire 32 ," WriteDataM [31:0] $end
$var wire 32 -" WriteDataE [31:0] $end
$var wire 32 ." ALUResultE [31:0] $end
$var reg 32 /" ALUResult [31:0] $end
$var reg 1 0" MemWrite $end
$var reg 32 1" PCPlus4 [31:0] $end
$var reg 5 2" Rd [4:0] $end
$var reg 1 3" RegWrite $end
$var reg 2 4" ResultSrc [1:0] $end
$var reg 32 5" WriteData [31:0] $end
$upscope $end
$scope module Execute1 $end
$var wire 3 6" ALUControlE [2:0] $end
$var wire 1 K ALUSrcE $end
$var wire 3 7" Cond_SrcE [2:0] $end
$var wire 32 8" ImmExtE [31:0] $end
$var wire 32 9" PCE [31:0] $end
$var wire 32 :" RD1E [31:0] $end
$var wire 32 ;" RD2E [31:0] $end
$var reg 32 <" ALUResultE [31:0] $end
$var reg 1 =" Negative $end
$var reg 2 >" PCSrcE [1:0] $end
$var reg 32 ?" PCTargetE [31:0] $end
$var reg 32 @" SrcB [31:0] $end
$var reg 32 A" WriteDataE [31:0] $end
$var reg 1 B" Zero $end
$upscope $end
$scope module FD1 $end
$var wire 1 ! CLK $end
$var wire 32 C" InstrD [31:0] $end
$var wire 32 D" PCD [31:0] $end
$var wire 32 E" PCPlus4D [31:0] $end
$var wire 1 " RST $end
$var wire 32 F" RD [31:0] $end
$var wire 32 G" PCPlus4F [31:0] $end
$var wire 32 H" PCF [31:0] $end
$var reg 32 I" Instr [31:0] $end
$var reg 32 J" PC [31:0] $end
$var reg 32 K" PCPlus4 [31:0] $end
$upscope $end
$scope module Fetch1 $end
$var wire 32 L" ALUResultE [31:0] $end
$var wire 1 ! CLK $end
$var wire 2 M" PCSrcE [1:0] $end
$var wire 32 N" PCTargetE [31:0] $end
$var wire 1 " RST $end
$var reg 32 O" PCF [31:0] $end
$var reg 32 P" PCNextF [31:0] $end
$var reg 32 Q" PCPlus4F [31:0] $end
$var reg 32 R" RD [31:0] $end
$upscope $end
$scope module MW1 $end
$var wire 32 S" ALUResultW [31:0] $end
$var wire 1 ! CLK $end
$var wire 32 T" PCPlus4M [31:0] $end
$var wire 32 U" PCPlus4W [31:0] $end
$var wire 1 " RST $end
$var wire 5 V" RdM [4:0] $end
$var wire 5 W" RdW [4:0] $end
$var wire 32 X" ReadDataW [31:0] $end
$var wire 1 + RegWriteM $end
$var wire 1 * RegWriteW $end
$var wire 2 Y" ResultSrcM [1:0] $end
$var wire 2 Z" ResultSrcW [1:0] $end
$var wire 32 [" ReadDataM [31:0] $end
$var wire 32 \" ALUResultM [31:0] $end
$var reg 32 ]" ALUResult [31:0] $end
$var reg 32 ^" PCPlus4 [31:0] $end
$var reg 5 _" Rd [4:0] $end
$var reg 32 `" ReadData [31:0] $end
$var reg 1 a" RegWrite $end
$var reg 2 b" ResultSrc [1:0] $end
$upscope $end
$scope module Memory1 $end
$var wire 32 c" ALUResultM [31:0] $end
$var wire 1 ! CLK $end
$var wire 1 C MemWriteM $end
$var wire 1 " RST $end
$var wire 32 d" WriteDataM [31:0] $end
$var reg 32 e" ALUResultM1 [31:0] $end
$var reg 32 f" RD3 [31:0] $end
$var integer 32 g" i [31:0] $end
$upscope $end
$scope module WriteBack1 $end
$var wire 32 h" ALUResultW [31:0] $end
$var wire 32 i" PCPlus4W [31:0] $end
$var wire 32 j" ReadDataW [31:0] $end
$var wire 2 k" ResultSrcW [1:0] $end
$var reg 32 l" ResultW [31:0] $end
$upscope $end
$upscope $end
$upscope $end
$enddefinitions $end
$comment Show the parameter values. $end
$dumpall
$end
#0
$dumpvars
bx l"
bx k"
bx j"
bx i"
bx h"
bx g"
bx f"
bx e"
bx d"
bx c"
bx b"
xa"
bx `"
bx _"
bx ^"
bx ]"
bx \"
bx ["
bx Z"
bx Y"
bx X"
bx W"
bx V"
bx U"
bx T"
bx S"
bx R"
bx Q"
bx P"
bx O"
bx N"
bx M"
bx L"
bx K"
bx J"
bx I"
bx H"
bx G"
bx F"
bx E"
bx D"
bx C"
xB"
bx A"
bx @"
bx ?"
bx >"
x="
bx <"
bx ;"
bx :"
bx 9"
bx 8"
bx 7"
bx 6"
bx 5"
bx 4"
x3"
bx 2"
bx 1"
x0"
bx /"
bx ."
bx -"
bx ,"
bx +"
bx *"
bx )"
bx ("
bx '"
bx &"
bx %"
bx $"
bx #"
bx ""
bx !"
bx ~
bx }
bx |
bx {
bx z
bx y
bx x
bx w
bx v
bx u
bx t
bx s
bx r
bx q
bx p
xo
bx n
bx m
bx l
bx k
bx j
xi
bx h
bx g
xf
bx e
bx d
bx c
bx b
bx a
bx `
bx _
bx ^
bx ]
bx \
bx [
bx Z
bx Y
bx X
bx W
bx V
bx U
bx T
bx S
bx R
bx Q
bx P
bx O
bx N
bx M
xL
xK
bx J
bx I
bx H
bx G
bx F
xE
xD
xC
bx B
bx A
bx @
bx ?
bx >
bx =
bx <
bx ;
bx :
bx 9
bx 8
bx 7
bx 6
bx 5
bx 4
bx 3
bx 2
bx 1
bx 0
bx /
bx .
x-
x,
x+
x*
bx )
bx (
bx '
bx &
bx %
bx $
bx #
0"
0!
$end
#5000
b100 P"
b100 =
b100 G"
b100 Q"
b1000000000000000101101111 8
b1000000000000000101101111 F"
b1000000000000000101101111 R"
b0 @
b0 H"
b0 O"
b100000 $"
b100000 g"
1!
#10000
0!
1"
#15000
b1000 P"
b10 2
b10 ]
b10 ""
b10000 H
b10000 b
b10000 |
b0 5
b0 ^
b0 !"
b0 7
b0 _
b0 ~
b11 J
b11 c
b11 {
b11 }
b10 )
b10 \
b10 #"
0E
1-
b10 t
b100000000000000010 s
b10000 r
b0 q
b0 v
b0 u
b1101111 w
b101000000000000110010011 8
b101000000000000110010011 F"
b101000000000000110010011 R"
b1000 =
b1000 G"
b1000 Q"
b100 ?
b100 `
b100 E"
b100 K"
b0 B
b0 a
b0 D"
b0 J"
b1000000000000000101101111 F
b1000000000000000101101111 C"
b1000000000000000101101111 I"
b100 @
b100 H"
b100 O"
1!
#20000
0!
#25000
b10000 P"
b11 2
b11 ]
b11 ""
b1010 H
b1010 b
b1010 |
b0 R
b0 d
b0 z
bx J
bx c
bx {
b0 }
b0 )
b0 \
b0 #"
1L
b1100 =
b1100 G"
b1100 Q"
b1100010000001000110011 8
b1100010000001000110011 F"
b1100010000001000110011 R"
b11 t
b10100000000000011 s
b1010 r
b10011 w
b10000 9
b10000 ?"
b10000 N"
b0 $
b0 -"
b0 A"
b1 :
b1 >"
b1 M"
b1000 @
b1000 H"
b1000 O"
b1000 ?
b1000 `
b1000 E"
b1000 K"
b100 B
b100 a
b100 D"
b100 J"
b101000000000000110010011 F
b101000000000000110010011 C"
b101000000000000110010011 I"
b100 >
b100 W
b100 &"
b100 k
b10000 G
b10000 U
b10000 8"
b10000 h
b10 1
b10 Z
b10 ("
b10 n
b0 A
b0 V
b0 9"
b0 j
b0 4
b0 Y
b0 ;"
b0 m
b0 6
b0 X
b0 :"
b0 l
b11 I
b11 T
b11 7"
b11 g
0D
0i
b10 (
b10 [
b10 *"
b10 p
1,
1o
1!
#30000
0!
#35000
b10100 P"
0="
0B"
b1010 P
b1010 ."
b1010 <"
b1010 L"
b100 2
b100 ]
b100 ""
bx H
bx b
bx |
bx }
0L
b1110 9
b1110 ?"
b1110 N"
b1010 @"
b0 :
b0 >"
b0 M"
b100 t
b110001000000100 s
b11 r
b10 q
b110011 w
b10100 =
b10100 G"
b10100 Q"
b0 #
b0 ,"
b0 d"
b0 5"
b100 <
b100 '"
b100 T"
b100 1"
b10 0
b10 )"
b10 V"
b10 2"
0C
00"
b10 '
b10 +"
b10 Y"
b10 4"
1+
13"
b1000 >
b1000 W
b1000 &"
b1000 k
b1010 G
b1010 U
b1010 8"
b1010 h
b11 1
b11 Z
b11 ("
b11 n
b100 A
b100 V
b100 9"
b100 j
1K
1f
b0 Q
b0 S
b0 6"
b0 e
bx I
bx T
bx 7"
bx g
b0 (
b0 [
b0 *"
b0 p
b1100 ?
b1100 `
b1100 E"
b1100 K"
b1000 B
b1000 a
b1000 D"
b1000 J"
b1100010000001000110011 F
b1100010000001000110011 C"
b1100010000001000110011 I"
b10000 @
b10000 H"
b10000 O"
1!
#40000
0!
#45000
b11000 P"
1B"
b0 P
b0 ."
b0 <"
b0 L"
b11000 =
b11000 G"
b11000 Q"
b1100010100110001100011 8
b1100010100110001100011 F"
b1100010100110001100011 R"
bx 9
bx ?"
bx N"
b0 @"
b100 %
b100 x
b100 l"
b1010 N
b1010 \"
b1010 e"
b1010 3
b1010 ["
b1010 f"
b10100 @
b10100 H"
b10100 O"
b10100 ?
b10100 `
b10100 E"
b10100 K"
b10000 B
b10000 a
b10000 D"
b10000 J"
b1100 >
b1100 W
b1100 &"
b1100 k
bx G
bx U
bx 8"
bx h
b100 1
b100 Z
b100 ("
b100 n
b1000 A
b1000 V
b1000 9"
b1000 j
0K
0f
b100 ;
b100 U"
b100 i"
b100 ^"
b10 /
b10 y
b10 W"
b10 _"
b10 &
b10 Z"
b10 k"
b10 b"
1*
1a"
b1010 O
b1010 %"
b1010 c"
b1010 /"
b1000 <
b1000 '"
b1000 T"
b1000 1"
b11 0
b11 )"
b11 V"
b11 2"
b0 '
b0 +"
b0 Y"
b0 4"
1!
#50000
0!
#55000
b11100 P"
b11000 2
b11000 ]
b11000 ""
b11000 H
b11000 b
b11000 |
b1 R
b1 d
b1 z
b1 J
b1 c
b1 {
bx )
bx \
bx #"
b10 }
0-
b0 N
b0 \"
b0 e"
b1010 %
b1010 x
b1010 l"
b11000 t
b110001010011000 s
b100 u
b1100011 w
b100 7
b100 _
b100 ~
bx 8
bx F"
bx R"
b11100 =
b11100 G"
b11100 Q"
b0 O
b0 %"
b0 c"
b0 /"
b1100 <
b1100 '"
b1100 T"
b1100 1"
b100 0
b100 )"
b100 V"
b100 2"
b1000 ;
b1000 U"
b1000 i"
b1000 ^"
b11 /
b11 y
b11 W"
b11 _"
b1010 .
b1010 X"
b1010 j"
b1010 `"
b1010 M
b1010 S"
b1010 h"
b1010 ]"
b0 &
b0 Z"
b0 k"
b0 b"
b10100 >
b10100 W
b10100 &"
b10100 k
b10000 A
b10000 V
b10000 9"
b10000 j
b11000 ?
b11000 `
b11000 E"
b11000 K"
b10100 B
b10100 a
b10100 D"
b10100 J"
b1100010100110001100011 F
b1100010100110001100011 C"
b1100010100110001100011 I"
b11000 @
b11000 H"
b11000 O"
1!
#60000
0!
#65000
b100000 P"
bx 2
bx ]
bx ""
bx H
bx b
bx |
bx R
bx d
bx z
bx J
bx c
bx {
xL
xE
bx }
x-
b100000 =
b100000 G"
b100000 Q"
bx 5
bx ^
bx !"
bx 7
bx _
bx ~
bx t
bx s
bx r
bx q
bx v
bx u
bx w
b101100 9
b101100 ?"
b101100 N"
0B"
b100 P
b100 ."
b100 <"
b100 L"
b0 %
b0 x
b0 l"
b11100 @
b11100 H"
b11100 O"
b11100 ?
b11100 `
b11100 E"
b11100 K"
b11000 B
b11000 a
b11000 D"
b11000 J"
bx F
bx C"
bx I"
b11000 >
b11000 W
b11000 &"
b11000 k
b11000 G
b11000 U
b11000 8"
b11000 h
b11000 1
b11000 Z
b11000 ("
b11000 n
b10100 A
b10100 V
b10100 9"
b10100 j
b100 6
b100 X
b100 :"
b100 l
b1 Q
b1 S
b1 6"
b1 e
b1 I
b1 T
b1 7"
b1 g
bx (
bx [
bx *"
bx p
0,
0o
b1100 ;
b1100 U"
b1100 i"
b1100 ^"
b100 /
b100 y
b100 W"
b100 _"
b0 M
b0 S"
b0 h"
b0 ]"
b10100 <
b10100 '"
b10100 T"
b10100 1"
1!
#70000
0!
#75000
b100100 P"
b100 N
b100 \"
b100 e"
bx 9
bx ?"
bx N"
bx $
bx -"
bx A"
x="
xB"
bx P
bx ."
bx <"
bx L"
b100100 =
b100100 G"
b100100 Q"
b100 O
b100 %"
b100 c"
b100 /"
b11000 <
b11000 '"
b11000 T"
b11000 1"
b11000 0
b11000 )"
b11000 V"
b11000 2"
bx '
bx +"
bx Y"
bx 4"
0+
03"
b10100 ;
b10100 U"
b10100 i"
b10100 ^"
b11100 >
b11100 W
b11100 &"
b11100 k
bx G
bx U
bx 8"
bx h
bx 1
bx Z
bx ("
bx n
b11000 A
b11000 V
b11000 9"
b11000 j
bx 4
bx Y
bx ;"
bx m
bx 6
bx X
bx :"
bx l
xK
xf
bx Q
bx S
bx 6"
bx e
bx I
bx T
bx 7"
bx g
xD
xi
x,
xo
b100000 ?
b100000 `
b100000 E"
b100000 K"
b11100 B
b11100 a
b11100 D"
b11100 J"
b100000 @
b100000 H"
b100000 O"
1!
#80000
0!
#85000
b101000 P"
b101000 =
b101000 G"
b101000 Q"
b100 %
b100 x
b100 l"
bx N
bx \"
bx e"
bx 3
bx ["
bx f"
b100100 @
b100100 H"
b100100 O"
b100100 ?
b100100 `
b100100 E"
b100100 K"
b100000 B
b100000 a
b100000 D"
b100000 J"
b100000 >
b100000 W
b100000 &"
b100000 k
b11100 A
b11100 V
b11100 9"
b11100 j
b11000 ;
b11000 U"
b11000 i"
b11000 ^"
b11000 /
b11000 y
b11000 W"
b11000 _"
b100 M
b100 S"
b100 h"
b100 ]"
bx &
bx Z"
bx k"
bx b"
0*
0a"
bx O
bx %"
bx c"
bx /"
bx #
bx ,"
bx d"
bx 5"
b11100 <
b11100 '"
b11100 T"
b11100 1"
bx 0
bx )"
bx V"
bx 2"
xC
x0"
x+
x3"
1!
#90000
0!
#95000
b101100 P"
bx %
bx x
bx l"
b101100 =
b101100 G"
b101100 Q"
b100000 <
b100000 '"
b100000 T"
b100000 1"
b11100 ;
b11100 U"
b11100 i"
b11100 ^"
bx /
bx y
bx W"
bx _"
bx .
bx X"
bx j"
bx `"
bx M
bx S"
bx h"
bx ]"
x*
xa"
b100100 >
b100100 W
b100100 &"
b100100 k
b100000 A
b100000 V
b100000 9"
b100000 j
b101000 ?
b101000 `
b101000 E"
b101000 K"
b100100 B
b100100 a
b100100 D"
b100100 J"
b101000 @
b101000 H"
b101000 O"
1!
#100000
0!
#105000
b110000 P"
b110000 =
b110000 G"
b110000 Q"
b101100 @
b101100 H"
b101100 O"
b101100 ?
b101100 `
b101100 E"
b101100 K"
b101000 B
b101000 a
b101000 D"
b101000 J"
b101000 >
b101000 W
b101000 &"
b101000 k
b100100 A
b100100 V
b100100 9"
b100100 j
b100000 ;
b100000 U"
b100000 i"
b100000 ^"
b100100 <
b100100 '"
b100100 T"
b100100 1"
1!
#110000
0!
#115000
b110100 P"
b110100 =
b110100 G"
b110100 Q"
b101000 <
b101000 '"
b101000 T"
b101000 1"
b100100 ;
b100100 U"
b100100 i"
b100100 ^"
b101100 >
b101100 W
b101100 &"
b101100 k
b101000 A
b101000 V
b101000 9"
b101000 j
b110000 ?
b110000 `
b110000 E"
b110000 K"
b101100 B
b101100 a
b101100 D"
b101100 J"
b110000 @
b110000 H"
b110000 O"
1!
#120000
0!
#125000
b111000 P"
b111000 =
b111000 G"
b111000 Q"
b110100 @
b110100 H"
b110100 O"
b110100 ?
b110100 `
b110100 E"
b110100 K"
b110000 B
b110000 a
b110000 D"
b110000 J"
b110000 >
b110000 W
b110000 &"
b110000 k
b101100 A
b101100 V
b101100 9"
b101100 j
b101000 ;
b101000 U"
b101000 i"
b101000 ^"
b101100 <
b101100 '"
b101100 T"
b101100 1"
1!
#130000
0!
#135000
b111100 P"
b111100 =
b111100 G"
b111100 Q"
b110000 <
b110000 '"
b110000 T"
b110000 1"
b101100 ;
b101100 U"
b101100 i"
b101100 ^"
b110100 >
b110100 W
b110100 &"
b110100 k
b110000 A
b110000 V
b110000 9"
b110000 j
b111000 ?
b111000 `
b111000 E"
b111000 K"
b110100 B
b110100 a
b110100 D"
b110100 J"
b111000 @
b111000 H"
b111000 O"
1!
#140000
0!
#145000
b1000000 P"
b1000000 =
b1000000 G"
b1000000 Q"
b111100 @
b111100 H"
b111100 O"
b111100 ?
b111100 `
b111100 E"
b111100 K"
b111000 B
b111000 a
b111000 D"
b111000 J"
b111000 >
b111000 W
b111000 &"
b111000 k
b110100 A
b110100 V
b110100 9"
b110100 j
b110000 ;
b110000 U"
b110000 i"
b110000 ^"
b110100 <
b110100 '"
b110100 T"
b110100 1"
1!
#150000
0!
#155000
b1000100 P"
b1000100 =
b1000100 G"
b1000100 Q"
b111000 <
b111000 '"
b111000 T"
b111000 1"
b110100 ;
b110100 U"
b110100 i"
b110100 ^"
b111100 >
b111100 W
b111100 &"
b111100 k
b111000 A
b111000 V
b111000 9"
b111000 j
b1000000 ?
b1000000 `
b1000000 E"
b1000000 K"
b111100 B
b111100 a
b111100 D"
b111100 J"
b1000000 @
b1000000 H"
b1000000 O"
1!
#160000
0!
#165000
b1001000 P"
b1001000 =
b1001000 G"
b1001000 Q"
b1000100 @
b1000100 H"
b1000100 O"
b1000100 ?
b1000100 `
b1000100 E"
b1000100 K"
b1000000 B
b1000000 a
b1000000 D"
b1000000 J"
b1000000 >
b1000000 W
b1000000 &"
b1000000 k
b111100 A
b111100 V
b111100 9"
b111100 j
b111000 ;
b111000 U"
b111000 i"
b111000 ^"
b111100 <
b111100 '"
b111100 T"
b111100 1"
1!
#170000
0!
#175000
b1001100 P"
b1001100 =
b1001100 G"
b1001100 Q"
b1000000 <
b1000000 '"
b1000000 T"
b1000000 1"
b111100 ;
b111100 U"
b111100 i"
b111100 ^"
b1000100 >
b1000100 W
b1000100 &"
b1000100 k
b1000000 A
b1000000 V
b1000000 9"
b1000000 j
b1001000 ?
b1001000 `
b1001000 E"
b1001000 K"
b1000100 B
b1000100 a
b1000100 D"
b1000100 J"
b1001000 @
b1001000 H"
b1001000 O"
1!
#180000
0!
#185000
b1010000 P"
b1010000 =
b1010000 G"
b1010000 Q"
b1001100 @
b1001100 H"
b1001100 O"
b1001100 ?
b1001100 `
b1001100 E"
b1001100 K"
b1001000 B
b1001000 a
b1001000 D"
b1001000 J"
b1001000 >
b1001000 W
b1001000 &"
b1001000 k
b1000100 A
b1000100 V
b1000100 9"
b1000100 j
b1000000 ;
b1000000 U"
b1000000 i"
b1000000 ^"
b1000100 <
b1000100 '"
b1000100 T"
b1000100 1"
1!
#190000
0!
#195000
b1010100 P"
b1010100 =
b1010100 G"
b1010100 Q"
b1001000 <
b1001000 '"
b1001000 T"
b1001000 1"
b1000100 ;
b1000100 U"
b1000100 i"
b1000100 ^"
b1001100 >
b1001100 W
b1001100 &"
b1001100 k
b1001000 A
b1001000 V
b1001000 9"
b1001000 j
b1010000 ?
b1010000 `
b1010000 E"
b1010000 K"
b1001100 B
b1001100 a
b1001100 D"
b1001100 J"
b1010000 @
b1010000 H"
b1010000 O"
1!
#200000
0!
#205000
b1011000 P"
b1011000 =
b1011000 G"
b1011000 Q"
b1010100 @
b1010100 H"
b1010100 O"
b1010100 ?
b1010100 `
b1010100 E"
b1010100 K"
b1010000 B
b1010000 a
b1010000 D"
b1010000 J"
b1010000 >
b1010000 W
b1010000 &"
b1010000 k
b1001100 A
b1001100 V
b1001100 9"
b1001100 j
b1001000 ;
b1001000 U"
b1001000 i"
b1001000 ^"
b1001100 <
b1001100 '"
b1001100 T"
b1001100 1"
1!
#210000
0!
#215000
b1011100 P"
b1011100 =
b1011100 G"
b1011100 Q"
b1010000 <
b1010000 '"
b1010000 T"
b1010000 1"
b1001100 ;
b1001100 U"
b1001100 i"
b1001100 ^"
b1010100 >
b1010100 W
b1010100 &"
b1010100 k
b1010000 A
b1010000 V
b1010000 9"
b1010000 j
b1011000 ?
b1011000 `
b1011000 E"
b1011000 K"
b1010100 B
b1010100 a
b1010100 D"
b1010100 J"
b1011000 @
b1011000 H"
b1011000 O"
1!
#220000
0!
#225000
b1100000 P"
b1100000 =
b1100000 G"
b1100000 Q"
b1011100 @
b1011100 H"
b1011100 O"
b1011100 ?
b1011100 `
b1011100 E"
b1011100 K"
b1011000 B
b1011000 a
b1011000 D"
b1011000 J"
b1011000 >
b1011000 W
b1011000 &"
b1011000 k
b1010100 A
b1010100 V
b1010100 9"
b1010100 j
b1010000 ;
b1010000 U"
b1010000 i"
b1010000 ^"
b1010100 <
b1010100 '"
b1010100 T"
b1010100 1"
1!
#230000
0!
#235000
b1100100 P"
b1100100 =
b1100100 G"
b1100100 Q"
b1011000 <
b1011000 '"
b1011000 T"
b1011000 1"
b1010100 ;
b1010100 U"
b1010100 i"
b1010100 ^"
b1011100 >
b1011100 W
b1011100 &"
b1011100 k
b1011000 A
b1011000 V
b1011000 9"
b1011000 j
b1100000 ?
b1100000 `
b1100000 E"
b1100000 K"
b1011100 B
b1011100 a
b1011100 D"
b1011100 J"
b1100000 @
b1100000 H"
b1100000 O"
1!
#240000
0!
#245000
b1101000 P"
b1101000 =
b1101000 G"
b1101000 Q"
b1100100 @
b1100100 H"
b1100100 O"
b1100100 ?
b1100100 `
b1100100 E"
b1100100 K"
b1100000 B
b1100000 a
b1100000 D"
b1100000 J"
b1100000 >
b1100000 W
b1100000 &"
b1100000 k
b1011100 A
b1011100 V
b1011100 9"
b1011100 j
b1011000 ;
b1011000 U"
b1011000 i"
b1011000 ^"
b1011100 <
b1011100 '"
b1011100 T"
b1011100 1"
1!
#250000
0!
#255000
b1101100 P"
b1101100 =
b1101100 G"
b1101100 Q"
b1100000 <
b1100000 '"
b1100000 T"
b1100000 1"
b1011100 ;
b1011100 U"
b1011100 i"
b1011100 ^"
b1100100 >
b1100100 W
b1100100 &"
b1100100 k
b1100000 A
b1100000 V
b1100000 9"
b1100000 j
b1101000 ?
b1101000 `
b1101000 E"
b1101000 K"
b1100100 B
b1100100 a
b1100100 D"
b1100100 J"
b1101000 @
b1101000 H"
b1101000 O"
1!
#260000
0!
#265000
b1110000 P"
b1110000 =
b1110000 G"
b1110000 Q"
b1101100 @
b1101100 H"
b1101100 O"
b1101100 ?
b1101100 `
b1101100 E"
b1101100 K"
b1101000 B
b1101000 a
b1101000 D"
b1101000 J"
b1101000 >
b1101000 W
b1101000 &"
b1101000 k
b1100100 A
b1100100 V
b1100100 9"
b1100100 j
b1100000 ;
b1100000 U"
b1100000 i"
b1100000 ^"
b1100100 <
b1100100 '"
b1100100 T"
b1100100 1"
1!
#270000
0!
#275000
b1110100 P"
b1110100 =
b1110100 G"
b1110100 Q"
b1101000 <
b1101000 '"
b1101000 T"
b1101000 1"
b1100100 ;
b1100100 U"
b1100100 i"
b1100100 ^"
b1101100 >
b1101100 W
b1101100 &"
b1101100 k
b1101000 A
b1101000 V
b1101000 9"
b1101000 j
b1110000 ?
b1110000 `
b1110000 E"
b1110000 K"
b1101100 B
b1101100 a
b1101100 D"
b1101100 J"
b1110000 @
b1110000 H"
b1110000 O"
1!
#280000
0!
#285000
b1111000 P"
b1111000 =
b1111000 G"
b1111000 Q"
b1110100 @
b1110100 H"
b1110100 O"
b1110100 ?
b1110100 `
b1110100 E"
b1110100 K"
b1110000 B
b1110000 a
b1110000 D"
b1110000 J"
b1110000 >
b1110000 W
b1110000 &"
b1110000 k
b1101100 A
b1101100 V
b1101100 9"
b1101100 j
b1101000 ;
b1101000 U"
b1101000 i"
b1101000 ^"
b1101100 <
b1101100 '"
b1101100 T"
b1101100 1"
1!
#290000
0!
#295000
b1111100 P"
b1111100 =
b1111100 G"
b1111100 Q"
b1110000 <
b1110000 '"
b1110000 T"
b1110000 1"
b1101100 ;
b1101100 U"
b1101100 i"
b1101100 ^"
b1110100 >
b1110100 W
b1110100 &"
b1110100 k
b1110000 A
b1110000 V
b1110000 9"
b1110000 j
b1111000 ?
b1111000 `
b1111000 E"
b1111000 K"
b1110100 B
b1110100 a
b1110100 D"
b1110100 J"
b1111000 @
b1111000 H"
b1111000 O"
1!
#300000
0!
#305000
b10000000 P"
b10000000 =
b10000000 G"
b10000000 Q"
b1111100 @
b1111100 H"
b1111100 O"
b1111100 ?
b1111100 `
b1111100 E"
b1111100 K"
b1111000 B
b1111000 a
b1111000 D"
b1111000 J"
b1111000 >
b1111000 W
b1111000 &"
b1111000 k
b1110100 A
b1110100 V
b1110100 9"
b1110100 j
b1110000 ;
b1110000 U"
b1110000 i"
b1110000 ^"
b1110100 <
b1110100 '"
b1110100 T"
b1110100 1"
1!
