Pipeline Basic/src/waveform.vcd
$date
	Sun Nov  2 12:32:58 2025
$end
$version
	Icarus Verilog
$end
$timescale
	1ps
$end
$scope module testbench $end
$scope module uut $end
$var wire 5 ! A3 [4:0] $end
$var wire 1 " BranchE $end
$var wire 1 # CLK $end
$var wire 32 $ PCPlus4E [31:0] $end
$var wire 1 % RST $end
$var wire 32 & ReadDataM [31:0] $end
$var wire 32 ' WD3 [31:0] $end
$var wire 1 ( WE3 $end
$var wire 32 ) WriteDataM [31:0] $end
$var wire 32 * WriteDataE [31:0] $end
$var wire 32 + ResultW [31:0] $end
$var wire 2 , ResultSrcW [1:0] $end
$var wire 2 - ResultSrcM [1:0] $end
$var wire 2 . ResultSrcE [1:0] $end
$var wire 2 / ResultSrcD [1:0] $end
$var wire 1 0 RegWriteW $end
$var wire 1 1 RegWriteM $end
$var wire 1 2 RegWriteE $end
$var wire 1 3 RegWriteD $end
$var wire 32 4 ReadDataW [31:0] $end
$var wire 5 5 RdW [4:0] $end
$var wire 5 6 RdM [4:0] $end
$var wire 5 7 RdE [4:0] $end
$var wire 5 8 RdD [4:0] $end
$var wire 32 9 RD3 [31:0] $end
$var wire 32 : RD2E [31:0] $end
$var wire 32 ; RD2 [31:0] $end
$var wire 32 < RD1E [31:0] $end
$var wire 32 = RD1 [31:0] $end
$var wire 32 > RD [31:0] $end
$var wire 32 ? PCTargetE [31:0] $end
$var wire 2 @ PCSrcE [1:0] $end
$var wire 32 A PCPlus4W [31:0] $end
$var wire 32 B PCPlus4M [31:0] $end
$var wire 32 C PCPlus4F [31:0] $end
$var wire 32 D PCPlus4D [31:0] $end
$var wire 32 E PCF [31:0] $end
$var wire 32 F PCE [31:0] $end
$var wire 32 G PCD [31:0] $end
$var wire 1 H MemWriteM $end
$var wire 1 I MemWriteE $end
$var wire 1 J MemWriteD $end
$var wire 32 K InstrD [31:0] $end
$var wire 32 L ImmExtE [31:0] $end
$var wire 32 M ImmExtD [31:0] $end
$var wire 3 N Cond_SrcE [2:0] $end
$var wire 3 O Cond_SrcD [2:0] $end
$var wire 1 P ALUSrcE $end
$var wire 1 Q ALUSrcD $end
$var wire 32 R ALUResultW [31:0] $end
$var wire 32 S ALUResultM1 [31:0] $end
$var wire 32 T ALUResultM [31:0] $end
$var wire 32 U ALUResultE [31:0] $end
$var wire 3 V ALUControlE [2:0] $end
$var wire 3 W ALUControlD [2:0] $end
$scope module DE1 $end
$var wire 3 X ALUControlE [2:0] $end
$var wire 1 P ALUSrcE $end
$var wire 1 " BranchE $end
$var wire 1 # CLK $end
$var wire 3 Y Cond_SrcE [2:0] $end
$var wire 32 Z ImmExtE [31:0] $end
$var wire 1 I MemWriteE $end
$var wire 32 [ PCE [31:0] $end
$var wire 32 \ PCPlus4E [31:0] $end
$var wire 32 ] RD1E [31:0] $end
$var wire 32 ^ RD2E [31:0] $end
$var wire 1 % RST $end
$var wire 5 _ RdE [4:0] $end
$var wire 1 2 RegWriteE $end
$var wire 2 ` ResultSrcE [1:0] $end
$var wire 2 a ResultSrcD [1:0] $end
$var wire 1 3 RegWriteD $end
$var wire 5 b RdD [4:0] $end
$var wire 32 c RD2D [31:0] $end
$var wire 32 d RD1D [31:0] $end
$var wire 32 e PCPlus4D [31:0] $end
$var wire 32 f PCD [31:0] $end
$var wire 1 J MemWriteD $end
$var wire 32 g ImmExtD [31:0] $end
$var wire 3 h Cond_SrcD [2:0] $end
$var wire 1 Q ALUSrcD $end
$var wire 3 i ALUControlD [2:0] $end
$var reg 3 j ALUControl [2:0] $end
$var reg 1 k ALUSrc $end
$var reg 32 l Cond_Src [31:0] $end
$var reg 32 m ImmExt [31:0] $end
$var reg 1 n MemWrite $end
$var reg 32 o PC [31:0] $end
$var reg 32 p RD1 [31:0] $end
$var reg 32 q RD2 [31:0] $end
$var reg 5 r Rd [4:0] $end
$var reg 1 s RegWrite $end
$var reg 2 t ResultSrc [1:0] $end
$upscope $end
$scope module Decode1 $end
$var wire 5 u A1 [4:0] $end
$var wire 5 v A2 [4:0] $end
$var wire 5 w A3 [4:0] $end
$var wire 1 # CLK $end
$var wire 25 x Imm [24:0] $end
$var wire 1 % RST $end
$var wire 5 y Rd11_7 [4:0] $end
$var wire 32 z WD3 [31:0] $end
$var wire 1 ( WE3 $end
$var wire 3 { funct3 [2:0] $end
$var wire 7 | funct7 [6:0] $end
$var wire 7 } op [6:0] $end
$var reg 3 ~ ALUControlD [2:0] $end
$var reg 1 Q ALUSrcD $end
$var reg 3 !" Cond_SrcD [2:0] $end
$var reg 32 "" ImmExtD [31:0] $end
$var reg 2 #" ImmSrcD [1:0] $end
$var reg 1 J MemWriteD $end
$var reg 32 $" RD1 [31:0] $end
$var reg 32 %" RD2 [31:0] $end
$var reg 5 &" RdD [4:0] $end
$var reg 1 3 RegWriteD $end
$var reg 2 '" ResultSrcD [1:0] $end
$var integer 32 (" i [31:0] $end
$upscope $end
$scope module EM1 $end
$var wire 32 )" ALUResultM [31:0] $end
$var wire 1 # CLK $end
$var wire 1 I MemWriteE $end
$var wire 1 H MemWriteM $end
$var wire 32 *" PCPlus4E [31:0] $end
$var wire 32 +" PCPlus4M [31:0] $end
$var wire 1 % RST $end
$var wire 5 ," RdE [4:0] $end
$var wire 5 -" RdM [4:0] $end
$var wire 1 2 RegWriteE $end
$var wire 1 1 RegWriteM $end
$var wire 2 ." ResultSrcE [1:0] $end
$var wire 2 /" ResultSrcM [1:0] $end
$var wire 32 0" WriteDataM [31:0] $end
$var wire 32 1" WriteDataE [31:0] $end
$var wire 32 2" ALUResultE [31:0] $end
$var reg 32 3" ALUResult [31:0] $end
$var reg 1 4" MemWrite $end
$var reg 32 5" PCPlus4 [31:0] $end
$var reg 5 6" Rd [4:0] $end
$var reg 1 7" RegWrite $end
$var reg 2 8" ResultSrc [1:0] $end
$var reg 32 9" WriteData [31:0] $end
$upscope $end
$scope module Execute1 $end
$var wire 3 :" ALUControlE [2:0] $end
$var wire 1 P ALUSrcE $end
$var wire 3 ;" Cond_SrcE [2:0] $end
$var wire 32 <" ImmExtE [31:0] $end
$var wire 32 =" PCE [31:0] $end
$var wire 32 >" RD1E [31:0] $end
$var wire 32 ?" RD2E [31:0] $end
$var reg 32 @" ALUResultE [31:0] $end
$var reg 1 A" Negative $end
$var reg 2 B" PCSrcE [1:0] $end
$var reg 32 C" PCTargetE [31:0] $end
$var reg 32 D" SrcB [31:0] $end
$var reg 32 E" WriteDataE [31:0] $end
$var reg 1 F" Zero $end
$upscope $end
$scope module FD1 $end
$var wire 1 # CLK $end
$var wire 32 G" InstrD [31:0] $end
$var wire 32 H" PCD [31:0] $end
$var wire 32 I" PCPlus4D [31:0] $end
$var wire 1 % RST $end
$var wire 32 J" RD [31:0] $end
$var wire 32 K" PCPlus4F [31:0] $end
$var wire 32 L" PCF [31:0] $end
$var reg 32 M" Instr [31:0] $end
$var reg 32 N" PC [31:0] $end
$var reg 32 O" PCPlus4 [31:0] $end
$upscope $end
$scope module Fetch1 $end
$var wire 32 P" ALUResultE [31:0] $end
$var wire 1 # CLK $end
$var wire 2 Q" PCSrcE [1:0] $end
$var wire 32 R" PCTargetE [31:0] $end
$var wire 1 % RST $end
$var reg 32 S" PCF [31:0] $end
$var reg 32 T" PCNextF [31:0] $end
$var reg 32 U" PCPlus4F [31:0] $end
$var reg 32 V" RD [31:0] $end
$upscope $end
$scope module MW1 $end
$var wire 32 W" ALUResultM [31:0] $end
$var wire 32 X" ALUResultW [31:0] $end
$var wire 1 # CLK $end
$var wire 32 Y" PCPlus4M [31:0] $end
$var wire 32 Z" PCPlus4W [31:0] $end
$var wire 1 % RST $end
$var wire 5 [" RdM [4:0] $end
$var wire 5 \" RdW [4:0] $end
$var wire 32 ]" ReadDataM [31:0] $end
$var wire 32 ^" ReadDataW [31:0] $end
$var wire 1 1 RegWriteM $end
$var wire 1 0 RegWriteW $end
$var wire 2 _" ResultSrcM [1:0] $end
$var wire 2 `" ResultSrcW [1:0] $end
$var reg 32 a" ALUResult [31:0] $end
$var reg 32 b" PCPlus4 [31:0] $end
$var reg 5 c" Rd [4:0] $end
$var reg 32 d" ReadData [31:0] $end
$var reg 1 e" RegWrite $end
$var reg 2 f" ResultSrc [1:0] $end
$upscope $end
$scope module Memory1 $end
$var wire 32 g" ALUResultM [31:0] $end
$var wire 1 # CLK $end
$var wire 1 H MemWriteM $end
$var wire 1 % RST $end
$var wire 32 h" WriteDataM [31:0] $end
$var reg 32 i" ALUResultM1 [31:0] $end
$var reg 32 j" RD3 [31:0] $end
$var integer 32 k" i [31:0] $end
$upscope $end
$scope module WriteBack1 $end
$var wire 32 l" ALUResultW [31:0] $end
$var wire 32 m" PCPlus4W [31:0] $end
$var wire 32 n" ReadDataW [31:0] $end
$var wire 2 o" ResultSrcW [1:0] $end
$var reg 32 p" ResultW [31:0] $end
$upscope $end
$upscope $end
$upscope $end
$enddefinitions $end
#0
$dumpvars
bx p"
bx o"
bx n"
bx m"
bx l"
bx k"
bx j"
bx i"
bx h"
bx g"
bx f"
xe"
bx d"
bx c"
bx b"
bx a"
bx `"
bx _"
bx ^"
bz ]"
bx \"
bx ["
bx Z"
bx Y"
bx X"
bx W"
bx V"
bx U"
bx T"
bx S"
bx R"
bx Q"
bx P"
bx O"
bx N"
bx M"
bx L"
bx K"
bx J"
bx I"
bx H"
bx G"
xF"
bx E"
bx D"
bx C"
bx B"
xA"
bx @"
bx ?"
bx >"
bx ="
bx <"
bx ;"
bx :"
bx 9"
bx 8"
x7"
bx 6"
bx 5"
x4"
bx 3"
bx 2"
bx 1"
bx 0"
bx /"
bx ."
bx -"
bx ,"
bx +"
bz *"
bx )"
bx ("
bx '"
bx &"
bx %"
bx $"
bx #"
bx ""
bx !"
bx ~
bx }
bx |
bx {
bz z
bx y
bx x
bz w
bx v
bx u
bx t
xs
bx r
bx q
bx p
bx o
xn
bx m
bx l
xk
bx j
bx i
bx h
bx g
bx f
bx e
bx d
bx c
bx b
bx a
bx `
bx _
bx ^
bx ]
bz \
bx [
bx Z
bx Y
bx X
bx W
bx V
bx U
bx T
bx S
bx R
xQ
xP
bx O
bx N
bx M
bx L
bx K
xJ
xI
xH
bx G
bx F
bx E
bx D
bx C
bx B
bx A
bx @
bx ?
bx >
bx =
bx <
bx ;
bx :
bx 9
bx 8
bx 7
bx 6
bx 5
bx 4
x3
x2
x1
x0
bx /
bx .
bx -
bx ,
bx +
bx *
bx )
z(
bz '
bz &
0%
bz $
0#
z"
bz !
$end
#5000
b100 T"
b0 @
b0 B"
b0 Q"
b0 8
b0 b
b0 &"
0A"
1F"
b0 U
b0 2"
b0 @"
b0 P"
b100 C
b100 K"
b100 U"
b10000000010000010000011 >
b10000000010000010000011 J"
b10000000010000010000011 V"
b0 ;
b0 c
b0 %"
b0 =
b0 d
b0 $"
b0 y
b0 x
b0 v
b0 u
b0 |
b0 {
b0 }
b0 ?
b0 C"
b0 R"
b0 *
b0 1"
b0 E"
b0 D"
b0 +
b0 p"
b0 S
b0 i"
b1010 9
b1010 j"
b0 E
b0 L"
b0 S"
b0 D
b0 e
b0 I"
b0 O"
b0 G
b0 f
b0 H"
b0 N"
b0 K
b0 G"
b0 M"
b0 L
b0 Z
b0 <"
b0 m
b0 7
b0 _
b0 ,"
b0 r
b0 F
b0 [
b0 ="
b0 o
b0 :
b0 ^
b0 ?"
b0 q
b0 <
b0 ]
b0 >"
b0 p
0P
0k
b0 V
b0 X
b0 :"
b0 j
b0 l
0I
0n
b0 .
b0 `
b0 ."
b0 t
02
0s
b0 A
b0 Z"
b0 m"
b0 b"
b0 5
b0 \"
b0 c"
b0 4
b0 ^"
b0 n"
b0 d"
b0 R
b0 X"
b0 l"
b0 a"
b0 ,
b0 `"
b0 o"
b0 f"
00
0e"
b0 T
b0 )"
b0 W"
b0 g"
b0 3"
b0 )
b0 0"
b0 h"
b0 9"
b0 B
b0 +"
b0 Y"
b0 5"
b0 6
b0 -"
b0 ["
b0 6"
0H
04"
b0 -
b0 /"
b0 _"
b0 8"
01
07"
b100000 ("
b100000 k"
1#
#10000
0#
1%
#15000
b1000 T"
b1 8
b1 b
b1 &"
b100 M
b100 g
b100 ""
b0 W
b0 i
b0 ~
b1 /
b1 a
b1 '"
1Q
0J
b0 #"
13
bx ?
bx C"
bx R"
xA"
xF"
bx U
bx 2"
bx @"
bx P"
b1 y
b1000000001000001 x
b100 v
b10 {
b11 }
b100000000010000100000011 >
b100000000010000100000011 J"
b100000000010000100000011 V"
b1000 C
b1000 K"
b1000 U"
bz B
bz +"
bz Y"
bz 5"
bz 4
bz ^"
bz n"
bz d"
bx L
bx Z
bx <"
bx m
xP
xk
bx V
bx X
bx :"
bx j
b0xxx l
xI
xn
bx .
bx `
bx ."
bx t
x2
xs
b100 D
b100 e
b100 I"
b100 O"
b100 G
b100 f
b100 H"
b100 N"
b10000000010000010000011 K
b10000000010000010000011 G"
b10000000010000010000011 M"
b100 E
b100 L"
b100 S"
1#
#20000
0#
#25000
b1100 T"
b10 8
b10 b
b10 &"
b1000 M
b1000 g
b1000 ""
b1100 C
b1100 K"
b1100 U"
b100010000000110110011 >
b100010000000110110011 J"
b100010000000110110011 V"
b10 y
b10000000001000010 x
b1000 v
b1000 ?
b1000 C"
b1000 R"
b100 D"
0A"
0F"
b100 U
b100 2"
b100 @"
b100 P"
bx S
bx i"
bx 9
bx j"
b1000 E
b1000 L"
b1000 S"
b1000 D
b1000 e
b1000 I"
b1000 O"
b1000 G
b1000 f
b1000 H"
b1000 N"
b100000000010000100000011 K
b100000000010000100000011 G"
b100000000010000100000011 M"
b100 L
b100 Z
b100 <"
b100 m
b1 7
b1 _
b1 ,"
b1 r
b100 F
b100 [
b100 ="
b100 o
1P
1k
b0 V
b0 X
b0 :"
b0 j
0I
0n
b1 .
b1 `
b1 ."
b1 t
12
1s
bz A
bz Z"
bz m"
bz b"
bx T
bx )"
bx W"
bx g"
bx 3"
xH
x4"
bx -
bx /"
bx _"
bx 8"
x1
x7"
1#
#30000
0#
#35000
b10000 T"
b1000 U
b1000 2"
b1000 @"
b1000 P"
b11 8
b11 b
b11 &"
bx M
bx g
bx ""
bx #"
b0 /
b0 a
b0 '"
0Q
b100 S
b100 i"
b1010 9
b1010 j"
bx +
bx p"
b1000 D"
b10000 ?
b10000 C"
b10000 R"
b11 y
b10001000000011 x
b1 v
b10 u
b0 {
b110011 }
b10000 C
b10000 K"
b10000 U"
b100 T
b100 )"
b100 W"
b100 g"
b100 3"
b1 6
b1 -"
b1 ["
b1 6"
0H
04"
b1 -
b1 /"
b1 _"
b1 8"
11
17"
bx R
bx X"
bx l"
bx a"
bx ,
bx `"
bx o"
bx f"
x0
xe"
b1000 L
b1000 Z
b1000 <"
b1000 m
b10 7
b10 _
b10 ,"
b10 r
b1000 F
b1000 [
b1000 ="
b1000 o
b1100 D
b1100 e
b1100 I"
b1100 O"
b1100 G
b1100 f
b1100 H"
b1100 N"
b100010000000110110011 K
b100010000000110110011 G"
b100010000000110110011 M"
b1100 E
b1100 L"
b1100 S"
1#
#40000
0#
#45000
b10100 T"
1F"
b0 U
b0 2"
b0 @"
b0 P"
b10100 C
b10100 K"
b10100 U"
bx ?
bx C"
bx R"
b0 D"
bz +
bz p"
b1000 S
b1000 i"
b10000 E
b10000 L"
b10000 S"
b10000 D
b10000 e
b10000 I"
b10000 O"
b10000 G
b10000 f
b10000 H"
b10000 N"
bx L
bx Z
bx <"
bx m
b11 7
b11 _
b11 ,"
b11 r
b1100 F
b1100 [
b1100 ="
b1100 o
0P
0k
b0 .
b0 `
b0 ."
b0 t
b1 5
b1 \"
b1 c"
b100 R
b100 X"
b100 l"
b100 a"
b1 ,
b1 `"
b1 o"
b1 f"
10
1e"
b1000 T
b1000 )"
b1000 W"
b1000 g"
b1000 3"
b10 6
b10 -"
b10 ["
b10 6"
1#
#50000
0#
#55000
b11000 T"
b0 S
b0 i"
b11000 C
b11000 K"
b11000 U"
b0 T
b0 )"
b0 W"
b0 g"
b0 3"
b11 6
b11 -"
b11 ["
b11 6"
b0 -
b0 /"
b0 _"
b0 8"
b10 5
b10 \"
b10 c"
b1000 R
b1000 X"
b1000 l"
b1000 a"
b10000 F
b10000 [
b10000 ="
b10000 o
b10100 D
b10100 e
b10100 I"
b10100 O"
b10100 G
b10100 f
b10100 H"
b10100 N"
b10100 E
b10100 L"
b10100 S"
1#
#60000
0#
#65000
b11100 T"
b11100 C
b11100 K"
b11100 U"
b0 +
b0 p"
b11000 E
b11000 L"
b11000 S"
b11000 D
b11000 e
b11000 I"
b11000 O"
b11000 G
b11000 f
b11000 H"
b11000 N"
b10100 F
b10100 [
b10100 ="
b10100 o
b11 5
b11 \"
b11 c"
b0 R
b0 X"
b0 l"
b0 a"
b0 ,
b0 `"
b0 o"
b0 f"
1#
#70000
0#
#75000
b100000 T"
b100000 C
b100000 K"
b100000 U"
b11000 F
b11000 [
b11000 ="
b11000 o
b11100 D
b11100 e
b11100 I"
b11100 O"
b11100 G
b11100 f
b11100 H"
b11100 N"
b11100 E
b11100 L"
b11100 S"
1#
#80000
0#
#85000
b100100 T"
b100100 C
b100100 K"
b100100 U"
b100000 E
b100000 L"
b100000 S"
b100000 D
b100000 e
b100000 I"
b100000 O"
b100000 G
b100000 f
b100000 H"
b100000 N"
b11100 F
b11100 [
b11100 ="
b11100 o
1#
#90000
0#
#95000
b101000 T"
b101000 C
b101000 K"
b101000 U"
b100000 F
b100000 [
b100000 ="
b100000 o
b100100 D
b100100 e
b100100 I"
b100100 O"
b100100 G
b100100 f
b100100 H"
b100100 N"
b100100 E
b100100 L"
b100100 S"
1#
#100000
0#
#105000
b101100 T"
b101100 C
b101100 K"
b101100 U"
b101000 E
b101000 L"
b101000 S"
b101000 D
b101000 e
b101000 I"
b101000 O"
b101000 G
b101000 f
b101000 H"
b101000 N"
b100100 F
b100100 [
b100100 ="
b100100 o
1#
#110000
0#
#115000
b110000 T"
b110000 C
b110000 K"
b110000 U"
b101000 F
b101000 [
b101000 ="
b101000 o
b101100 D
b101100 e
b101100 I"
b101100 O"
b101100 G
b101100 f
b101100 H"
b101100 N"
b101100 E
b101100 L"
b101100 S"
1#
#120000
0#
#125000
b110100 T"
b110100 C
b110100 K"
b110100 U"
b110000 E
b110000 L"
b110000 S"
b110000 D
b110000 e
b110000 I"
b110000 O"
b110000 G
b110000 f
b110000 H"
b110000 N"
b101100 F
b101100 [
b101100 ="
b101100 o
1#
#130000
0#
#135000
b111000 T"
b111000 C
b111000 K"
b111000 U"
b110000 F
b110000 [
b110000 ="
b110000 o
b110100 D
b110100 e
b110100 I"
b110100 O"
b110100 G
b110100 f
b110100 H"
b110100 N"
b110100 E
b110100 L"
b110100 S"
1#
#140000
0#
#145000
b111100 T"
b111100 C
b111100 K"
b111100 U"
b111000 E
b111000 L"
b111000 S"
b111000 D
b111000 e
b111000 I"
b111000 O"
b111000 G
b111000 f
b111000 H"
b111000 N"
b110100 F
b110100 [
b110100 ="
b110100 o
1#
#150000
0#
#155000
b1000000 T"
b1000000 C
b1000000 K"
b1000000 U"
b111000 F
b111000 [
b111000 ="
b111000 o
b111100 D
b111100 e
b111100 I"
b111100 O"
b111100 G
b111100 f
b111100 H"
b111100 N"
b111100 E
b111100 L"
b111100 S"
1#
#160000
0#
#165000
b1000100 T"
b1000100 C
b1000100 K"
b1000100 U"
b1000000 E
b1000000 L"
b1000000 S"
b1000000 D
b1000000 e
b1000000 I"
b1000000 O"
b1000000 G
b1000000 f
b1000000 H"
b1000000 N"
b111100 F
b111100 [
b111100 ="
b111100 o
1#
#170000
0#
#175000
b1001000 T"
b1001000 C
b1001000 K"
b1001000 U"
b1000000 F
b1000000 [
b1000000 ="
b1000000 o
b1000100 D
b1000100 e
b1000100 I"
b1000100 O"
b1000100 G
b1000100 f
b1000100 H"
b1000100 N"
b1000100 E
b1000100 L"
b1000100 S"
1#
#180000
0#
#185000
b1001100 T"
b1001100 C
b1001100 K"
b1001100 U"
b1001000 E
b1001000 L"
b1001000 S"
b1001000 D
b1001000 e
b1001000 I"
b1001000 O"
b1001000 G
b1001000 f
b1001000 H"
b1001000 N"
b1000100 F
b1000100 [
b1000100 ="
b1000100 o
1#
#190000
0#
#195000
b1010000 T"
b1010000 C
b1010000 K"
b1010000 U"
b1001000 F
b1001000 [
b1001000 ="
b1001000 o
b1001100 D
b1001100 e
b1001100 I"
b1001100 O"
b1001100 G
b1001100 f
b1001100 H"
b1001100 N"
b1001100 E
b1001100 L"
b1001100 S"
1#
#200000
0#
#205000
b1010100 T"
b1010100 C
b1010100 K"
b1010100 U"
b1010000 E
b1010000 L"
b1010000 S"
b1010000 D
b1010000 e
b1010000 I"
b1010000 O"
b1010000 G
b1010000 f
b1010000 H"
b1010000 N"
b1001100 F
b1001100 [
b1001100 ="
b1001100 o
1#
#210000
0#
#215000
b1011000 T"
b1011000 C
b1011000 K"
b1011000 U"
b1010000 F
b1010000 [
b1010000 ="
b1010000 o
b1010100 D
b1010100 e
b1010100 I"
b1010100 O"
b1010100 G
b1010100 f
b1010100 H"
b1010100 N"
b1010100 E
b1010100 L"
b1010100 S"
1#
#220000
0#
#225000
b1011100 T"
b1011100 C
b1011100 K"
b1011100 U"
b1011000 E
b1011000 L"
b1011000 S"
b1011000 D
b1011000 e
b1011000 I"
b1011000 O"
b1011000 G
b1011000 f
b1011000 H"
b1011000 N"
b1010100 F
b1010100 [
b1010100 ="
b1010100 o
1#
#230000
0#
#235000
b1100000 T"
b1100000 C
b1100000 K"
b1100000 U"
b1011000 F
b1011000 [
b1011000 ="
b1011000 o
b1011100 D
b1011100 e
b1011100 I"
b1011100 O"
b1011100 G
b1011100 f
b1011100 H"
b1011100 N"
b1011100 E
b1011100 L"
b1011100 S"
1#
#240000
0#
#245000
b1100100 T"
b1100100 C
b1100100 K"
b1100100 U"
b1100000 E
b1100000 L"
b1100000 S"
b1100000 D
b1100000 e
b1100000 I"
b1100000 O"
b1100000 G
b1100000 f
b1100000 H"
b1100000 N"
b1011100 F
b1011100 [
b1011100 ="
b1011100 o
1#
#250000
0#
#255000
b1101000 T"
b1101000 C
b1101000 K"
b1101000 U"
b1100000 F
b1100000 [
b1100000 ="
b1100000 o
b1100100 D
b1100100 e
b1100100 I"
b1100100 O"
b1100100 G
b1100100 f
b1100100 H"
b1100100 N"
b1100100 E
b1100100 L"
b1100100 S"
1#
#260000
0#
#265000
b1101100 T"
b1101100 C
b1101100 K"
b1101100 U"
b1101000 E
b1101000 L"
b1101000 S"
b1101000 D
b1101000 e
b1101000 I"
b1101000 O"
b1101000 G
b1101000 f
b1101000 H"
b1101000 N"
b1100100 F
b1100100 [
b1100100 ="
b1100100 o
1#
#270000
0#
#275000
b1110000 T"
b1110000 C
b1110000 K"
b1110000 U"
b1101000 F
b1101000 [
b1101000 ="
b1101000 o
b1101100 D
b1101100 e
b1101100 I"
b1101100 O"
b1101100 G
b1101100 f
b1101100 H"
b1101100 N"
b1101100 E
b1101100 L"
b1101100 S"
1#
#280000
0#
#285000
b1110100 T"
b1110100 C
b1110100 K"
b1110100 U"
b1110000 E
b1110000 L"
b1110000 S"
b1110000 D
b1110000 e
b1110000 I"
b1110000 O"
b1110000 G
b1110000 f
b1110000 H"
b1110000 N"
b1101100 F
b1101100 [
b1101100 ="
b1101100 o
1#
#290000
0#
#295000
b1111000 T"
b1111000 C
b1111000 K"
b1111000 U"
b1110000 F
b1110000 [
b1110000 ="
b1110000 o
b1110100 D
b1110100 e
b1110100 I"
b1110100 O"
b1110100 G
b1110100 f
b1110100 H"
b1110100 N"
b1110100 E
b1110100 L"
b1110100 S"
1#
#300000
0#
#305000
b1111100 T"
b1111100 C
b1111100 K"
b1111100 U"
b1111000 E
b1111000 L"
b1111000 S"
b1111000 D
b1111000 e
b1111000 I"
b1111000 O"
b1111000 G
b1111000 f
b1111000 H"
b1111000 N"
b1110100 F
b1110100 [
b1110100 ="
b1110100 o
1#
