Pipeline Basic/src/waveform.vcd
$date
	Sun Nov  2 16:16:13 2025
$end
$version
	Icarus Verilog
$end
$timescale
	1ps
$end
$scope module testbench $end
$scope module uut $end
$var wire 1 ! BranchE $end
$var wire 1 " CLK $end
$var wire 1 # RST $end
$var wire 32 $ WriteDataM [31:0] $end
$var wire 32 % WriteDataE [31:0] $end
$var wire 32 & ResultW [31:0] $end
$var wire 2 ' ResultSrcW [1:0] $end
$var wire 2 ( ResultSrcM [1:0] $end
$var wire 2 ) ResultSrcE [1:0] $end
$var wire 2 * ResultSrcD [1:0] $end
$var wire 1 + RegWriteW $end
$var wire 1 , RegWriteM $end
$var wire 1 - RegWriteE $end
$var wire 1 . RegWriteD $end
$var wire 32 / ReadDataW [31:0] $end
$var wire 5 0 RdW [4:0] $end
$var wire 5 1 RdM [4:0] $end
$var wire 5 2 RdE [4:0] $end
$var wire 5 3 RdD [4:0] $end
$var wire 32 4 RD3 [31:0] $end
$var wire 32 5 RD2E [31:0] $end
$var wire 32 6 RD2 [31:0] $end
$var wire 32 7 RD1E [31:0] $end
$var wire 32 8 RD1 [31:0] $end
$var wire 32 9 RD [31:0] $end
$var wire 32 : PCTargetE [31:0] $end
$var wire 2 ; PCSrcE [1:0] $end
$var wire 32 < PCPlus4W [31:0] $end
$var wire 32 = PCPlus4M [31:0] $end
$var wire 32 > PCPlus4F [31:0] $end
$var wire 32 ? PCPlus4E [31:0] $end
$var wire 32 @ PCPlus4D [31:0] $end
$var wire 32 A PCF [31:0] $end
$var wire 32 B PCE [31:0] $end
$var wire 32 C PCD [31:0] $end
$var wire 1 D MemWriteM $end
$var wire 1 E MemWriteE $end
$var wire 1 F MemWriteD $end
$var wire 32 G InstrD [31:0] $end
$var wire 32 H ImmExtE [31:0] $end
$var wire 32 I ImmExtD [31:0] $end
$var wire 3 J Cond_SrcE [2:0] $end
$var wire 3 K Cond_SrcD [2:0] $end
$var wire 1 L ALUSrcE $end
$var wire 1 M ALUSrcD $end
$var wire 32 N ALUResultW [31:0] $end
$var wire 32 O ALUResultM1 [31:0] $end
$var wire 32 P ALUResultM [31:0] $end
$var wire 32 Q ALUResultE [31:0] $end
$var wire 3 R ALUControlE [2:0] $end
$var wire 3 S ALUControlD [2:0] $end
$scope module DE1 $end
$var wire 3 T ALUControlE [2:0] $end
$var wire 1 L ALUSrcE $end
$var wire 1 ! BranchE $end
$var wire 1 " CLK $end
$var wire 3 U Cond_SrcE [2:0] $end
$var wire 32 V ImmExtE [31:0] $end
$var wire 1 E MemWriteE $end
$var wire 32 W PCE [31:0] $end
$var wire 32 X PCPlus4E [31:0] $end
$var wire 32 Y RD1E [31:0] $end
$var wire 32 Z RD2E [31:0] $end
$var wire 1 # RST $end
$var wire 5 [ RdE [4:0] $end
$var wire 1 - RegWriteE $end
$var wire 2 \ ResultSrcE [1:0] $end
$var wire 2 ] ResultSrcD [1:0] $end
$var wire 1 . RegWriteD $end
$var wire 5 ^ RdD [4:0] $end
$var wire 32 _ RD2D [31:0] $end
$var wire 32 ` RD1D [31:0] $end
$var wire 32 a PCPlus4D [31:0] $end
$var wire 32 b PCD [31:0] $end
$var wire 1 F MemWriteD $end
$var wire 32 c ImmExtD [31:0] $end
$var wire 3 d Cond_SrcD [2:0] $end
$var wire 1 M ALUSrcD $end
$var wire 3 e ALUControlD [2:0] $end
$var reg 3 f ALUControl [2:0] $end
$var reg 1 g ALUSrc $end
$var reg 32 h Cond_Src [31:0] $end
$var reg 32 i ImmExt [31:0] $end
$var reg 1 j MemWrite $end
$var reg 32 k PC [31:0] $end
$var reg 32 l PCPlus4 [31:0] $end
$var reg 32 m RD1 [31:0] $end
$var reg 32 n RD2 [31:0] $end
$var reg 5 o Rd [4:0] $end
$var reg 1 p RegWrite $end
$var reg 2 q ResultSrc [1:0] $end
$upscope $end
$scope module Decode1 $end
$var wire 5 r A1 [4:0] $end
$var wire 5 s A2 [4:0] $end
$var wire 1 " CLK $end
$var wire 25 t Imm [24:0] $end
$var wire 1 # RST $end
$var wire 5 u Rd11_7 [4:0] $end
$var wire 3 v funct3 [2:0] $end
$var wire 7 w funct7 [6:0] $end
$var wire 7 x op [6:0] $end
$var wire 1 + WE3 $end
$var wire 32 y WD3 [31:0] $end
$var wire 5 z A3 [4:0] $end
$var reg 3 { ALUControlD [2:0] $end
$var reg 1 M ALUSrcD $end
$var reg 3 | Cond_SrcD [2:0] $end
$var reg 32 } ImmExtD [31:0] $end
$var reg 2 ~ ImmSrcD [1:0] $end
$var reg 1 F MemWriteD $end
$var reg 32 !" RD1 [31:0] $end
$var reg 32 "" RD2 [31:0] $end
$var reg 5 #" RdD [4:0] $end
$var reg 1 . RegWriteD $end
$var reg 2 $" ResultSrcD [1:0] $end
$var integer 32 %" i [31:0] $end
$upscope $end
$scope module EM1 $end
$var wire 32 &" ALUResultM [31:0] $end
$var wire 1 " CLK $end
$var wire 1 E MemWriteE $end
$var wire 1 D MemWriteM $end
$var wire 32 '" PCPlus4E [31:0] $end
$var wire 32 (" PCPlus4M [31:0] $end
$var wire 1 # RST $end
$var wire 5 )" RdE [4:0] $end
$var wire 5 *" RdM [4:0] $end
$var wire 1 - RegWriteE $end
$var wire 1 , RegWriteM $end
$var wire 2 +" ResultSrcE [1:0] $end
$var wire 2 ," ResultSrcM [1:0] $end
$var wire 32 -" WriteDataM [31:0] $end
$var wire 32 ." WriteDataE [31:0] $end
$var wire 32 /" ALUResultE [31:0] $end
$var reg 32 0" ALUResult [31:0] $end
$var reg 1 1" MemWrite $end
$var reg 32 2" PCPlus4 [31:0] $end
$var reg 5 3" Rd [4:0] $end
$var reg 1 4" RegWrite $end
$var reg 2 5" ResultSrc [1:0] $end
$var reg 32 6" WriteData [31:0] $end
$upscope $end
$scope module Execute1 $end
$var wire 3 7" ALUControlE [2:0] $end
$var wire 1 L ALUSrcE $end
$var wire 3 8" Cond_SrcE [2:0] $end
$var wire 32 9" ImmExtE [31:0] $end
$var wire 32 :" PCE [31:0] $end
$var wire 32 ;" RD1E [31:0] $end
$var wire 32 <" RD2E [31:0] $end
$var reg 32 =" ALUResultE [31:0] $end
$var reg 1 >" Negative $end
$var reg 2 ?" PCSrcE [1:0] $end
$var reg 32 @" PCTargetE [31:0] $end
$var reg 32 A" SrcB [31:0] $end
$var reg 32 B" WriteDataE [31:0] $end
$var reg 1 C" Zero $end
$upscope $end
$scope module FD1 $end
$var wire 1 " CLK $end
$var wire 32 D" InstrD [31:0] $end
$var wire 32 E" PCD [31:0] $end
$var wire 32 F" PCPlus4D [31:0] $end
$var wire 1 # RST $end
$var wire 32 G" RD [31:0] $end
$var wire 32 H" PCPlus4F [31:0] $end
$var wire 32 I" PCF [31:0] $end
$var reg 32 J" Instr [31:0] $end
$var reg 32 K" PC [31:0] $end
$var reg 32 L" PCPlus4 [31:0] $end
$upscope $end
$scope module Fetch1 $end
$var wire 32 M" ALUResultE [31:0] $end
$var wire 1 " CLK $end
$var wire 2 N" PCSrcE [1:0] $end
$var wire 32 O" PCTargetE [31:0] $end
$var wire 1 # RST $end
$var reg 32 P" PCF [31:0] $end
$var reg 32 Q" PCNextF [31:0] $end
$var reg 32 R" PCPlus4F [31:0] $end
$var reg 32 S" RD [31:0] $end
$upscope $end
$scope module MW1 $end
$var wire 32 T" ALUResultW [31:0] $end
$var wire 1 " CLK $end
$var wire 32 U" PCPlus4M [31:0] $end
$var wire 32 V" PCPlus4W [31:0] $end
$var wire 1 # RST $end
$var wire 5 W" RdM [4:0] $end
$var wire 5 X" RdW [4:0] $end
$var wire 32 Y" ReadDataW [31:0] $end
$var wire 1 , RegWriteM $end
$var wire 1 + RegWriteW $end
$var wire 2 Z" ResultSrcM [1:0] $end
$var wire 2 [" ResultSrcW [1:0] $end
$var wire 32 \" ReadDataM [31:0] $end
$var wire 32 ]" ALUResultM [31:0] $end
$var reg 32 ^" ALUResult [31:0] $end
$var reg 32 _" PCPlus4 [31:0] $end
$var reg 5 `" Rd [4:0] $end
$var reg 32 a" ReadData [31:0] $end
$var reg 1 b" RegWrite $end
$var reg 2 c" ResultSrc [1:0] $end
$upscope $end
$scope module Memory1 $end
$var wire 32 d" ALUResultM [31:0] $end
$var wire 1 " CLK $end
$var wire 1 D MemWriteM $end
$var wire 1 # RST $end
$var wire 32 e" WriteDataM [31:0] $end
$var reg 32 f" ALUResultM1 [31:0] $end
$var reg 32 g" RD3 [31:0] $end
$var integer 32 h" i [31:0] $end
$upscope $end
$scope module WriteBack1 $end
$var wire 32 i" ALUResultW [31:0] $end
$var wire 32 j" PCPlus4W [31:0] $end
$var wire 32 k" ReadDataW [31:0] $end
$var wire 2 l" ResultSrcW [1:0] $end
$var reg 32 m" ResultW [31:0] $end
$upscope $end
$upscope $end
$upscope $end
$enddefinitions $end
#0
$dumpvars
bx m"
bx l"
bx k"
bx j"
bx i"
bx h"
bx g"
bx f"
bx e"
bx d"
bx c"
xb"
bx a"
bx `"
bx _"
bx ^"
bx ]"
bx \"
bx ["
bx Z"
bx Y"
bx X"
bx W"
bx V"
bx U"
bx T"
bx S"
bx R"
bx Q"
bx P"
bx O"
bx N"
bx M"
bx L"
bx K"
bx J"
bx I"
bx H"
bx G"
bx F"
bx E"
bx D"
xC"
bx B"
bx A"
bx @"
bx ?"
x>"
bx ="
bx <"
bx ;"
bx :"
bx 9"
bx 8"
bx 7"
bx 6"
bx 5"
x4"
bx 3"
bx 2"
x1"
bx 0"
bx /"
bx ."
bx -"
bx ,"
bx +"
bx *"
bx )"
bx ("
bx '"
bx &"
bx %"
bx $"
bx #"
bx ""
bx !"
bx ~
bx }
bx |
bx {
bx z
bx y
bx x
bx w
bx v
bx u
bx t
bx s
bx r
bx q
xp
bx o
bx n
bx m
bx l
bx k
xj
bx i
bx h
xg
bx f
bx e
bx d
bx c
bx b
bx a
bx `
bx _
bx ^
bx ]
bx \
bx [
bx Z
bx Y
bx X
bx W
bx V
bx U
bx T
bx S
bx R
bx Q
bx P
bx O
bx N
xM
xL
bx K
bx J
bx I
bx H
bx G
xF
xE
xD
bx C
bx B
bx A
bx @
bx ?
bx >
bx =
bx <
bx ;
bx :
bx 9
bx 8
bx 7
bx 6
bx 5
bx 4
bx 3
bx 2
bx 1
bx 0
bx /
x.
x-
x,
x+
bx *
bx )
bx (
bx '
bx &
bx %
bx $
0#
0"
z!
$end
#5000
b100 Q"
b0 ;
b0 ?"
b0 N"
b0 3
b0 ^
b0 #"
0>"
1C"
b0 Q
b0 /"
b0 ="
b0 M"
b100 >
b100 H"
b100 R"
b10100000000000100010011 9
b10100000000000100010011 G"
b10100000000000100010011 S"
b0 6
b0 _
b0 ""
b0 8
b0 `
b0 !"
b0 u
b0 t
b0 s
b0 r
b0 w
b0 v
b0 x
b0 :
b0 @"
b0 O"
b0 %
b0 ."
b0 B"
b0 A"
b0 &
b0 y
b0 m"
b0 O
b0 ]"
b0 f"
b1010 4
b1010 \"
b1010 g"
b0 A
b0 I"
b0 P"
b0 @
b0 a
b0 F"
b0 L"
b0 C
b0 b
b0 E"
b0 K"
b0 G
b0 D"
b0 J"
b0 ?
b0 X
b0 '"
b0 l
b0 H
b0 V
b0 9"
b0 i
b0 2
b0 [
b0 )"
b0 o
b0 B
b0 W
b0 :"
b0 k
b0 5
b0 Z
b0 <"
b0 n
b0 7
b0 Y
b0 ;"
b0 m
0L
0g
b0 R
b0 T
b0 7"
b0 f
b0 h
0E
0j
b0 )
b0 \
b0 +"
b0 q
0-
0p
b0 <
b0 V"
b0 j"
b0 _"
b0 0
b0 z
b0 X"
b0 `"
b0 /
b0 Y"
b0 k"
b0 a"
b0 N
b0 T"
b0 i"
b0 ^"
b0 '
b0 ["
b0 l"
b0 c"
0+
0b"
b0 P
b0 &"
b0 d"
b0 0"
b0 $
b0 -"
b0 e"
b0 6"
b0 =
b0 ("
b0 U"
b0 2"
b0 1
b0 *"
b0 W"
b0 3"
0D
01"
b0 (
b0 ,"
b0 Z"
b0 5"
0,
04"
b100000 %"
b100000 h"
1"
#10000
0"
1#
#15000
b1000 Q"
b10 3
b10 ^
b10 #"
b101 I
b101 c
b101 }
b0 S
b0 e
b0 {
b0 ~
b0 *
b0 ]
b0 $"
1M
0F
1.
bx :
bx @"
bx O"
x>"
xC"
bx Q
bx /"
bx ="
bx M"
b10 u
b1010000000000010 t
b101 s
b10011 x
b101000000000000110010011 9
b101000000000000110010011 G"
b101000000000000110010011 S"
b1000 >
b1000 H"
b1000 R"
b1010 /
b1010 Y"
b1010 k"
b1010 a"
bx H
bx V
bx 9"
bx i
xL
xg
bx R
bx T
bx 7"
bx f
b0xxx h
xE
xj
bx )
bx \
bx +"
bx q
x-
xp
b100 @
b100 a
b100 F"
b100 L"
b10100000000000100010011 G
b10100000000000100010011 D"
b10100000000000100010011 J"
b100 A
b100 I"
b100 P"
1"
#20000
0"
#25000
b1100 Q"
b11 3
b11 ^
b11 #"
b1010 I
b1010 c
b1010 }
b1100 >
b1100 H"
b1100 R"
b1100010000001000110011 9
b1100010000001000110011 G"
b1100010000001000110011 S"
b11 u
b10100000000000011 t
b1010 s
b101 :
b101 @"
b101 O"
b101 A"
0>"
0C"
b101 Q
b101 /"
b101 ="
b101 M"
bx O
bx ]"
bx f"
bx 4
bx \"
bx g"
b1000 A
b1000 I"
b1000 P"
b1000 @
b1000 a
b1000 F"
b1000 L"
b100 C
b100 b
b100 E"
b100 K"
b101000000000000110010011 G
b101000000000000110010011 D"
b101000000000000110010011 J"
b100 ?
b100 X
b100 '"
b100 l
b101 H
b101 V
b101 9"
b101 i
b10 2
b10 [
b10 )"
b10 o
1L
1g
b0 R
b0 T
b0 7"
b0 f
0E
0j
b0 )
b0 \
b0 +"
b0 q
1-
1p
bx P
bx &"
bx d"
bx 0"
xD
x1"
bx (
bx ,"
bx Z"
bx 5"
x,
x4"
1"
#30000
0"
#35000
b10000 Q"
b1010 Q
b1010 /"
b1010 ="
b1010 M"
b100 3
b100 ^
b100 #"
bx I
bx c
bx }
bx ~
0M
b101 O
b101 ]"
b101 f"
b1010 4
b1010 \"
b1010 g"
bx &
bx y
bx m"
b1010 A"
b1110 :
b1110 @"
b1110 O"
b100 u
b110001000000100 t
b11 s
b10 r
b110011 x
b10000 >
b10000 H"
b10000 R"
b101 P
b101 &"
b101 d"
b101 0"
b100 =
b100 ("
b100 U"
b100 2"
b10 1
b10 *"
b10 W"
b10 3"
0D
01"
b0 (
b0 ,"
b0 Z"
b0 5"
1,
14"
bx /
bx Y"
bx k"
bx a"
bx N
bx T"
bx i"
bx ^"
bx '
bx ["
bx l"
bx c"
x+
xb"
b1000 ?
b1000 X
b1000 '"
b1000 l
b1010 H
b1010 V
b1010 9"
b1010 i
b11 2
b11 [
b11 )"
b11 o
b100 B
b100 W
b100 :"
b100 k
b1100 @
b1100 a
b1100 F"
b1100 L"
b1000 C
b1000 b
b1000 E"
b1000 K"
b1100010000001000110011 G
b1100010000001000110011 D"
b1100010000001000110011 J"
b1100 A
b1100 I"
b1100 P"
1"
#40000
0"
#45000
b10100 Q"
1C"
b0 Q
b0 /"
b0 ="
b0 M"
b10100 >
b10100 H"
b10100 R"
bx :
bx @"
bx O"
b0 A"
b101 &
b101 y
b101 m"
b1010 O
b1010 ]"
b1010 f"
b10000 A
b10000 I"
b10000 P"
b10000 @
b10000 a
b10000 F"
b10000 L"
b1100 C
b1100 b
b1100 E"
b1100 K"
b1100 ?
b1100 X
b1100 '"
b1100 l
bx H
bx V
bx 9"
bx i
b100 2
b100 [
b100 )"
b100 o
b1000 B
b1000 W
b1000 :"
b1000 k
0L
0g
b100 <
b100 V"
b100 j"
b100 _"
b10 0
b10 z
b10 X"
b10 `"
b1010 /
b1010 Y"
b1010 k"
b1010 a"
b101 N
b101 T"
b101 i"
b101 ^"
b0 '
b0 ["
b0 l"
b0 c"
1+
1b"
b1010 P
b1010 &"
b1010 d"
b1010 0"
b1000 =
b1000 ("
b1000 U"
b1000 2"
b11 1
b11 *"
b11 W"
b11 3"
1"
#50000
0"
#55000
b11000 Q"
b0 O
b0 ]"
b0 f"
b1010 &
b1010 y
b1010 m"
b101 8
b101 `
b101 !"
b1100010100110001100011 9
b1100010100110001100011 G"
b1100010100110001100011 S"
b11000 >
b11000 H"
b11000 R"
b0 P
b0 &"
b0 d"
b0 0"
b1100 =
b1100 ("
b1100 U"
b1100 2"
b100 1
b100 *"
b100 W"
b100 3"
b1000 <
b1000 V"
b1000 j"
b1000 _"
b11 0
b11 z
b11 X"
b11 `"
b1010 N
b1010 T"
b1010 i"
b1010 ^"
b10000 ?
b10000 X
b10000 '"
b10000 l
b1100 B
b1100 W
b1100 :"
b1100 k
b10100 @
b10100 a
b10100 F"
b10100 L"
b10000 C
b10000 b
b10000 E"
b10000 K"
b10100 A
b10100 I"
b10100 P"
1"
#60000
0"
#65000
b11100 Q"
b11000 3
b11000 ^
b11000 #"
b11000 I
b11000 c
b11000 }
b1 S
b1 e
b1 {
b1 J
b1 U
b1 8"
b1 K
b1 d
b1 |
bx *
bx ]
bx $"
b10 ~
0.
b11100 >
b11100 H"
b11100 R"
bx 9
bx G"
bx S"
b1010 6
b1010 _
b1010 ""
b11000 u
b110001010011000 t
b100 v
b1100011 x
0C"
b101 Q
b101 /"
b101 ="
b101 M"
b0 &
b0 y
b0 m"
b11000 A
b11000 I"
b11000 P"
b11000 @
b11000 a
b11000 F"
b11000 L"
b10100 C
b10100 b
b10100 E"
b10100 K"
b1100010100110001100011 G
b1100010100110001100011 D"
b1100010100110001100011 J"
b10100 ?
b10100 X
b10100 '"
b10100 l
b10000 B
b10000 W
b10000 :"
b10000 k
b101 7
b101 Y
b101 ;"
b101 m
b1100 <
b1100 V"
b1100 j"
b1100 _"
b100 0
b100 z
b100 X"
b100 `"
b0 N
b0 T"
b0 i"
b0 ^"
b10000 =
b10000 ("
b10000 U"
b10000 2"
1"
#70000
0"
#75000
b100000 Q"
1>"
b11111111111111111111111111111011 Q
b11111111111111111111111111111011 /"
b11111111111111111111111111111011 ="
b11111111111111111111111111111011 M"
bx 3
bx ^
bx #"
bx I
bx c
bx }
bx 6
bx _
bx ""
bx 8
bx `
bx !"
bx S
bx e
bx {
bx J
bx U
bx 8"
bx K
bx d
bx |
xM
xF
bx ~
x.
b101 O
b101 ]"
b101 f"
b101100 :
b101100 @"
b101100 O"
b1010 %
b1010 ."
b1010 B"
b1010 A"
bx u
bx t
bx s
bx r
bx w
bx v
bx x
b100000 >
b100000 H"
b100000 R"
b101 P
b101 &"
b101 d"
b101 0"
b10100 =
b10100 ("
b10100 U"
b10100 2"
b10000 <
b10000 V"
b10000 j"
b10000 _"
b11000 ?
b11000 X
b11000 '"
b11000 l
b11000 H
b11000 V
b11000 9"
b11000 i
b11000 2
b11000 [
b11000 )"
b11000 o
b10100 B
b10100 W
b10100 :"
b10100 k
b1010 5
b1010 Z
b1010 <"
b1010 n
b1 R
b1 T
b1 7"
b1 f
b1 h
bx )
bx \
bx +"
bx q
0-
0p
b11100 @
b11100 a
b11100 F"
b11100 L"
b11000 C
b11000 b
b11000 E"
b11000 K"
bx G
bx D"
bx J"
b11100 A
b11100 I"
b11100 P"
1"
#80000
0"
#85000
b100100 Q"
b100100 >
b100100 H"
b100100 R"
bx :
bx @"
bx O"
bx %
bx ."
bx B"
x>"
xC"
bx Q
bx /"
bx ="
bx M"
b101 &
b101 y
b101 m"
b11111111111111111111111111111011 O
b11111111111111111111111111111011 ]"
b11111111111111111111111111111011 f"
b100000 A
b100000 I"
b100000 P"
b100000 @
b100000 a
b100000 F"
b100000 L"
b11100 C
b11100 b
b11100 E"
b11100 K"
b11100 ?
b11100 X
b11100 '"
b11100 l
bx H
bx V
bx 9"
bx i
bx 2
bx [
bx )"
bx o
b11000 B
b11000 W
b11000 :"
b11000 k
bx 5
bx Z
bx <"
bx n
bx 7
bx Y
bx ;"
bx m
xL
xg
bx R
bx T
bx 7"
bx f
b0xxx h
xE
xj
x-
xp
b10100 <
b10100 V"
b10100 j"
b10100 _"
b101 N
b101 T"
b101 i"
b101 ^"
b11111111111111111111111111111011 P
b11111111111111111111111111111011 &"
b11111111111111111111111111111011 d"
b11111111111111111111111111111011 0"
b1010 $
b1010 -"
b1010 e"
b1010 6"
b11000 =
b11000 ("
b11000 U"
b11000 2"
b11000 1
b11000 *"
b11000 W"
b11000 3"
bx (
bx ,"
bx Z"
bx 5"
0,
04"
1"
#90000
0"
#95000
b101000 Q"
bx O
bx ]"
bx f"
bx 4
bx \"
bx g"
b11111111111111111111111111111011 &
b11111111111111111111111111111011 y
b11111111111111111111111111111011 m"
b101000 >
b101000 H"
b101000 R"
bx P
bx &"
bx d"
bx 0"
bx $
bx -"
bx e"
bx 6"
b11100 =
b11100 ("
b11100 U"
b11100 2"
bx 1
bx *"
bx W"
bx 3"
xD
x1"
x,
x4"
b11000 <
b11000 V"
b11000 j"
b11000 _"
b11000 0
b11000 z
b11000 X"
b11000 `"
b11111111111111111111111111111011 N
b11111111111111111111111111111011 T"
b11111111111111111111111111111011 i"
b11111111111111111111111111111011 ^"
bx '
bx ["
bx l"
bx c"
0+
0b"
b100000 ?
b100000 X
b100000 '"
b100000 l
b11100 B
b11100 W
b11100 :"
b11100 k
b100100 @
b100100 a
b100100 F"
b100100 L"
b100000 C
b100000 b
b100000 E"
b100000 K"
b100100 A
b100100 I"
b100100 P"
1"
#100000
0"
#105000
b101100 Q"
b101100 >
b101100 H"
b101100 R"
bx &
bx y
bx m"
b101000 A
b101000 I"
b101000 P"
b101000 @
b101000 a
b101000 F"
b101000 L"
b100100 C
b100100 b
b100100 E"
b100100 K"
b100100 ?
b100100 X
b100100 '"
b100100 l
b100000 B
b100000 W
b100000 :"
b100000 k
b11100 <
b11100 V"
b11100 j"
b11100 _"
bx 0
bx z
bx X"
bx `"
bx /
bx Y"
bx k"
bx a"
bx N
bx T"
bx i"
bx ^"
x+
xb"
b100000 =
b100000 ("
b100000 U"
b100000 2"
1"
#110000
0"
#115000
b110000 Q"
b110000 >
b110000 H"
b110000 R"
b100100 =
b100100 ("
b100100 U"
b100100 2"
b100000 <
b100000 V"
b100000 j"
b100000 _"
b101000 ?
b101000 X
b101000 '"
b101000 l
b100100 B
b100100 W
b100100 :"
b100100 k
b101100 @
b101100 a
b101100 F"
b101100 L"
b101000 C
b101000 b
b101000 E"
b101000 K"
b101100 A
b101100 I"
b101100 P"
1"
#120000
0"
#125000
b110100 Q"
b110100 >
b110100 H"
b110100 R"
b110000 A
b110000 I"
b110000 P"
b110000 @
b110000 a
b110000 F"
b110000 L"
b101100 C
b101100 b
b101100 E"
b101100 K"
b101100 ?
b101100 X
b101100 '"
b101100 l
b101000 B
b101000 W
b101000 :"
b101000 k
b100100 <
b100100 V"
b100100 j"
b100100 _"
b101000 =
b101000 ("
b101000 U"
b101000 2"
1"
#130000
0"
#135000
b111000 Q"
b111000 >
b111000 H"
b111000 R"
b101100 =
b101100 ("
b101100 U"
b101100 2"
b101000 <
b101000 V"
b101000 j"
b101000 _"
b110000 ?
b110000 X
b110000 '"
b110000 l
b101100 B
b101100 W
b101100 :"
b101100 k
b110100 @
b110100 a
b110100 F"
b110100 L"
b110000 C
b110000 b
b110000 E"
b110000 K"
b110100 A
b110100 I"
b110100 P"
1"
#140000
0"
#145000
b111100 Q"
b111100 >
b111100 H"
b111100 R"
b111000 A
b111000 I"
b111000 P"
b111000 @
b111000 a
b111000 F"
b111000 L"
b110100 C
b110100 b
b110100 E"
b110100 K"
b110100 ?
b110100 X
b110100 '"
b110100 l
b110000 B
b110000 W
b110000 :"
b110000 k
b101100 <
b101100 V"
b101100 j"
b101100 _"
b110000 =
b110000 ("
b110000 U"
b110000 2"
1"
#150000
0"
#155000
b1000000 Q"
b1000000 >
b1000000 H"
b1000000 R"
b110100 =
b110100 ("
b110100 U"
b110100 2"
b110000 <
b110000 V"
b110000 j"
b110000 _"
b111000 ?
b111000 X
b111000 '"
b111000 l
b110100 B
b110100 W
b110100 :"
b110100 k
b111100 @
b111100 a
b111100 F"
b111100 L"
b111000 C
b111000 b
b111000 E"
b111000 K"
b111100 A
b111100 I"
b111100 P"
1"
#160000
0"
#165000
b1000100 Q"
b1000100 >
b1000100 H"
b1000100 R"
b1000000 A
b1000000 I"
b1000000 P"
b1000000 @
b1000000 a
b1000000 F"
b1000000 L"
b111100 C
b111100 b
b111100 E"
b111100 K"
b111100 ?
b111100 X
b111100 '"
b111100 l
b111000 B
b111000 W
b111000 :"
b111000 k
b110100 <
b110100 V"
b110100 j"
b110100 _"
b111000 =
b111000 ("
b111000 U"
b111000 2"
1"
#170000
0"
#175000
b1001000 Q"
b1001000 >
b1001000 H"
b1001000 R"
b111100 =
b111100 ("
b111100 U"
b111100 2"
b111000 <
b111000 V"
b111000 j"
b111000 _"
b1000000 ?
b1000000 X
b1000000 '"
b1000000 l
b111100 B
b111100 W
b111100 :"
b111100 k
b1000100 @
b1000100 a
b1000100 F"
b1000100 L"
b1000000 C
b1000000 b
b1000000 E"
b1000000 K"
b1000100 A
b1000100 I"
b1000100 P"
1"
#180000
0"
#185000
b1001100 Q"
b1001100 >
b1001100 H"
b1001100 R"
b1001000 A
b1001000 I"
b1001000 P"
b1001000 @
b1001000 a
b1001000 F"
b1001000 L"
b1000100 C
b1000100 b
b1000100 E"
b1000100 K"
b1000100 ?
b1000100 X
b1000100 '"
b1000100 l
b1000000 B
b1000000 W
b1000000 :"
b1000000 k
b111100 <
b111100 V"
b111100 j"
b111100 _"
b1000000 =
b1000000 ("
b1000000 U"
b1000000 2"
1"
#190000
0"
#195000
b1010000 Q"
b1010000 >
b1010000 H"
b1010000 R"
b1000100 =
b1000100 ("
b1000100 U"
b1000100 2"
b1000000 <
b1000000 V"
b1000000 j"
b1000000 _"
b1001000 ?
b1001000 X
b1001000 '"
b1001000 l
b1000100 B
b1000100 W
b1000100 :"
b1000100 k
b1001100 @
b1001100 a
b1001100 F"
b1001100 L"
b1001000 C
b1001000 b
b1001000 E"
b1001000 K"
b1001100 A
b1001100 I"
b1001100 P"
1"
#200000
0"
#205000
b1010100 Q"
b1010100 >
b1010100 H"
b1010100 R"
b1010000 A
b1010000 I"
b1010000 P"
b1010000 @
b1010000 a
b1010000 F"
b1010000 L"
b1001100 C
b1001100 b
b1001100 E"
b1001100 K"
b1001100 ?
b1001100 X
b1001100 '"
b1001100 l
b1001000 B
b1001000 W
b1001000 :"
b1001000 k
b1000100 <
b1000100 V"
b1000100 j"
b1000100 _"
b1001000 =
b1001000 ("
b1001000 U"
b1001000 2"
1"
#210000
0"
#215000
b1011000 Q"
b1011000 >
b1011000 H"
b1011000 R"
b1001100 =
b1001100 ("
b1001100 U"
b1001100 2"
b1001000 <
b1001000 V"
b1001000 j"
b1001000 _"
b1010000 ?
b1010000 X
b1010000 '"
b1010000 l
b1001100 B
b1001100 W
b1001100 :"
b1001100 k
b1010100 @
b1010100 a
b1010100 F"
b1010100 L"
b1010000 C
b1010000 b
b1010000 E"
b1010000 K"
b1010100 A
b1010100 I"
b1010100 P"
1"
#220000
0"
#225000
b1011100 Q"
b1011100 >
b1011100 H"
b1011100 R"
b1011000 A
b1011000 I"
b1011000 P"
b1011000 @
b1011000 a
b1011000 F"
b1011000 L"
b1010100 C
b1010100 b
b1010100 E"
b1010100 K"
b1010100 ?
b1010100 X
b1010100 '"
b1010100 l
b1010000 B
b1010000 W
b1010000 :"
b1010000 k
b1001100 <
b1001100 V"
b1001100 j"
b1001100 _"
b1010000 =
b1010000 ("
b1010000 U"
b1010000 2"
1"
#230000
0"
#235000
b1100000 Q"
b1100000 >
b1100000 H"
b1100000 R"
b1010100 =
b1010100 ("
b1010100 U"
b1010100 2"
b1010000 <
b1010000 V"
b1010000 j"
b1010000 _"
b1011000 ?
b1011000 X
b1011000 '"
b1011000 l
b1010100 B
b1010100 W
b1010100 :"
b1010100 k
b1011100 @
b1011100 a
b1011100 F"
b1011100 L"
b1011000 C
b1011000 b
b1011000 E"
b1011000 K"
b1011100 A
b1011100 I"
b1011100 P"
1"
#240000
0"
#245000
b1100100 Q"
b1100100 >
b1100100 H"
b1100100 R"
b1100000 A
b1100000 I"
b1100000 P"
b1100000 @
b1100000 a
b1100000 F"
b1100000 L"
b1011100 C
b1011100 b
b1011100 E"
b1011100 K"
b1011100 ?
b1011100 X
b1011100 '"
b1011100 l
b1011000 B
b1011000 W
b1011000 :"
b1011000 k
b1010100 <
b1010100 V"
b1010100 j"
b1010100 _"
b1011000 =
b1011000 ("
b1011000 U"
b1011000 2"
1"
#250000
0"
#255000
b1101000 Q"
b1101000 >
b1101000 H"
b1101000 R"
b1011100 =
b1011100 ("
b1011100 U"
b1011100 2"
b1011000 <
b1011000 V"
b1011000 j"
b1011000 _"
b1100000 ?
b1100000 X
b1100000 '"
b1100000 l
b1011100 B
b1011100 W
b1011100 :"
b1011100 k
b1100100 @
b1100100 a
b1100100 F"
b1100100 L"
b1100000 C
b1100000 b
b1100000 E"
b1100000 K"
b1100100 A
b1100100 I"
b1100100 P"
1"
#260000
0"
#265000
b1101100 Q"
b1101100 >
b1101100 H"
b1101100 R"
b1101000 A
b1101000 I"
b1101000 P"
b1101000 @
b1101000 a
b1101000 F"
b1101000 L"
b1100100 C
b1100100 b
b1100100 E"
b1100100 K"
b1100100 ?
b1100100 X
b1100100 '"
b1100100 l
b1100000 B
b1100000 W
b1100000 :"
b1100000 k
b1011100 <
b1011100 V"
b1011100 j"
b1011100 _"
b1100000 =
b1100000 ("
b1100000 U"
b1100000 2"
1"
#270000
0"
