Pipeline Hazard Detection/verification/waveform.vcd
$date
	Mon Jun 29 21:42:43 2026
$end
$version
	Icarus Verilog
$end
$timescale
	1ps
$end
$scope module TopModule_tb $end
$scope module uut $end
$var wire 1 ! CLK $end
$var wire 1 " RST $end
$var wire 32 # WriteData_M [31:0] $end
$var wire 32 $ WriteData_E [31:0] $end
$var wire 32 % Result_W [31:0] $end
$var wire 1 & ResultSrc_W $end
$var wire 1 ' ResultSrc_M $end
$var wire 1 ( ResultSrc_E $end
$var wire 1 ) ResultSrc_D $end
$var wire 1 * RegWrite_W $end
$var wire 1 + RegWrite_M $end
$var wire 1 , RegWrite_E $end
$var wire 1 - RegWrite_D $end
$var wire 1 . RegWriteOut $end
$var wire 32 / ReadData_W [31:0] $end
$var wire 32 0 ReadData_M [31:0] $end
$var wire 5 1 RS2_E [4:0] $end
$var wire 5 2 RS2_D [4:0] $end
$var wire 5 3 RS1_E [4:0] $end
$var wire 5 4 RS1_D [4:0] $end
$var wire 5 5 RD_W [4:0] $end
$var wire 5 6 RD_M [4:0] $end
$var wire 5 7 RD_E [4:0] $end
$var wire 5 8 RD_D [4:0] $end
$var wire 5 9 RDOut [4:0] $end
$var wire 32 : RD2_E [31:0] $end
$var wire 32 ; RD2_D [31:0] $end
$var wire 32 < RD1_E [31:0] $end
$var wire 32 = RD1_D [31:0] $end
$var wire 32 > PC_F [31:0] $end
$var wire 32 ? PC_E [31:0] $end
$var wire 32 @ PC_D [31:0] $end
$var wire 32 A PCTarget_M [31:0] $end
$var wire 32 B PCTarget_E [31:0] $end
$var wire 1 C PCSrc_M $end
$var wire 1 D PCSrc_E $end
$var wire 32 E PCPlus4_W [31:0] $end
$var wire 32 F PCPlus4_M [31:0] $end
$var wire 32 G PCPlus4_F [31:0] $end
$var wire 32 H PCPlus4_EtoEM [31:0] $end
$var wire 32 I PCPlus4_E [31:0] $end
$var wire 32 J PCPlus4_D [31:0] $end
$var wire 1 K MemWrite_M $end
$var wire 1 L MemWrite_E $end
$var wire 1 M MemWrite_D $end
$var wire 32 N Instr_F [31:0] $end
$var wire 32 O Instr_D [31:0] $end
$var wire 32 P ImmExt_E [31:0] $end
$var wire 32 Q ImmExt_D [31:0] $end
$var wire 2 R ForwardB [1:0] $end
$var wire 2 S ForwardA [1:0] $end
$var wire 1 T Branch_E $end
$var wire 1 U Branch_D $end
$var wire 1 V ALUSrc_E $end
$var wire 1 W ALUSrc_D $end
$var wire 32 X ALUResult_W [31:0] $end
$var wire 32 Y ALUResult_M [31:0] $end
$var wire 32 Z ALUResult_E [31:0] $end
$var wire 2 [ ALUOp_E [1:0] $end
$var wire 2 \ ALUOp_D [1:0] $end
$var wire 3 ] ALUControl_E [2:0] $end
$var wire 3 ^ ALUControl_D [2:0] $end
$scope module DE_reg $end
$var wire 1 ! CLK $end
$var wire 1 " RST $end
$var wire 1 ) ResultSrc_D $end
$var wire 1 - RegWrite_D $end
$var wire 5 _ RS2_D [4:0] $end
$var wire 5 ` RS1_D [4:0] $end
$var wire 5 a RD_D [4:0] $end
$var wire 32 b RD2_D [31:0] $end
$var wire 32 c RD1_D [31:0] $end
$var wire 32 d PC_D [31:0] $end
$var wire 32 e PCPlus4_D [31:0] $end
$var wire 1 M MemWrite_D $end
$var wire 32 f ImmExt_D [31:0] $end
$var wire 1 U Branch_D $end
$var wire 1 W ALUSrc_D $end
$var wire 2 g ALUOp_D [1:0] $end
$var wire 3 h ALUControl_D [2:0] $end
$var reg 3 i ALUControl_E [2:0] $end
$var reg 2 j ALUOp_E [1:0] $end
$var reg 1 V ALUSrc_E $end
$var reg 1 T Branch_E $end
$var reg 32 k ImmExt_E [31:0] $end
$var reg 1 L MemWrite_E $end
$var reg 32 l PCPlus4_E [31:0] $end
$var reg 32 m PC_E [31:0] $end
$var reg 32 n RD1_E [31:0] $end
$var reg 32 o RD2_E [31:0] $end
$var reg 5 p RD_E [4:0] $end
$var reg 5 q RS1_E [4:0] $end
$var reg 5 r RS2_E [4:0] $end
$var reg 1 , RegWrite_E $end
$var reg 1 ( ResultSrc_E $end
$upscope $end
$scope module Decode_stage $end
$var wire 1 ! CLK $end
$var wire 1 " RST $end
$var wire 32 s Result_W [31:0] $end
$var wire 1 ) ResultSrc_D $end
$var wire 1 . RegWrite_W $end
$var wire 1 - RegWrite_D $end
$var wire 5 t RS2_D [4:0] $end
$var wire 5 u RS1_D [4:0] $end
$var wire 5 v RD_W [4:0] $end
$var wire 5 w RD_D [4:0] $end
$var wire 32 x RD2_D [31:0] $end
$var wire 32 y RD1_D [31:0] $end
$var wire 32 z PC_D [31:0] $end
$var wire 32 { PCPlus4_D [31:0] $end
$var wire 1 M MemWrite_D $end
$var wire 32 | Instr_D [31:0] $end
$var wire 2 } ImmSrc [1:0] $end
$var wire 32 ~ ImmExt_D [31:0] $end
$var wire 1 U Branch_D $end
$var wire 1 W ALUSrc_D $end
$var wire 2 !" ALUOp_D [1:0] $end
$var wire 3 "" ALUControl_D [2:0] $end
$scope module ALUDec_inst $end
$var wire 3 #" funct3 [2:0] $end
$var wire 7 $" funct7 [6:0] $end
$var wire 7 %" op [6:0] $end
$var wire 2 &" ALUOp [1:0] $end
$var reg 3 '" ALUControl [2:0] $end
$upscope $end
$scope module Ext_inst $end
$var wire 25 (" Imm [24:0] $end
$var wire 2 )" ImmSrc [1:0] $end
$var reg 32 *" ImmExt [31:0] $end
$upscope $end
$scope module MainDec_inst $end
$var wire 7 +" op [6:0] $end
$var reg 2 ," ALUOp [1:0] $end
$var reg 1 W ALUSrc $end
$var reg 1 U Branch $end
$var reg 2 -" ImmSrc [1:0] $end
$var reg 1 M MemWrite $end
$var reg 1 - RegWrite $end
$var reg 1 ) ResultSrc $end
$upscope $end
$scope module RF_inst $end
$var wire 5 ." A1 [4:0] $end
$var wire 5 /" A2 [4:0] $end
$var wire 1 ! CLK $end
$var wire 1 " RST $end
$var wire 1 . WE3 $end
$var wire 32 0" WD3 [31:0] $end
$var wire 5 1" A3 [4:0] $end
$var reg 32 2" RD1 [31:0] $end
$var reg 32 3" RD2 [31:0] $end
$var integer 32 4" i [31:0] $end
$upscope $end
$upscope $end
$scope module EM_reg $end
$var wire 1 ! CLK $end
$var wire 1 L MemWrite_E $end
$var wire 5 5" RD_E [4:0] $end
$var wire 1 " RST $end
$var wire 1 , RegWrite_E $end
$var wire 1 ( ResultSrc_E $end
$var wire 32 6" WriteData_E [31:0] $end
$var wire 32 7" PCTarget_E [31:0] $end
$var wire 1 D PCSrc_E $end
$var wire 32 8" PCPlus4_E [31:0] $end
$var wire 32 9" ALUResult_E [31:0] $end
$var reg 32 :" ALUResult_M [31:0] $end
$var reg 1 K MemWrite_M $end
$var reg 32 ;" PCPlus4_M [31:0] $end
$var reg 1 C PCSrc_M $end
$var reg 32 <" PCTarget_M [31:0] $end
$var reg 5 =" RD_M [4:0] $end
$var reg 1 + RegWrite_M $end
$var reg 1 ' ResultSrc_M $end
$var reg 32 >" WriteData_M [31:0] $end
$upscope $end
$scope module Execute_stage $end
$var wire 3 ?" ALUControl_E [2:0] $end
$var wire 32 @" ALUResult_M [31:0] $end
$var wire 1 V ALUSrc_E $end
$var wire 1 T Branch_E $end
$var wire 32 A" ImmExt_E [31:0] $end
$var wire 1 L MemWrite_E $end
$var wire 32 B" PCPlus4_E [31:0] $end
$var wire 32 C" PCPlus4_out [31:0] $end
$var wire 32 D" PC_E [31:0] $end
$var wire 32 E" RD1_E [31:0] $end
$var wire 32 F" RD2_E [31:0] $end
$var wire 1 , RegWrite_E $end
$var wire 1 ( ResultSrc_E $end
$var wire 32 G" WriteData_E [31:0] $end
$var wire 1 H" Zero $end
$var wire 32 I" SrcB [31:0] $end
$var wire 32 J" Result_W [31:0] $end
$var wire 32 K" PCTarget_E [31:0] $end
$var wire 1 D PCSrc_E $end
$var wire 2 L" ForwardB [1:0] $end
$var wire 2 M" ForwardA [1:0] $end
$var wire 32 N" ALUResult_E [31:0] $end
$var reg 32 O" ForwardA_Mux_out [31:0] $end
$var reg 32 P" ForwardB_Mux_out [31:0] $end
$scope module ALU_inst $end
$var wire 3 Q" ALUControl [2:0] $end
$var wire 32 R" SrcA [31:0] $end
$var wire 32 S" SrcB [31:0] $end
$var reg 32 T" ALUResult [31:0] $end
$var reg 1 H" Zero $end
$upscope $end
$scope module BJ_inst $end
$var wire 1 T Branch $end
$var wire 1 H" Zero $end
$var reg 1 D PCSrc $end
$upscope $end
$scope module PCImm_inst $end
$var wire 32 U" ImmExt [31:0] $end
$var wire 32 V" PC [31:0] $end
$var reg 32 W" PCTarget [31:0] $end
$upscope $end
$scope module SrcB_inst $end
$var wire 1 V ALUSrc $end
$var wire 32 X" ImmExt [31:0] $end
$var wire 32 Y" RD2 [31:0] $end
$var reg 32 Z" SrcB [31:0] $end
$upscope $end
$upscope $end
$scope module FD_reg $end
$var wire 1 ! CLK $end
$var wire 1 " RST $end
$var wire 32 [" PC_F [31:0] $end
$var wire 32 \" PCPlus4_F [31:0] $end
$var wire 32 ]" Instr_F [31:0] $end
$var reg 32 ^" Instr_D [31:0] $end
$var reg 32 _" PCPlus4_D [31:0] $end
$var reg 32 `" PC_D [31:0] $end
$upscope $end
$scope module FU $end
$var wire 5 a" RD_M [4:0] $end
$var wire 5 b" RS1_E [4:0] $end
$var wire 5 c" RS2_E [4:0] $end
$var wire 1 + RegWrite_M $end
$var wire 1 * RegWrite_W $end
$var wire 5 d" RD_W [4:0] $end
$var reg 2 e" ForwardA [1:0] $end
$var reg 2 f" ForwardB [1:0] $end
$upscope $end
$scope module Fetch_stage $end
$var wire 1 ! CLK $end
$var wire 1 C PCSrc $end
$var wire 32 g" PCTarget [31:0] $end
$var wire 1 " RST $end
$var wire 32 h" PC_F [31:0] $end
$var wire 32 i" PCPlus4_F [31:0] $end
$var wire 32 j" PCNext [31:0] $end
$var wire 32 k" Instr_F [31:0] $end
$scope module IMem_inst $end
$var wire 32 l" A [31:0] $end
$var reg 32 m" RD [31:0] $end
$upscope $end
$scope module PCMux_inst $end
$var wire 1 C PCSrc $end
$var wire 32 n" PCTarget [31:0] $end
$var wire 32 o" PCPlus4 [31:0] $end
$var reg 32 p" PCNext [31:0] $end
$upscope $end
$scope module PCPlus4_inst $end
$var wire 32 q" PC [31:0] $end
$var reg 32 r" PCPlus4 [31:0] $end
$upscope $end
$scope module PC_inst $end
$var wire 1 ! CLK $end
$var wire 32 s" PCNext [31:0] $end
$var wire 1 " RST $end
$var reg 32 t" PC [31:0] $end
$upscope $end
$upscope $end
$scope module MW_reg $end
$var wire 32 u" ALUResult_M [31:0] $end
$var wire 1 ! CLK $end
$var wire 32 v" PCPlus4_M [31:0] $end
$var wire 5 w" RD_M [4:0] $end
$var wire 1 " RST $end
$var wire 1 + RegWrite_M $end
$var wire 1 ' ResultSrc_M $end
$var wire 32 x" ReadData_M [31:0] $end
$var reg 32 y" ALUResult_W [31:0] $end
$var reg 32 z" PCPlus4_W [31:0] $end
$var reg 5 {" RD_W [4:0] $end
$var reg 32 |" ReadData_W [31:0] $end
$var reg 1 * RegWrite_W $end
$var reg 1 & ResultSrc_W $end
$upscope $end
$scope module Memory_stage $end
$var wire 32 }" ALUResult_M [31:0] $end
$var wire 1 ! CLK $end
$var wire 1 K MemWrite_M $end
$var wire 1 " RST $end
$var wire 32 ~" WriteData_M [31:0] $end
$var wire 32 !# ReadData_M [31:0] $end
$scope module DMem_inst $end
$var wire 32 "# A_DM [31:0] $end
$var wire 1 ! CLK $end
$var wire 1 " RST $end
$var wire 32 ## WD [31:0] $end
$var wire 1 K WE $end
$var reg 32 $# RD3 [31:0] $end
$var integer 32 %# i [31:0] $end
$upscope $end
$upscope $end
$scope module WB_stage $end
$var wire 32 &# ALUResult_W [31:0] $end
$var wire 32 '# PCPlus4_W [31:0] $end
$var wire 5 (# RDOut [4:0] $end
$var wire 5 )# RD_W [4:0] $end
$var wire 32 *# ReadData_W [31:0] $end
$var wire 1 . RegWriteOut $end
$var wire 1 * RegWrite_W $end
$var wire 1 & ResultSrc_W $end
$var wire 32 +# Result_W [31:0] $end
$scope module RMux_inst $end
$var wire 32 ,# ALUResult [31:0] $end
$var wire 32 -# ReadData [31:0] $end
$var wire 1 & ResultSrc $end
$var reg 32 .# Result [31:0] $end
$upscope $end
$upscope $end
$upscope $end
$upscope $end
$enddefinitions $end
$comment Show the parameter values. $end
$dumpall
$end
#0
$dumpvars
bx .#
bx -#
bx ,#
bx +#
bx *#
bx )#
bx (#
bx '#
bx &#
bx %#
bx $#
bx ##
bx "#
bx !#
bx ~"
bx }"
bx |"
bx {"
bx z"
bx y"
bx x"
bx w"
bx v"
bx u"
bx t"
bx s"
bx r"
bx q"
bx p"
bx o"
bx n"
bx m"
bx l"
bx k"
bx j"
bx i"
bx h"
bx g"
bx f"
bx e"
bx d"
bx c"
bx b"
bx a"
bx `"
bx _"
bx ^"
bx ]"
bx \"
bx ["
bx Z"
bx Y"
bx X"
bx W"
bx V"
bx U"
bx T"
bx S"
bx R"
bx Q"
bx P"
bx O"
bx N"
bx M"
bx L"
bx K"
bx J"
bx I"
xH"
bx G"
bx F"
bx E"
bx D"
bx C"
bx B"
bx A"
bx @"
bx ?"
bx >"
bx ="
bx <"
bx ;"
bx :"
bx 9"
bx 8"
bx 7"
bx 6"
bx 5"
bx 4"
bx 3"
bx 2"
bx 1"
bx 0"
bx /"
bx ."
bx -"
bx ,"
bx +"
bx *"
bx )"
bx ("
bx '"
bx &"
bx %"
bx $"
bx #"
bx ""
bx !"
bx ~
bx }
bx |
bx {
bx z
bx y
bx x
bx w
bx v
bx u
bx t
bx s
bx r
bx q
bx p
bx o
bx n
bx m
bx l
bx k
bx j
bx i
bx h
bx g
bx f
bx e
bx d
bx c
bx b
bx a
bx `
bx _
bx ^
bx ]
bx \
bx [
bx Z
bx Y
bx X
xW
xV
xU
xT
bx S
bx R
bx Q
bx P
bx O
bx N
xM
xL
xK
bx J
bx I
bx H
bx G
bx F
bx E
xD
xC
bx B
bx A
bx @
bx ?
bx >
bx =
bx <
bx ;
bx :
bx 9
bx 8
bx 7
bx 6
bx 5
bx 4
bx 3
bx 2
bx 1
bx 0
bx /
x.
x-
x,
x+
x*
x)
x(
x'
x&
bx %
bx $
bx #
0"
0!
$end
#5000
1H"
b0 Z
b0 9"
b0 N"
b0 T"
b100 j"
b100 p"
b100 s"
b0 I"
b0 S"
b0 Z"
b0 Q
b0 f
b0 ~
b0 *"
b0 ;
b0 b
b0 x
b0 3"
b0 =
b0 c
b0 y
b0 2"
b0 ^
b0 h
b0 ""
b0 '"
0U
0-
b0 }
b0 )"
b0 -"
0W
b0 \
b0 g
b0 !"
b0 &"
b0 ,"
0M
0)
b1000001000000110110011 N
b1000001000000110110011 ]"
b1000001000000110110011 k"
b1000001000000110110011 m"
b100 G
b100 \"
b100 i"
b100 o"
b100 r"
b0 ("
b0 8
b0 a
b0 w
b0 2
b0 _
b0 t
b0 /"
b0 4
b0 `
b0 u
b0 ."
b0 %"
b0 $"
b0 #"
b0 +"
b0 B
b0 7"
b0 K"
b0 W"
0D
b0 $
b0 6"
b0 G"
b0 P"
b0 Y"
b0 O"
b0 R"
b1010 0
b1010 x"
b1010 !#
b1010 $#
b0 %
b0 s
b0 0"
b0 J"
b0 +#
b0 .#
b0 R
b0 L"
b0 f"
b0 S
b0 M"
b0 e"
b0 >
b0 ["
b0 h"
b0 l"
b0 q"
b0 t"
b0 J
b0 e
b0 {
b0 _"
b0 @
b0 d
b0 z
b0 `"
b0 O
b0 |
b0 ^"
b0 7
b0 p
b0 5"
b0 1
b0 r
b0 c"
b0 3
b0 q
b0 b"
b0 H
b0 8"
b0 C"
b0 I
b0 l
b0 B"
b0 ?
b0 m
b0 D"
b0 V"
b0 P
b0 k
b0 A"
b0 U"
b0 X"
b0 :
b0 o
b0 F"
b0 <
b0 n
b0 E"
b0 ]
b0 i
b0 ?"
b0 Q"
b0 [
b0 j
0T
0V
0L
0(
0,
b0 6
b0 ="
b0 a"
b0 w"
b0 A
b0 <"
b0 g"
b0 n"
b0 F
b0 ;"
b0 v"
b0 #
b0 >"
b0 ~"
b0 ##
b0 Y
b0 :"
b0 @"
b0 u"
b0 }"
b0 "#
0C
0K
0'
0+
b0 9
b0 v
b0 1"
b0 (#
b0 5
b0 d"
b0 {"
b0 )#
b0 E
b0 z"
b0 '#
b0 /
b0 |"
b0 *#
b0 -#
b0 X
b0 y"
b0 &#
b0 ,#
0&
0.
0*
b100000 4"
b100000 %#
1!
#10000
0!
1"
#15000
b1000 j"
b1000 p"
b1000 s"
b10 Q
b10 f
b10 ~
b10 *"
b10100 ;
b10100 b
b10100 x
b10100 3"
b1010 =
b1010 c
b1010 y
b1010 2"
b10 \
b10 g
b10 !"
b10 &"
b10 ,"
1-
b100000100000011 ("
b11 8
b11 a
b11 w
b10 2
b10 _
b10 t
b10 /"
b1 4
b1 `
b1 u
b1 ."
b110011 %"
b110011 +"
b1000 G
b1000 \"
b1000 i"
b1000 o"
b1000 r"
b1000000010000011000001010110011 N
b1000000010000011000001010110011 ]"
b1000000010000011000001010110011 k"
b1000000010000011000001010110011 m"
b1010 /
b1010 |"
b1010 *#
b1010 -#
b100 J
b100 e
b100 {
b100 _"
b1000001000000110110011 O
b1000001000000110110011 |
b1000001000000110110011 ^"
b100 >
b100 ["
b100 h"
b100 l"
b100 q"
b100 t"
1!
#20000
0!
#25000
b1100 j"
b1100 p"
b1100 s"
b10100 I"
b10100 S"
b10100 Z"
b10000000100 Q
b10000000100 f
b10000000100 ~
b10000000100 *"
b101 ;
b101 b
b101 x
b101 3"
b0 =
b0 c
b0 y
b0 2"
b1 ^
b1 h
b1 ""
b1 '"
0H"
b11110 Z
b11110 9"
b11110 N"
b11110 T"
b11100011000001100110011 N
b11100011000001100110011 ]"
b11100011000001100110011 k"
b11100011000001100110011 m"
b1100 G
b1100 \"
b1100 i"
b1100 o"
b1100 r"
b100000001000001100000101 ("
b101 8
b101 a
b101 w
b100 2
b100 _
b100 t
b100 /"
b11 4
b11 `
b11 u
b11 ."
b100000 $"
b10 B
b10 7"
b10 K"
b10 W"
b10100 $
b10100 6"
b10100 G"
b10100 P"
b10100 Y"
b1010 O"
b1010 R"
b1000 >
b1000 ["
b1000 h"
b1000 l"
b1000 q"
b1000 t"
b1000 J
b1000 e
b1000 {
b1000 _"
b100 @
b100 d
b100 z
b100 `"
b1000000010000011000001010110011 O
b1000000010000011000001010110011 |
b1000000010000011000001010110011 ^"
b11 7
b11 p
b11 5"
b10 1
b10 r
b10 c"
b1 3
b1 q
b1 b"
b100 H
b100 8"
b100 C"
b100 I
b100 l
b100 B"
b10 P
b10 k
b10 A"
b10 U"
b10 X"
b10100 :
b10100 o
b10100 F"
b1010 <
b1010 n
b1010 E"
b10 [
b10 j
1,
1!
#30000
0!
#35000
b10000 j"
b10000 p"
b10000 s"
b101 I"
b101 S"
b101 Z"
b111 Q
b111 f
b111 ~
b111 *"
b11 ;
b11 b
b11 x
b11 3"
b0 ^
b0 h
b0 ""
b0 '"
b10 S
b10 M"
b10 e"
b10000001000 B
b10000001000 7"
b10000001000 K"
b10000001000 W"
b101 $
b101 6"
b101 G"
b101 P"
b101 Y"
b11110 O"
b11110 R"
b11001 Z
b11001 9"
b11001 N"
b11001 T"
b1110001100000110 ("
b110 8
b110 a
b110 w
b111 2
b111 _
b111 t
b111 /"
b0 $"
b10000 G
b10000 \"
b10000 i"
b10000 o"
b10000 r"
b11 6
b11 ="
b11 a"
b11 w"
b10 A
b10 <"
b10 g"
b10 n"
b100 F
b100 ;"
b100 v"
b10100 #
b10100 >"
b10100 ~"
b10100 ##
b11110 Y
b11110 :"
b11110 @"
b11110 u"
b11110 }"
b11110 "#
1+
b101 7
b101 p
b101 5"
b100 1
b100 r
b100 c"
b11 3
b11 q
b11 b"
b1000 H
b1000 8"
b1000 C"
b1000 I
b1000 l
b1000 B"
b100 ?
b100 m
b100 D"
b100 V"
b10000000100 P
b10000000100 k
b10000000100 A"
b10000000100 U"
b10000000100 X"
b101 :
b101 o
b101 F"
b0 <
b0 n
b0 E"
b1 ]
b1 i
b1 ?"
b1 Q"
b1100 J
b1100 e
b1100 {
b1100 _"
b1000 @
b1000 d
b1000 z
b1000 `"
b11100011000001100110011 O
b11100011000001100110011 |
b11100011000001100110011 ^"
b1100 >
b1100 ["
b1100 h"
b1100 l"
b1100 q"
b1100 t"
1!
#40000
0!
#45000
b10100 j"
b10100 p"
b10100 s"
b11 I"
b11 S"
b11 Z"
b10100 G
b10100 \"
b10100 i"
b10100 o"
b10100 r"
b1111 B
b1111 7"
b1111 K"
b1111 W"
b100001 Z
b100001 9"
b100001 N"
b100001 T"
b11 $
b11 6"
b11 G"
b11 P"
b11 Y"
b11110 %
b11110 s
b11110 0"
b11110 J"
b11110 +#
b11110 .#
b1 S
b1 M"
b1 e"
b10000 >
b10000 ["
b10000 h"
b10000 l"
b10000 q"
b10000 t"
b10000 J
b10000 e
b10000 {
b10000 _"
b1100 @
b1100 d
b1100 z
b1100 `"
b110 7
b110 p
b110 5"
b111 1
b111 r
b111 c"
b1100 H
b1100 8"
b1100 C"
b1100 I
b1100 l
b1100 B"
b1000 ?
b1000 m
b1000 D"
b1000 V"
b111 P
b111 k
b111 A"
b111 U"
b111 X"
b11 :
b11 o
b11 F"
b0 ]
b0 i
b0 ?"
b0 Q"
b101 6
b101 ="
b101 a"
b101 w"
b10000001000 A
b10000001000 <"
b10000001000 g"
b10000001000 n"
b1000 F
b1000 ;"
b1000 v"
b101 #
b101 >"
b101 ~"
b101 ##
b11001 Y
b11001 :"
b11001 @"
b11001 u"
b11001 }"
b11001 "#
b11 9
b11 v
b11 1"
b11 (#
b11 5
b11 d"
b11 {"
b11 )#
b100 E
b100 z"
b100 '#
b11110 X
b11110 y"
b11110 &#
b11110 ,#
1.
1*
1!
#50000
0!
#55000
b11000 j"
b11000 p"
b11000 s"
b11 Z
b11 9"
b11 N"
b11 T"
b0 O"
b0 R"
b11001 %
b11001 s
b11001 0"
b11001 J"
b11001 +#
b11001 .#
b0 S
b0 M"
b0 e"
b10011 B
b10011 7"
b10011 K"
b10011 W"
b11110 =
b11110 c
b11110 y
b11110 2"
b11000 G
b11000 \"
b11000 i"
b11000 o"
b11000 r"
b101 9
b101 v
b101 1"
b101 (#
b101 5
b101 d"
b101 {"
b101 )#
b1000 E
b1000 z"
b1000 '#
b11001 X
b11001 y"
b11001 &#
b11001 ,#
b110 6
b110 ="
b110 a"
b110 w"
b1111 A
b1111 <"
b1111 g"
b1111 n"
b1100 F
b1100 ;"
b1100 v"
b11 #
b11 >"
b11 ~"
b11 ##
b100001 Y
b100001 :"
b100001 @"
b100001 u"
b100001 }"
b100001 "#
b10000 H
b10000 8"
b10000 C"
b10000 I
b10000 l
b10000 B"
b1100 ?
b1100 m
b1100 D"
b1100 V"
b10100 J
b10100 e
b10100 {
b10100 _"
b10000 @
b10000 d
b10000 z
b10000 `"
b10100 >
b10100 ["
b10100 h"
b10100 l"
b10100 q"
b10100 t"
1!
#60000
0!
#65000
b11100 j"
b11100 p"
b11100 s"
b100001 Z
b100001 9"
b100001 N"
b100001 T"
b11100 G
b11100 \"
b11100 i"
b11100 o"
b11100 r"
b10111 B
b10111 7"
b10111 K"
b10111 W"
b11110 O"
b11110 R"
b100001 %
b100001 s
b100001 0"
b100001 J"
b100001 +#
b100001 .#
b11000 >
b11000 ["
b11000 h"
b11000 l"
b11000 q"
b11000 t"
b11000 J
b11000 e
b11000 {
b11000 _"
b10100 @
b10100 d
b10100 z
b10100 `"
b10100 H
b10100 8"
b10100 C"
b10100 I
b10100 l
b10100 B"
b10000 ?
b10000 m
b10000 D"
b10000 V"
b11110 <
b11110 n
b11110 E"
b10011 A
b10011 <"
b10011 g"
b10011 n"
b10000 F
b10000 ;"
b10000 v"
b11 Y
b11 :"
b11 @"
b11 u"
b11 }"
b11 "#
b110 9
b110 v
b110 1"
b110 (#
b110 5
b110 d"
b110 {"
b110 )#
b1100 E
b1100 z"
b1100 '#
b100001 X
b100001 y"
b100001 &#
b100001 ,#
1!
#70000
0!
#75000
b100000 j"
b100000 p"
b100000 s"
b11 %
b11 s
b11 0"
b11 J"
b11 +#
b11 .#
b11011 B
b11011 7"
b11011 K"
b11011 W"
b100000 G
b100000 \"
b100000 i"
b100000 o"
b100000 r"
b10000 E
b10000 z"
b10000 '#
b11 X
b11 y"
b11 &#
b11 ,#
b10111 A
b10111 <"
b10111 g"
b10111 n"
b10100 F
b10100 ;"
b10100 v"
b100001 Y
b100001 :"
b100001 @"
b100001 u"
b100001 }"
b100001 "#
b11000 H
b11000 8"
b11000 C"
b11000 I
b11000 l
b11000 B"
b10100 ?
b10100 m
b10100 D"
b10100 V"
b11100 J
b11100 e
b11100 {
b11100 _"
b11000 @
b11000 d
b11000 z
b11000 `"
b11100 >
b11100 ["
b11100 h"
b11100 l"
b11100 q"
b11100 t"
1!
#80000
0!
#85000
b100100 j"
b100100 p"
b100100 s"
b100100 G
b100100 \"
b100100 i"
b100100 o"
b100100 r"
b11111 B
b11111 7"
b11111 K"
b11111 W"
b100001 %
b100001 s
b100001 0"
b100001 J"
b100001 +#
b100001 .#
b100000 >
b100000 ["
b100000 h"
b100000 l"
b100000 q"
b100000 t"
b100000 J
b100000 e
b100000 {
b100000 _"
b11100 @
b11100 d
b11100 z
b11100 `"
b11100 H
b11100 8"
b11100 C"
b11100 I
b11100 l
b11100 B"
b11000 ?
b11000 m
b11000 D"
b11000 V"
b11011 A
b11011 <"
b11011 g"
b11011 n"
b11000 F
b11000 ;"
b11000 v"
b10100 E
b10100 z"
b10100 '#
b100001 X
b100001 y"
b100001 &#
b100001 ,#
1!
#90000
0!
#95000
b101000 j"
b101000 p"
b101000 s"
b100011 B
b100011 7"
b100011 K"
b100011 W"
b101000 G
b101000 \"
b101000 i"
b101000 o"
b101000 r"
b11000 E
b11000 z"
b11000 '#
b11111 A
b11111 <"
b11111 g"
b11111 n"
b11100 F
b11100 ;"
b11100 v"
b100000 H
b100000 8"
b100000 C"
b100000 I
b100000 l
b100000 B"
b11100 ?
b11100 m
b11100 D"
b11100 V"
b100100 J
b100100 e
b100100 {
b100100 _"
b100000 @
b100000 d
b100000 z
b100000 `"
b100100 >
b100100 ["
b100100 h"
b100100 l"
b100100 q"
b100100 t"
1!
#100000
0!
#105000
b101100 j"
b101100 p"
b101100 s"
b101100 G
b101100 \"
b101100 i"
b101100 o"
b101100 r"
b100111 B
b100111 7"
b100111 K"
b100111 W"
b101000 >
b101000 ["
b101000 h"
b101000 l"
b101000 q"
b101000 t"
b101000 J
b101000 e
b101000 {
b101000 _"
b100100 @
b100100 d
b100100 z
b100100 `"
b100100 H
b100100 8"
b100100 C"
b100100 I
b100100 l
b100100 B"
b100000 ?
b100000 m
b100000 D"
b100000 V"
b100011 A
b100011 <"
b100011 g"
b100011 n"
b100000 F
b100000 ;"
b100000 v"
b11100 E
b11100 z"
b11100 '#
1!
