Pipeline Hazard Detection/verification/waveform.vcd
$date
	Mon Jun 29 16:30:36 2026
$end
$version
	Icarus Verilog
$end
$timescale
	1ps
$end
$scope module TopModule_tb $end
$scope module uut $end
$var wire 1 ! CLK $end
$var wire 1 " RST $end
$var wire 32 # WriteData_M [31:0] $end
$var wire 32 $ WriteData_E [31:0] $end
$var wire 32 % Result_W [31:0] $end
$var wire 1 & ResultSrc_W $end
$var wire 1 ' ResultSrc_M_reg $end
$var wire 1 ( ResultSrc_E $end
$var wire 1 ) ResultSrc_D $end
$var wire 1 * RegWrite_W $end
$var wire 1 + RegWrite_M_reg $end
$var wire 1 , RegWrite_E $end
$var wire 1 - RegWrite_D $end
$var wire 1 . RegWriteOut $end
$var wire 32 / ReadData_W [31:0] $end
$var wire 32 0 ReadData_M [31:0] $end
$var wire 5 1 RS2_E [4:0] $end
$var wire 5 2 RS2_D [4:0] $end
$var wire 5 3 RS1_E [4:0] $end
$var wire 5 4 RS1_D [4:0] $end
$var wire 5 5 RD_W [4:0] $end
$var wire 5 6 RD_M [4:0] $end
$var wire 5 7 RD_E [4:0] $end
$var wire 5 8 RD_D [4:0] $end
$var wire 5 9 RDOut [4:0] $end
$var wire 32 : RD2_E [31:0] $end
$var wire 32 ; RD2_D [31:0] $end
$var wire 32 < RD1_E [31:0] $end
$var wire 32 = RD1_D [31:0] $end
$var wire 32 > PC_F [31:0] $end
$var wire 32 ? PC_E [31:0] $end
$var wire 32 @ PC_D [31:0] $end
$var wire 32 A PCTarget_M [31:0] $end
$var wire 32 B PCTarget_E [31:0] $end
$var wire 1 C PCSrc_M $end
$var wire 1 D PCSrc_E $end
$var wire 32 E PCPlus4_W [31:0] $end
$var wire 32 F PCPlus4_M [31:0] $end
$var wire 32 G PCPlus4_F [31:0] $end
$var wire 32 H PCPlus4_EtoEM [31:0] $end
$var wire 32 I PCPlus4_E [31:0] $end
$var wire 32 J PCPlus4_D [31:0] $end
$var wire 1 K MemWrite_M_reg $end
$var wire 1 L MemWrite_E $end
$var wire 1 M MemWrite_D $end
$var wire 32 N Instr_F [31:0] $end
$var wire 32 O Instr_D [31:0] $end
$var wire 32 P ImmExt_E [31:0] $end
$var wire 32 Q ImmExt_D [31:0] $end
$var wire 1 R Branch_E $end
$var wire 1 S Branch_D $end
$var wire 1 T ALUSrc_E $end
$var wire 1 U ALUSrc_D $end
$var wire 32 V ALUResult_W [31:0] $end
$var wire 32 W ALUResult_M [31:0] $end
$var wire 32 X ALUResult_E [31:0] $end
$var wire 2 Y ALUOp_E [1:0] $end
$var wire 2 Z ALUOp_D [1:0] $end
$var wire 3 [ ALUControl_E [2:0] $end
$var wire 3 \ ALUControl_D [2:0] $end
$scope module DE_reg $end
$var wire 1 ! CLK $end
$var wire 1 " RST $end
$var wire 1 ) ResultSrc_D $end
$var wire 1 - RegWrite_D $end
$var wire 5 ] RS2_D [4:0] $end
$var wire 5 ^ RS1_D [4:0] $end
$var wire 5 _ RD_D [4:0] $end
$var wire 32 ` RD2_D [31:0] $end
$var wire 32 a RD1_D [31:0] $end
$var wire 32 b PC_D [31:0] $end
$var wire 32 c PCPlus4_D [31:0] $end
$var wire 1 M MemWrite_D $end
$var wire 32 d ImmExt_D [31:0] $end
$var wire 1 S Branch_D $end
$var wire 1 U ALUSrc_D $end
$var wire 2 e ALUOp_D [1:0] $end
$var wire 3 f ALUControl_D [2:0] $end
$var reg 3 g ALUControl_E [2:0] $end
$var reg 2 h ALUOp_E [1:0] $end
$var reg 1 T ALUSrc_E $end
$var reg 1 R Branch_E $end
$var reg 32 i ImmExt_E [31:0] $end
$var reg 1 L MemWrite_E $end
$var reg 32 j PCPlus4_E [31:0] $end
$var reg 32 k PC_E [31:0] $end
$var reg 32 l RD1_E [31:0] $end
$var reg 32 m RD2_E [31:0] $end
$var reg 5 n RD_E [4:0] $end
$var reg 5 o RS1_E [4:0] $end
$var reg 5 p RS2_E [4:0] $end
$var reg 1 , RegWrite_E $end
$var reg 1 ( ResultSrc_E $end
$upscope $end
$scope module Decode_stage $end
$var wire 1 ! CLK $end
$var wire 1 " RST $end
$var wire 32 q Result_W [31:0] $end
$var wire 1 ) ResultSrc_D $end
$var wire 1 . RegWrite_W $end
$var wire 1 - RegWrite_D $end
$var wire 5 r RS2_D [4:0] $end
$var wire 5 s RS1_D [4:0] $end
$var wire 5 t RD_W [4:0] $end
$var wire 5 u RD_D [4:0] $end
$var wire 32 v RD2_D [31:0] $end
$var wire 32 w RD1_D [31:0] $end
$var wire 32 x PC_D [31:0] $end
$var wire 32 y PCPlus4_D [31:0] $end
$var wire 1 M MemWrite_D $end
$var wire 32 z Instr_D [31:0] $end
$var wire 2 { ImmSrc [1:0] $end
$var wire 32 | ImmExt_D [31:0] $end
$var wire 1 S Branch_D $end
$var wire 1 U ALUSrc_D $end
$var wire 2 } ALUOp_D [1:0] $end
$var wire 3 ~ ALUControl_D [2:0] $end
$scope module ALUDec_inst $end
$var wire 3 !" funct3 [2:0] $end
$var wire 7 "" funct7 [6:0] $end
$var wire 7 #" op [6:0] $end
$var wire 2 $" ALUOp [1:0] $end
$var reg 3 %" ALUControl [2:0] $end
$upscope $end
$scope module Ext_inst $end
$var wire 25 &" Imm [24:0] $end
$var wire 2 '" ImmSrc [1:0] $end
$var reg 32 (" ImmExt [31:0] $end
$upscope $end
$scope module MainDec_inst $end
$var wire 7 )" op [6:0] $end
$var reg 2 *" ALUOp [1:0] $end
$var reg 1 U ALUSrc $end
$var reg 1 S Branch $end
$var reg 2 +" ImmSrc [1:0] $end
$var reg 1 M MemWrite $end
$var reg 1 - RegWrite $end
$var reg 1 ) ResultSrc $end
$upscope $end
$scope module RF_inst $end
$var wire 5 ," A1 [4:0] $end
$var wire 5 -" A2 [4:0] $end
$var wire 1 ! CLK $end
$var wire 1 " RST $end
$var wire 1 . WE3 $end
$var wire 32 ." WD3 [31:0] $end
$var wire 5 /" A3 [4:0] $end
$var reg 32 0" RD1 [31:0] $end
$var reg 32 1" RD2 [31:0] $end
$var integer 32 2" i [31:0] $end
$upscope $end
$upscope $end
$scope module EM_reg $end
$var wire 1 ! CLK $end
$var wire 1 L MemWrite_E $end
$var wire 5 3" RD_E [4:0] $end
$var wire 1 " RST $end
$var wire 1 , RegWrite_E $end
$var wire 1 ( ResultSrc_E $end
$var wire 32 4" WriteData_E [31:0] $end
$var wire 32 5" PCTarget_E [31:0] $end
$var wire 1 D PCSrc_E $end
$var wire 32 6" PCPlus4_E [31:0] $end
$var wire 32 7" ALUResult_E [31:0] $end
$var reg 32 8" ALUResult_M [31:0] $end
$var reg 1 K MemWrite_M $end
$var reg 32 9" PCPlus4_M [31:0] $end
$var reg 1 C PCSrc_M $end
$var reg 32 :" PCTarget_M [31:0] $end
$var reg 5 ;" RD_M [4:0] $end
$var reg 1 + RegWrite_M $end
$var reg 1 ' ResultSrc_M $end
$var reg 32 <" WriteData_M [31:0] $end
$upscope $end
$scope module Execute_stage $end
$var wire 3 =" ALUControl_E [2:0] $end
$var wire 1 T ALUSrc_E $end
$var wire 1 R Branch_E $end
$var wire 32 >" ImmExt_E [31:0] $end
$var wire 1 L MemWrite_E $end
$var wire 32 ?" PCPlus4_E [31:0] $end
$var wire 32 @" PCPlus4_out [31:0] $end
$var wire 32 A" PC_E [31:0] $end
$var wire 32 B" RD1_E [31:0] $end
$var wire 32 C" RD2_E [31:0] $end
$var wire 1 , RegWrite_E $end
$var wire 1 ( ResultSrc_E $end
$var wire 32 D" WriteData_E [31:0] $end
$var wire 1 E" Zero $end
$var wire 32 F" SrcB [31:0] $end
$var wire 32 G" PCTarget_E [31:0] $end
$var wire 1 D PCSrc_E $end
$var wire 32 H" ALUResult_E [31:0] $end
$scope module ALU_inst $end
$var wire 3 I" ALUControl [2:0] $end
$var wire 32 J" SrcA [31:0] $end
$var wire 32 K" SrcB [31:0] $end
$var reg 32 L" ALUResult [31:0] $end
$var reg 1 E" Zero $end
$upscope $end
$scope module BJ_inst $end
$var wire 1 R Branch $end
$var wire 1 E" Zero $end
$var reg 1 D PCSrc $end
$upscope $end
$scope module PCImm_inst $end
$var wire 32 M" ImmExt [31:0] $end
$var wire 32 N" PC [31:0] $end
$var reg 32 O" PCTarget [31:0] $end
$upscope $end
$scope module SrcB_inst $end
$var wire 1 T ALUSrc $end
$var wire 32 P" ImmExt [31:0] $end
$var wire 32 Q" RD2 [31:0] $end
$var reg 32 R" SrcB [31:0] $end
$upscope $end
$upscope $end
$scope module FD_reg $end
$var wire 1 ! CLK $end
$var wire 1 " RST $end
$var wire 32 S" PC_F [31:0] $end
$var wire 32 T" PCPlus4_F [31:0] $end
$var wire 32 U" Instr_F [31:0] $end
$var reg 32 V" Instr_D [31:0] $end
$var reg 32 W" PCPlus4_D [31:0] $end
$var reg 32 X" PC_D [31:0] $end
$upscope $end
$scope module Fetch_stage $end
$var wire 1 ! CLK $end
$var wire 1 C PCSrc $end
$var wire 32 Y" PCTarget [31:0] $end
$var wire 1 " RST $end
$var wire 32 Z" PC_F [31:0] $end
$var wire 32 [" PCPlus4_F [31:0] $end
$var wire 32 \" PCNext [31:0] $end
$var wire 32 ]" Instr_F [31:0] $end
$scope module IMem_inst $end
$var wire 32 ^" A [31:0] $end
$var reg 32 _" RD [31:0] $end
$upscope $end
$scope module PCMux_inst $end
$var wire 1 C PCSrc $end
$var wire 32 `" PCTarget [31:0] $end
$var wire 32 a" PCPlus4 [31:0] $end
$var reg 32 b" PCNext [31:0] $end
$upscope $end
$scope module PCPlus4_inst $end
$var wire 32 c" PC [31:0] $end
$var reg 32 d" PCPlus4 [31:0] $end
$upscope $end
$scope module PC_inst $end
$var wire 1 ! CLK $end
$var wire 32 e" PCNext [31:0] $end
$var wire 1 " RST $end
$var reg 32 f" PC [31:0] $end
$upscope $end
$upscope $end
$scope module MW_reg $end
$var wire 32 g" ALUResult_M [31:0] $end
$var wire 1 ! CLK $end
$var wire 32 h" PCPlus4_M [31:0] $end
$var wire 5 i" RD_M [4:0] $end
$var wire 1 " RST $end
$var wire 1 + RegWrite_M $end
$var wire 1 ' ResultSrc_M $end
$var wire 32 j" ReadData_M [31:0] $end
$var reg 32 k" ALUResult_W [31:0] $end
$var reg 32 l" PCPlus4_W [31:0] $end
$var reg 5 m" RD_W [4:0] $end
$var reg 32 n" ReadData_W [31:0] $end
$var reg 1 * RegWrite_W $end
$var reg 1 & ResultSrc_W $end
$upscope $end
$scope module Memory_stage $end
$var wire 32 o" ALUResult_M [31:0] $end
$var wire 1 ! CLK $end
$var wire 1 K MemWrite_M $end
$var wire 1 " RST $end
$var wire 32 p" WriteData_M [31:0] $end
$var wire 32 q" ReadData_M [31:0] $end
$scope module DMem_inst $end
$var wire 32 r" A_DM [31:0] $end
$var wire 1 ! CLK $end
$var wire 1 " RST $end
$var wire 32 s" WD [31:0] $end
$var wire 1 K WE $end
$var reg 32 t" RD3 [31:0] $end
$var integer 32 u" i [31:0] $end
$upscope $end
$upscope $end
$scope module WB_stage $end
$var wire 32 v" ALUResult_W [31:0] $end
$var wire 32 w" PCPlus4_W [31:0] $end
$var wire 5 x" RDOut [4:0] $end
$var wire 5 y" RD_W [4:0] $end
$var wire 32 z" ReadData_W [31:0] $end
$var wire 1 . RegWriteOut $end
$var wire 1 * RegWrite_W $end
$var wire 1 & ResultSrc_W $end
$var wire 32 {" Result_W [31:0] $end
$scope module RMux_inst $end
$var wire 32 |" ALUResult [31:0] $end
$var wire 32 }" ReadData [31:0] $end
$var wire 1 & ResultSrc $end
$var reg 32 ~" Result [31:0] $end
$upscope $end
$upscope $end
$upscope $end
$upscope $end
$enddefinitions $end
$comment Show the parameter values. $end
$dumpall
$end
#0
$dumpvars
bx ~"
bx }"
bx |"
bx {"
bx z"
bx y"
bx x"
bx w"
bx v"
bx u"
bx t"
bx s"
bx r"
bx q"
bx p"
bx o"
bx n"
bx m"
bx l"
bx k"
bx j"
bx i"
bx h"
bx g"
bx f"
bx e"
bx d"
bx c"
bx b"
bx a"
bx `"
bx _"
bx ^"
bx ]"
bx \"
bx ["
bx Z"
bx Y"
bx X"
bx W"
bx V"
bx U"
bx T"
bx S"
bx R"
bx Q"
bx P"
bx O"
bx N"
bx M"
bx L"
bx K"
bx J"
bx I"
bx H"
bx G"
bx F"
xE"
bx D"
bx C"
bx B"
bx A"
bx @"
bx ?"
bx >"
bx ="
bx <"
bx ;"
bx :"
bx 9"
bx 8"
bx 7"
bx 6"
bx 5"
bx 4"
bx 3"
bx 2"
bx 1"
bx 0"
bx /"
bx ."
bx -"
bx ,"
bx +"
bx *"
bx )"
bx ("
bx '"
bx &"
bx %"
bx $"
bx #"
bx ""
bx !"
bx ~
bx }
bx |
bx {
bx z
bx y
bx x
bx w
bx v
bx u
bx t
bx s
bx r
bx q
bx p
bx o
bx n
bx m
bx l
bx k
bx j
bx i
bx h
bx g
bx f
bx e
bx d
bx c
bx b
bx a
bx `
bx _
bx ^
bx ]
bx \
bx [
bx Z
bx Y
bx X
bx W
bx V
xU
xT
xS
xR
bx Q
bx P
bx O
bx N
xM
xL
xK
bx J
bx I
bx H
bx G
bx F
bx E
xD
xC
bx B
bx A
bx @
bx ?
bx >
bx =
bx <
bx ;
bx :
bx 9
bx 8
bx 7
bx 6
bx 5
bx 4
bx 3
bx 2
bx 1
bx 0
bx /
x.
x-
x,
x+
x*
x)
x(
x'
x&
bx %
bx $
bx #
0"
0!
$end
#5000
1E"
b0 X
b0 7"
b0 H"
b0 L"
b100 \"
b100 b"
b100 e"
b0 F"
b0 K"
b0 R"
b0 Q
b0 d
b0 |
b0 ("
b0 ;
b0 `
b0 v
b0 1"
b0 =
b0 a
b0 w
b0 0"
b0 \
b0 f
b0 ~
b0 %"
0S
0-
b0 {
b0 '"
b0 +"
0U
b0 Z
b0 e
b0 }
b0 $"
b0 *"
0M
0)
b10000000010000010000011 N
b10000000010000010000011 U"
b10000000010000010000011 ]"
b10000000010000010000011 _"
b100 G
b100 T"
b100 ["
b100 a"
b100 d"
b0 &"
b0 8
b0 _
b0 u
b0 2
b0 ]
b0 r
b0 -"
b0 4
b0 ^
b0 s
b0 ,"
b0 #"
b0 ""
b0 !"
b0 )"
b0 B
b0 5"
b0 G"
b0 O"
0D
b1010 0
b1010 j"
b1010 q"
b1010 t"
b0 %
b0 q
b0 ."
b0 {"
b0 ~"
b0 >
b0 S"
b0 Z"
b0 ^"
b0 c"
b0 f"
b0 J
b0 c
b0 y
b0 W"
b0 @
b0 b
b0 x
b0 X"
b0 O
b0 z
b0 V"
b0 7
b0 n
b0 3"
b0 1
b0 p
b0 3
b0 o
b0 H
b0 6"
b0 @"
b0 I
b0 j
b0 ?"
b0 ?
b0 k
b0 A"
b0 N"
b0 P
b0 i
b0 >"
b0 M"
b0 P"
b0 $
b0 4"
b0 D"
b0 :
b0 m
b0 C"
b0 Q"
b0 <
b0 l
b0 B"
b0 J"
b0 [
b0 g
b0 ="
b0 I"
b0 Y
b0 h
0R
0T
0L
0(
0,
b0 6
b0 ;"
b0 i"
b0 A
b0 :"
b0 Y"
b0 `"
b0 F
b0 9"
b0 h"
b0 #
b0 <"
b0 p"
b0 s"
b0 W
b0 8"
b0 g"
b0 o"
b0 r"
0C
0K
0'
0+
b0 9
b0 t
b0 /"
b0 x"
b0 5
b0 m"
b0 y"
b0 E
b0 l"
b0 w"
b0 /
b0 n"
b0 z"
b0 }"
b0 V
b0 k"
b0 v"
b0 |"
0&
0.
0*
b100000 2"
b100000 u"
1!
#10000
0!
1"
#15000
b1000 \"
b1000 b"
b1000 e"
b100 Q
b100 d
b100 |
b100 ("
1)
1U
1-
b1000000001000001 &"
b1 8
b1 _
b1 u
b100 2
b100 ]
b100 r
b100 -"
b11 #"
b10 !"
b11 )"
b1000 G
b1000 T"
b1000 ["
b1000 a"
b1000 d"
b110011 N
b110011 U"
b110011 ]"
b110011 _"
b1010 /
b1010 n"
b1010 z"
b1010 }"
b100 J
b100 c
b100 y
b100 W"
b10000000010000010000011 O
b10000000010000010000011 z
b10000000010000010000011 V"
b100 >
b100 S"
b100 Z"
b100 ^"
b100 c"
b100 f"
1!
#20000
0!
#25000
0E"
b100 X
b100 7"
b100 H"
b100 L"
b1100 \"
b1100 b"
b1100 e"
b100 F"
b100 K"
b100 R"
b0 Q
b0 d
b0 |
b0 ("
0)
0U
b10 Z
b10 e
b10 }
b10 $"
b10 *"
b1100 G
b1100 T"
b1100 ["
b1100 a"
b1100 d"
b0 &"
b0 8
b0 _
b0 u
b0 2
b0 ]
b0 r
b0 -"
b110011 #"
b0 !"
b110011 )"
b100 B
b100 5"
b100 G"
b100 O"
b1000 >
b1000 S"
b1000 Z"
b1000 ^"
b1000 c"
b1000 f"
b1000 J
b1000 c
b1000 y
b1000 W"
b100 @
b100 b
b100 x
b100 X"
b110011 O
b110011 z
b110011 V"
b1 7
b1 n
b1 3"
b100 1
b100 p
b100 H
b100 6"
b100 @"
b100 I
b100 j
b100 ?"
b100 P
b100 i
b100 >"
b100 M"
b100 P"
1T
1(
1,
1!
#30000
0!
#35000
1E"
b0 X
b0 7"
b0 H"
b0 L"
b10000 \"
b10000 b"
b10000 e"
b0 F"
b0 K"
b0 R"
b10000 G
b10000 T"
b10000 ["
b10000 a"
b10000 d"
b1000000100110011 N
b1000000100110011 U"
b1000000100110011 ]"
b1000000100110011 _"
b1 6
b1 ;"
b1 i"
b100 A
b100 :"
b100 Y"
b100 `"
b100 F
b100 9"
b100 h"
b100 W
b100 8"
b100 g"
b100 o"
b100 r"
1'
1+
b0 7
b0 n
b0 3"
b0 1
b0 p
b1000 H
b1000 6"
b1000 @"
b1000 I
b1000 j
b1000 ?"
b100 ?
b100 k
b100 A"
b100 N"
b0 P
b0 i
b0 >"
b0 M"
b0 P"
b10 Y
b10 h
0T
0(
b1100 J
b1100 c
b1100 y
b1100 W"
b1000 @
b1000 b
b1000 x
b1000 X"
b1100 >
b1100 S"
b1100 Z"
b1100 ^"
b1100 c"
b1100 f"
1!
#40000
0!
#45000
b10100 \"
b10100 b"
b10100 e"
b110011 N
b110011 U"
b110011 ]"
b110011 _"
b10100 G
b10100 T"
b10100 ["
b10100 a"
b10100 d"
b100000010 &"
b10 8
b10 _
b10 u
b1 4
b1 ^
b1 s
b1 ,"
b1000 B
b1000 5"
b1000 G"
b1000 O"
b1010 %
b1010 q
b1010 ."
b1010 {"
b1010 ~"
b10000 >
b10000 S"
b10000 Z"
b10000 ^"
b10000 c"
b10000 f"
b10000 J
b10000 c
b10000 y
b10000 W"
b1100 @
b1100 b
b1100 x
b1100 X"
b1000000100110011 O
b1000000100110011 z
b1000000100110011 V"
b1100 H
b1100 6"
b1100 @"
b1100 I
b1100 j
b1100 ?"
b1000 ?
b1000 k
b1000 A"
b1000 N"
b0 6
b0 ;"
b0 i"
b1000 F
b1000 9"
b1000 h"
b0 W
b0 8"
b0 g"
b0 o"
b0 r"
0'
b1 9
b1 t
b1 /"
b1 x"
b1 5
b1 m"
b1 y"
b100 E
b100 l"
b100 w"
b100 V
b100 k"
b100 v"
b100 |"
1&
1.
1*
1!
#50000
0!
#55000
b11000 \"
b11000 b"
b11000 e"
b0 %
b0 q
b0 ."
b0 {"
b0 ~"
b1100 B
b1100 5"
b1100 G"
b1100 O"
b0 &"
b0 8
b0 _
b0 u
b0 4
b0 ^
b0 s
b0 ,"
b11000 G
b11000 T"
b11000 ["
b11000 a"
b11000 d"
b0 9
b0 t
b0 /"
b0 x"
b0 5
b0 m"
b0 y"
b1000 E
b1000 l"
b1000 w"
b0 V
b0 k"
b0 v"
b0 |"
0&
b1000 A
b1000 :"
b1000 Y"
b1000 `"
b1100 F
b1100 9"
b1100 h"
b10 7
b10 n
b10 3"
b1 3
b1 o
b10000 H
b10000 6"
b10000 @"
b10000 I
b10000 j
b10000 ?"
b1100 ?
b1100 k
b1100 A"
b1100 N"
b10100 J
b10100 c
b10100 y
b10100 W"
b10000 @
b10000 b
b10000 x
b10000 X"
b110011 O
b110011 z
b110011 V"
b10100 >
b10100 S"
b10100 Z"
b10100 ^"
b10100 c"
b10100 f"
1!
#60000
0!
#65000
b11100 \"
b11100 b"
b11100 e"
b11100 G
b11100 T"
b11100 ["
b11100 a"
b11100 d"
b10000 B
b10000 5"
b10000 G"
b10000 O"
b11000 >
b11000 S"
b11000 Z"
b11000 ^"
b11000 c"
b11000 f"
b11000 J
b11000 c
b11000 y
b11000 W"
b10100 @
b10100 b
b10100 x
b10100 X"
b0 7
b0 n
b0 3"
b0 3
b0 o
b10100 H
b10100 6"
b10100 @"
b10100 I
b10100 j
b10100 ?"
b10000 ?
b10000 k
b10000 A"
b10000 N"
b10 6
b10 ;"
b10 i"
b1100 A
b1100 :"
b1100 Y"
b1100 `"
b10000 F
b10000 9"
b10000 h"
b1100 E
b1100 l"
b1100 w"
1!
#70000
0!
#75000
b100000 \"
b100000 b"
b100000 e"
b10100 B
b10100 5"
b10100 G"
b10100 O"
b100000 G
b100000 T"
b100000 ["
b100000 a"
b100000 d"
b10 9
b10 t
b10 /"
b10 x"
b10 5
b10 m"
b10 y"
b10000 E
b10000 l"
b10000 w"
b0 6
b0 ;"
b0 i"
b10000 A
b10000 :"
b10000 Y"
b10000 `"
b10100 F
b10100 9"
b10100 h"
b11000 H
b11000 6"
b11000 @"
b11000 I
b11000 j
b11000 ?"
b10100 ?
b10100 k
b10100 A"
b10100 N"
b11100 J
b11100 c
b11100 y
b11100 W"
b11000 @
b11000 b
b11000 x
b11000 X"
b11100 >
b11100 S"
b11100 Z"
b11100 ^"
b11100 c"
b11100 f"
1!
#80000
0!
#85000
b100100 \"
b100100 b"
b100100 e"
b100100 G
b100100 T"
b100100 ["
b100100 a"
b100100 d"
b11000 B
b11000 5"
b11000 G"
b11000 O"
b100000 >
b100000 S"
b100000 Z"
b100000 ^"
b100000 c"
b100000 f"
b100000 J
b100000 c
b100000 y
b100000 W"
b11100 @
b11100 b
b11100 x
b11100 X"
b11100 H
b11100 6"
b11100 @"
b11100 I
b11100 j
b11100 ?"
b11000 ?
b11000 k
b11000 A"
b11000 N"
b10100 A
b10100 :"
b10100 Y"
b10100 `"
b11000 F
b11000 9"
b11000 h"
b0 9
b0 t
b0 /"
b0 x"
b0 5
b0 m"
b0 y"
b10100 E
b10100 l"
b10100 w"
1!
#90000
0!
#95000
b101000 \"
b101000 b"
b101000 e"
b11100 B
b11100 5"
b11100 G"
b11100 O"
b101000 G
b101000 T"
b101000 ["
b101000 a"
b101000 d"
b11000 E
b11000 l"
b11000 w"
b11000 A
b11000 :"
b11000 Y"
b11000 `"
b11100 F
b11100 9"
b11100 h"
b100000 H
b100000 6"
b100000 @"
b100000 I
b100000 j
b100000 ?"
b11100 ?
b11100 k
b11100 A"
b11100 N"
b100100 J
b100100 c
b100100 y
b100100 W"
b100000 @
b100000 b
b100000 x
b100000 X"
b100100 >
b100100 S"
b100100 Z"
b100100 ^"
b100100 c"
b100100 f"
1!
#100000
0!
#105000
b101100 \"
b101100 b"
b101100 e"
b101100 G
b101100 T"
b101100 ["
b101100 a"
b101100 d"
b100000 B
b100000 5"
b100000 G"
b100000 O"
b101000 >
b101000 S"
b101000 Z"
b101000 ^"
b101000 c"
b101000 f"
b101000 J
b101000 c
b101000 y
b101000 W"
b100100 @
b100100 b
b100100 x
b100100 X"
b100100 H
b100100 6"
b100100 @"
b100100 I
b100100 j
b100100 ?"
b100000 ?
b100000 k
b100000 A"
b100000 N"
b11100 A
b11100 :"
b11100 Y"
b11100 `"
b100000 F
b100000 9"
b100000 h"
b11100 E
b11100 l"
b11100 w"
1!
