Pipeline Hazard Detection/verification/waveform.vcd
$date
	Mon Jun 29 23:56:10 2026
$end
$version
	Icarus Verilog
$end
$timescale
	1ps
$end
$scope module TopModule_tb $end
$scope module uut $end
$var wire 1 ! CLK $end
$var wire 1 " RST $end
$var wire 32 # WriteData_M [31:0] $end
$var wire 32 $ WriteData_E [31:0] $end
$var wire 32 % Result_W [31:0] $end
$var wire 1 & ResultSrc_W $end
$var wire 1 ' ResultSrc_M $end
$var wire 1 ( ResultSrc_E $end
$var wire 1 ) ResultSrc_D $end
$var wire 1 * RegWrite_W $end
$var wire 1 + RegWrite_M $end
$var wire 1 , RegWrite_E $end
$var wire 1 - RegWrite_D $end
$var wire 1 . RegWriteOut $end
$var wire 32 / ReadData_W [31:0] $end
$var wire 32 0 ReadData_M [31:0] $end
$var wire 5 1 RS2_E [4:0] $end
$var wire 5 2 RS2_D [4:0] $end
$var wire 5 3 RS1_E [4:0] $end
$var wire 5 4 RS1_D [4:0] $end
$var wire 5 5 RD_W [4:0] $end
$var wire 5 6 RD_M [4:0] $end
$var wire 5 7 RD_E [4:0] $end
$var wire 5 8 RD_D [4:0] $end
$var wire 5 9 RDOut [4:0] $end
$var wire 32 : RD2_E [31:0] $end
$var wire 32 ; RD2_D [31:0] $end
$var wire 32 < RD1_E [31:0] $end
$var wire 32 = RD1_D [31:0] $end
$var wire 32 > PC_F [31:0] $end
$var wire 32 ? PC_E [31:0] $end
$var wire 32 @ PC_D [31:0] $end
$var wire 1 A PCWrite $end
$var wire 32 B PCTarget_M [31:0] $end
$var wire 32 C PCTarget_E [31:0] $end
$var wire 1 D PCSrc_M $end
$var wire 1 E PCSrc_E $end
$var wire 32 F PCPlus4_W [31:0] $end
$var wire 32 G PCPlus4_M [31:0] $end
$var wire 32 H PCPlus4_F [31:0] $end
$var wire 32 I PCPlus4_EtoEM [31:0] $end
$var wire 32 J PCPlus4_E [31:0] $end
$var wire 32 K PCPlus4_D [31:0] $end
$var wire 1 L MemWrite_M $end
$var wire 1 M MemWrite_E $end
$var wire 1 N MemWrite_D $end
$var wire 32 O Instr_F [31:0] $end
$var wire 32 P Instr_D [31:0] $end
$var wire 32 Q ImmExt_E [31:0] $end
$var wire 32 R ImmExt_D [31:0] $end
$var wire 2 S ForwardB [1:0] $end
$var wire 2 T ForwardA [1:0] $end
$var wire 1 U FlushE $end
$var wire 1 V FDWrite $end
$var wire 1 W Branch_E $end
$var wire 1 X Branch_D $end
$var wire 1 Y ALUSrc_E $end
$var wire 1 Z ALUSrc_D $end
$var wire 32 [ ALUResult_W [31:0] $end
$var wire 32 \ ALUResult_M [31:0] $end
$var wire 32 ] ALUResult_E [31:0] $end
$var wire 2 ^ ALUOp_E [1:0] $end
$var wire 2 _ ALUOp_D [1:0] $end
$var wire 3 ` ALUControl_E [2:0] $end
$var wire 3 a ALUControl_D [2:0] $end
$scope module DE_reg $end
$var wire 1 ! CLK $end
$var wire 1 " RST $end
$var wire 1 ) ResultSrc_D $end
$var wire 1 - RegWrite_D $end
$var wire 5 b RS2_D [4:0] $end
$var wire 5 c RS1_D [4:0] $end
$var wire 5 d RD_D [4:0] $end
$var wire 32 e RD2_D [31:0] $end
$var wire 32 f RD1_D [31:0] $end
$var wire 32 g PC_D [31:0] $end
$var wire 32 h PCPlus4_D [31:0] $end
$var wire 1 N MemWrite_D $end
$var wire 32 i ImmExt_D [31:0] $end
$var wire 1 U FlushE $end
$var wire 1 X Branch_D $end
$var wire 1 Z ALUSrc_D $end
$var wire 2 j ALUOp_D [1:0] $end
$var wire 3 k ALUControl_D [2:0] $end
$var reg 3 l ALUControl_E [2:0] $end
$var reg 2 m ALUOp_E [1:0] $end
$var reg 1 Y ALUSrc_E $end
$var reg 1 W Branch_E $end
$var reg 32 n ImmExt_E [31:0] $end
$var reg 1 M MemWrite_E $end
$var reg 32 o PCPlus4_E [31:0] $end
$var reg 32 p PC_E [31:0] $end
$var reg 32 q RD1_E [31:0] $end
$var reg 32 r RD2_E [31:0] $end
$var reg 5 s RD_E [4:0] $end
$var reg 5 t RS1_E [4:0] $end
$var reg 5 u RS2_E [4:0] $end
$var reg 1 , RegWrite_E $end
$var reg 1 ( ResultSrc_E $end
$upscope $end
$scope module Decode_stage $end
$var wire 1 ! CLK $end
$var wire 1 " RST $end
$var wire 32 v Result_W [31:0] $end
$var wire 1 ) ResultSrc_D $end
$var wire 1 . RegWrite_W $end
$var wire 1 - RegWrite_D $end
$var wire 5 w RS2_D [4:0] $end
$var wire 5 x RS1_D [4:0] $end
$var wire 5 y RD_W [4:0] $end
$var wire 5 z RD_D [4:0] $end
$var wire 32 { RD2_D [31:0] $end
$var wire 32 | RD1_D [31:0] $end
$var wire 32 } PC_D [31:0] $end
$var wire 32 ~ PCPlus4_D [31:0] $end
$var wire 1 N MemWrite_D $end
$var wire 32 !" Instr_D [31:0] $end
$var wire 2 "" ImmSrc [1:0] $end
$var wire 32 #" ImmExt_D [31:0] $end
$var wire 1 X Branch_D $end
$var wire 1 Z ALUSrc_D $end
$var wire 2 $" ALUOp_D [1:0] $end
$var wire 3 %" ALUControl_D [2:0] $end
$scope module ALUDec_inst $end
$var wire 3 &" funct3 [2:0] $end
$var wire 7 '" funct7 [6:0] $end
$var wire 7 (" op [6:0] $end
$var wire 2 )" ALUOp [1:0] $end
$var reg 3 *" ALUControl [2:0] $end
$upscope $end
$scope module Ext_inst $end
$var wire 25 +" Imm [24:0] $end
$var wire 2 ," ImmSrc [1:0] $end
$var reg 32 -" ImmExt [31:0] $end
$upscope $end
$scope module MainDec_inst $end
$var wire 7 ." op [6:0] $end
$var reg 2 /" ALUOp [1:0] $end
$var reg 1 Z ALUSrc $end
$var reg 1 X Branch $end
$var reg 2 0" ImmSrc [1:0] $end
$var reg 1 N MemWrite $end
$var reg 1 - RegWrite $end
$var reg 1 ) ResultSrc $end
$upscope $end
$scope module RF_inst $end
$var wire 5 1" A1 [4:0] $end
$var wire 5 2" A2 [4:0] $end
$var wire 1 ! CLK $end
$var wire 1 " RST $end
$var wire 1 . WE3 $end
$var wire 32 3" WD3 [31:0] $end
$var wire 5 4" A3 [4:0] $end
$var reg 32 5" RD1 [31:0] $end
$var reg 32 6" RD2 [31:0] $end
$var integer 32 7" i [31:0] $end
$upscope $end
$upscope $end
$scope module EM_reg $end
$var wire 1 ! CLK $end
$var wire 1 M MemWrite_E $end
$var wire 5 8" RD_E [4:0] $end
$var wire 1 " RST $end
$var wire 1 , RegWrite_E $end
$var wire 1 ( ResultSrc_E $end
$var wire 32 9" WriteData_E [31:0] $end
$var wire 32 :" PCTarget_E [31:0] $end
$var wire 1 E PCSrc_E $end
$var wire 32 ;" PCPlus4_E [31:0] $end
$var wire 32 <" ALUResult_E [31:0] $end
$var reg 32 =" ALUResult_M [31:0] $end
$var reg 1 L MemWrite_M $end
$var reg 32 >" PCPlus4_M [31:0] $end
$var reg 1 D PCSrc_M $end
$var reg 32 ?" PCTarget_M [31:0] $end
$var reg 5 @" RD_M [4:0] $end
$var reg 1 + RegWrite_M $end
$var reg 1 ' ResultSrc_M $end
$var reg 32 A" WriteData_M [31:0] $end
$upscope $end
$scope module Execute_stage $end
$var wire 3 B" ALUControl_E [2:0] $end
$var wire 32 C" ALUResult_M [31:0] $end
$var wire 1 Y ALUSrc_E $end
$var wire 1 W Branch_E $end
$var wire 32 D" ImmExt_E [31:0] $end
$var wire 1 M MemWrite_E $end
$var wire 32 E" PCPlus4_E [31:0] $end
$var wire 32 F" PCPlus4_out [31:0] $end
$var wire 32 G" PC_E [31:0] $end
$var wire 32 H" RD1_E [31:0] $end
$var wire 32 I" RD2_E [31:0] $end
$var wire 1 , RegWrite_E $end
$var wire 1 ( ResultSrc_E $end
$var wire 32 J" WriteData_E [31:0] $end
$var wire 1 K" Zero $end
$var wire 32 L" SrcB [31:0] $end
$var wire 32 M" Result_W [31:0] $end
$var wire 32 N" PCTarget_E [31:0] $end
$var wire 1 E PCSrc_E $end
$var wire 2 O" ForwardB [1:0] $end
$var wire 2 P" ForwardA [1:0] $end
$var wire 32 Q" ALUResult_E [31:0] $end
$var reg 32 R" ForwardA_Mux_out [31:0] $end
$var reg 32 S" ForwardB_Mux_out [31:0] $end
$scope module ALU_inst $end
$var wire 3 T" ALUControl [2:0] $end
$var wire 32 U" SrcA [31:0] $end
$var wire 32 V" SrcB [31:0] $end
$var reg 32 W" ALUResult [31:0] $end
$var reg 1 K" Zero $end
$upscope $end
$scope module BJ_inst $end
$var wire 1 W Branch $end
$var wire 1 K" Zero $end
$var reg 1 E PCSrc $end
$upscope $end
$scope module PCImm_inst $end
$var wire 32 X" ImmExt [31:0] $end
$var wire 32 Y" PC [31:0] $end
$var reg 32 Z" PCTarget [31:0] $end
$upscope $end
$scope module SrcB_inst $end
$var wire 1 Y ALUSrc $end
$var wire 32 [" ImmExt [31:0] $end
$var wire 32 \" RD2 [31:0] $end
$var reg 32 ]" SrcB [31:0] $end
$upscope $end
$upscope $end
$scope module FD_reg $end
$var wire 1 ! CLK $end
$var wire 1 " RST $end
$var wire 32 ^" PC_F [31:0] $end
$var wire 32 _" PCPlus4_F [31:0] $end
$var wire 32 `" Instr_F [31:0] $end
$var wire 1 V FDWrite $end
$var reg 32 a" Instr_D [31:0] $end
$var reg 32 b" PCPlus4_D [31:0] $end
$var reg 32 c" PC_D [31:0] $end
$upscope $end
$scope module FU $end
$var wire 5 d" RD_M [4:0] $end
$var wire 5 e" RS1_E [4:0] $end
$var wire 5 f" RS2_E [4:0] $end
$var wire 1 + RegWrite_M $end
$var wire 1 * RegWrite_W $end
$var wire 5 g" RD_W [4:0] $end
$var reg 2 h" ForwardA [1:0] $end
$var reg 2 i" ForwardB [1:0] $end
$upscope $end
$scope module Fetch_stage $end
$var wire 1 ! CLK $end
$var wire 1 D PCSrc $end
$var wire 32 j" PCTarget [31:0] $end
$var wire 1 " RST $end
$var wire 32 k" PC_F [31:0] $end
$var wire 1 A PCWrite $end
$var wire 32 l" PCPlus4_F [31:0] $end
$var wire 32 m" PCNext [31:0] $end
$var wire 32 n" Instr_F [31:0] $end
$scope module IMem_inst $end
$var wire 32 o" A [31:0] $end
$var reg 32 p" RD [31:0] $end
$upscope $end
$scope module PCMux_inst $end
$var wire 1 D PCSrc $end
$var wire 32 q" PCTarget [31:0] $end
$var wire 32 r" PCPlus4 [31:0] $end
$var reg 32 s" PCNext [31:0] $end
$upscope $end
$scope module PCPlus4_inst $end
$var wire 32 t" PC [31:0] $end
$var reg 32 u" PCPlus4 [31:0] $end
$upscope $end
$scope module PC_inst $end
$var wire 1 ! CLK $end
$var wire 32 v" PCNext [31:0] $end
$var wire 1 " RST $end
$var wire 1 A PCWrite $end
$var reg 32 w" PC [31:0] $end
$upscope $end
$upscope $end
$scope module HD $end
$var wire 5 x" RD_E [4:0] $end
$var wire 5 y" RS1_D [4:0] $end
$var wire 5 z" RS2_D [4:0] $end
$var wire 1 ( ResultSrc_E $end
$var reg 1 V FDWrite $end
$var reg 1 U FlushE $end
$var reg 1 A PCWrite $end
$upscope $end
$scope module MW_reg $end
$var wire 32 {" ALUResult_M [31:0] $end
$var wire 1 ! CLK $end
$var wire 32 |" PCPlus4_M [31:0] $end
$var wire 5 }" RD_M [4:0] $end
$var wire 1 " RST $end
$var wire 1 + RegWrite_M $end
$var wire 1 ' ResultSrc_M $end
$var wire 32 ~" ReadData_M [31:0] $end
$var reg 32 !# ALUResult_W [31:0] $end
$var reg 32 "# PCPlus4_W [31:0] $end
$var reg 5 ## RD_W [4:0] $end
$var reg 32 $# ReadData_W [31:0] $end
$var reg 1 * RegWrite_W $end
$var reg 1 & ResultSrc_W $end
$upscope $end
$scope module Memory_stage $end
$var wire 32 %# ALUResult_M [31:0] $end
$var wire 1 ! CLK $end
$var wire 1 L MemWrite_M $end
$var wire 1 " RST $end
$var wire 32 &# WriteData_M [31:0] $end
$var wire 32 '# ReadData_M [31:0] $end
$scope module DMem_inst $end
$var wire 32 (# A_DM [31:0] $end
$var wire 1 ! CLK $end
$var wire 1 " RST $end
$var wire 32 )# WD [31:0] $end
$var wire 1 L WE $end
$var reg 32 *# RD3 [31:0] $end
$var integer 32 +# i [31:0] $end
$upscope $end
$upscope $end
$scope module WB_stage $end
$var wire 32 ,# ALUResult_W [31:0] $end
$var wire 32 -# PCPlus4_W [31:0] $end
$var wire 5 .# RDOut [4:0] $end
$var wire 5 /# RD_W [4:0] $end
$var wire 32 0# ReadData_W [31:0] $end
$var wire 1 . RegWriteOut $end
$var wire 1 * RegWrite_W $end
$var wire 1 & ResultSrc_W $end
$var wire 32 1# Result_W [31:0] $end
$scope module RMux_inst $end
$var wire 32 2# ALUResult [31:0] $end
$var wire 32 3# ReadData [31:0] $end
$var wire 1 & ResultSrc $end
$var reg 32 4# Result [31:0] $end
$upscope $end
$upscope $end
$upscope $end
$upscope $end
$enddefinitions $end
$comment Show the parameter values. $end
$dumpall
$end
#0
$dumpvars
bx 4#
bx 3#
bx 2#
bx 1#
bx 0#
bx /#
bx .#
bx -#
bx ,#
bx +#
bx *#
bx )#
bx (#
bx '#
bx &#
bx %#
bx $#
bx ##
bx "#
bx !#
bx ~"
bx }"
bx |"
bx {"
bx z"
bx y"
bx x"
bx w"
bx v"
bx u"
bx t"
bx s"
bx r"
bx q"
bx p"
bx o"
bx n"
bx m"
bx l"
bx k"
bx j"
bx i"
bx h"
bx g"
bx f"
bx e"
bx d"
bx c"
bx b"
bx a"
bx `"
bx _"
bx ^"
bx ]"
bx \"
bx ["
bx Z"
bx Y"
bx X"
bx W"
bx V"
bx U"
bx T"
bx S"
bx R"
bx Q"
bx P"
bx O"
bx N"
bx M"
bx L"
xK"
bx J"
bx I"
bx H"
bx G"
bx F"
bx E"
bx D"
bx C"
bx B"
bx A"
bx @"
bx ?"
bx >"
bx ="
bx <"
bx ;"
bx :"
bx 9"
bx 8"
bx 7"
bx 6"
bx 5"
bx 4"
bx 3"
bx 2"
bx 1"
bx 0"
bx /"
bx ."
bx -"
bx ,"
bx +"
bx *"
bx )"
bx ("
bx '"
bx &"
bx %"
bx $"
bx #"
bx ""
bx !"
bx ~
bx }
bx |
bx {
bx z
bx y
bx x
bx w
bx v
bx u
bx t
bx s
bx r
bx q
bx p
bx o
bx n
bx m
bx l
bx k
bx j
bx i
bx h
bx g
bx f
bx e
bx d
bx c
bx b
bx a
bx `
bx _
bx ^
bx ]
bx \
bx [
xZ
xY
xX
xW
xV
xU
bx T
bx S
bx R
bx Q
bx P
bx O
xN
xM
xL
bx K
bx J
bx I
bx H
bx G
bx F
xE
xD
bx C
bx B
xA
bx @
bx ?
bx >
bx =
bx <
bx ;
bx :
bx 9
bx 8
bx 7
bx 6
bx 5
bx 4
bx 3
bx 2
bx 1
bx 0
bx /
x.
x-
x,
x+
x*
x)
x(
x'
x&
bx %
bx $
bx #
0"
0!
$end
#5000
1K"
b0 ]
b0 <"
b0 Q"
b0 W"
b100 m"
b100 s"
b100 v"
b0 L"
b0 V"
b0 ]"
b0 R
b0 i
b0 #"
b0 -"
b0 ;
b0 e
b0 {
b0 6"
b0 =
b0 f
b0 |
b0 5"
b0 a
b0 k
b0 %"
b0 *"
0X
0-
b0 ""
b0 ,"
b0 0"
0Z
b0 _
b0 j
b0 $"
b0 )"
b0 /"
0N
0)
b1010000100000011 O
b1010000100000011 `"
b1010000100000011 n"
b1010000100000011 p"
b100 H
b100 _"
b100 l"
b100 r"
b100 u"
b0 +"
b0 8
b0 d
b0 z
b0 2
b0 b
b0 w
b0 2"
b0 z"
b0 4
b0 c
b0 x
b0 1"
b0 y"
b0 ("
b0 '"
b0 &"
b0 ."
b0 C
b0 :"
b0 N"
b0 Z"
0E
1A
1V
0U
b0 $
b0 9"
b0 J"
b0 S"
b0 \"
b0 R"
b0 U"
b110010 0
b110010 ~"
b110010 '#
b110010 *#
b0 %
b0 v
b0 3"
b0 M"
b0 1#
b0 4#
b0 S
b0 O"
b0 i"
b0 T
b0 P"
b0 h"
b0 >
b0 ^"
b0 k"
b0 o"
b0 t"
b0 w"
b0 K
b0 h
b0 ~
b0 b"
b0 @
b0 g
b0 }
b0 c"
b0 P
b0 !"
b0 a"
b0 7
b0 s
b0 8"
b0 x"
b0 1
b0 u
b0 f"
b0 3
b0 t
b0 e"
b0 I
b0 ;"
b0 F"
b0 J
b0 o
b0 E"
b0 ?
b0 p
b0 G"
b0 Y"
b0 Q
b0 n
b0 D"
b0 X"
b0 ["
b0 :
b0 r
b0 I"
b0 <
b0 q
b0 H"
b0 `
b0 l
b0 B"
b0 T"
b0 ^
b0 m
0W
0Y
0M
0(
0,
b0 6
b0 @"
b0 d"
b0 }"
b0 B
b0 ?"
b0 j"
b0 q"
b0 G
b0 >"
b0 |"
b0 #
b0 A"
b0 &#
b0 )#
b0 \
b0 ="
b0 C"
b0 {"
b0 %#
b0 (#
0D
0L
0'
0+
b0 9
b0 y
b0 4"
b0 .#
b0 5
b0 g"
b0 ##
b0 /#
b0 F
b0 "#
b0 -#
b0 /
b0 $#
b0 0#
b0 3#
b0 [
b0 !#
b0 ,#
b0 2#
0&
0.
0*
b100000 7"
b100000 +#
1!
#10000
0!
1"
#15000
b1000 m"
b1000 s"
b1000 v"
b1100100 =
b1100100 f
b1100100 |
b1100100 5"
1)
1Z
1-
b101000010 +"
b10 8
b10 d
b10 z
b1 4
b1 c
b1 x
b1 1"
b1 y"
b11 ("
b10 &"
b11 ."
b1000 H
b1000 _"
b1000 l"
b1000 r"
b1000 u"
b10000010000000110110011 O
b10000010000000110110011 `"
b10000010000000110110011 n"
b10000010000000110110011 p"
b110010 /
b110010 $#
b110010 0#
b110010 3#
b100 K
b100 h
b100 ~
b100 b"
b1010000100000011 P
b1010000100000011 !"
b1010000100000011 a"
b100 >
b100 ^"
b100 k"
b100 o"
b100 t"
b100 w"
1!
#20000
0!
#25000
b1100 m"
b1100 s"
b1100 v"
b100 R
b100 i
b100 #"
b100 -"
b1010 ;
b1010 e
b1010 {
b1010 6"
b0 =
b0 f
b0 |
b0 5"
0A
0V
1U
0)
0Z
b10 _
b10 j
b10 $"
b10 )"
b10 /"
0K"
b1100100 ]
b1100100 <"
b1100100 Q"
b1100100 W"
b1000000011000011000001010110011 O
b1000000011000011000001010110011 `"
b1000000011000011000001010110011 n"
b1000000011000011000001010110011 p"
b1100 H
b1100 _"
b1100 l"
b1100 r"
b1100 u"
b1000001000000011 +"
b11 8
b11 d
b11 z
b100 2
b100 b
b100 w
b100 2"
b100 z"
b10 4
b10 c
b10 x
b10 1"
b10 y"
b110011 ("
b0 &"
b110011 ."
b1100100 R"
b1100100 U"
b1000 >
b1000 ^"
b1000 k"
b1000 o"
b1000 t"
b1000 w"
b1000 K
b1000 h
b1000 ~
b1000 b"
b100 @
b100 g
b100 }
b100 c"
b10000010000000110110011 P
b10000010000000110110011 !"
b10000010000000110110011 a"
b10 7
b10 s
b10 8"
b10 x"
b1 3
b1 t
b1 e"
b100 I
b100 ;"
b100 F"
b100 J
b100 o
b100 E"
b1100100 <
b1100100 q
b1100100 H"
1Y
1(
1,
1!
#30000
0!
#35000
1K"
b0 ]
b0 <"
b0 Q"
b0 W"
b0 R"
b0 U"
1A
1V
0U
b10 6
b10 @"
b10 d"
b10 }"
b100 G
b100 >"
b100 |"
b1100100 \
b1100100 ="
b1100100 C"
b1100100 {"
b1100100 %#
b1100100 (#
1'
1+
b0 7
b0 s
b0 8"
b0 x"
b0 3
b0 t
b0 e"
b0 I
b0 ;"
b0 F"
b0 J
b0 o
b0 E"
b0 <
b0 q
b0 H"
0Y
0(
0,
1!
#40000
0!
#45000
b10000 m"
b10000 s"
b10000 v"
b1010 L"
b1010 V"
b1010 ]"
b10000000110 R
b10000000110 i
b10000000110 #"
b10000000110 -"
b101 ;
b101 e
b101 {
b101 6"
b1 a
b1 k
b1 %"
b1 *"
0K"
b111100 ]
b111100 <"
b111100 Q"
b111100 W"
b10000 H
b10000 _"
b10000 l"
b10000 r"
b10000 u"
b10000101111001110110011 O
b10000101111001110110011 `"
b10000101111001110110011 n"
b10000101111001110110011 p"
b100000001100001100000101 +"
b101 8
b101 d
b101 z
b110 2
b110 b
b110 w
b110 2"
b110 z"
b11 4
b11 c
b11 x
b11 1"
b11 y"
b100000 '"
b1000 C
b1000 :"
b1000 N"
b1000 Z"
b1010 $
b1010 9"
b1010 J"
b1010 S"
b1010 \"
b110010 R"
b110010 U"
b110010 %
b110010 v
b110010 3"
b110010 M"
b110010 1#
b110010 4#
b1 T
b1 P"
b1 h"
b1100 >
b1100 ^"
b1100 k"
b1100 o"
b1100 t"
b1100 w"
b1100 K
b1100 h
b1100 ~
b1100 b"
b1000 @
b1000 g
b1000 }
b1000 c"
b1000000011000011000001010110011 P
b1000000011000011000001010110011 !"
b1000000011000011000001010110011 a"
b11 7
b11 s
b11 8"
b11 x"
b100 1
b100 u
b100 f"
b10 3
b10 t
b10 e"
b1000 I
b1000 ;"
b1000 F"
b1000 J
b1000 o
b1000 E"
b100 ?
b100 p
b100 G"
b100 Y"
b100 Q
b100 n
b100 D"
b100 X"
b100 ["
b1010 :
b1010 r
b1010 I"
b10 ^
b10 m
1,
b0 6
b0 @"
b0 d"
b0 }"
b0 G
b0 >"
b0 |"
b0 \
b0 ="
b0 C"
b0 {"
b0 %#
b0 (#
0'
0+
b10 9
b10 y
b10 4"
b10 .#
b10 5
b10 g"
b10 ##
b10 /#
b100 F
b100 "#
b100 -#
b1100100 [
b1100100 !#
b1100100 ,#
b1100100 2#
1&
1.
1*
1!
#50000
0!
#55000
b10100 m"
b10100 s"
b10100 v"
b101 L"
b101 V"
b101 ]"
b111100 R"
b111100 U"
b100 R
b100 i
b100 #"
b100 -"
b10 a
b10 k
b10 %"
b10 *"
b0 %
b0 v
b0 3"
b0 M"
b0 1#
b0 4#
b10 T
b10 P"
b10 h"
b10000001110 C
b10000001110 :"
b10000001110 N"
b10000001110 Z"
b101 $
b101 9"
b101 J"
b101 S"
b101 \"
b110111 ]
b110111 <"
b110111 Q"
b110111 W"
b1010 ;
b1010 e
b1010 {
b1010 6"
b10100 =
b10100 f
b10100 |
b10100 5"
b1000010111100111 +"
b111 8
b111 d
b111 z
b100 2
b100 b
b100 w
b100 2"
b100 z"
b101 4
b101 c
b101 x
b101 1"
b101 y"
b0 '"
b111 &"
b10100 H
b10100 _"
b10100 l"
b10100 r"
b10100 u"
b0 9
b0 y
b0 4"
b0 .#
b0 5
b0 g"
b0 ##
b0 /#
b0 F
b0 "#
b0 -#
b0 [
b0 !#
b0 ,#
b0 2#
0&
0.
0*
b11 6
b11 @"
b11 d"
b11 }"
b1000 B
b1000 ?"
b1000 j"
b1000 q"
b1000 G
b1000 >"
b1000 |"
b1010 #
b1010 A"
b1010 &#
b1010 )#
b111100 \
b111100 ="
b111100 C"
b111100 {"
b111100 %#
b111100 (#
1+
b101 7
b101 s
b101 8"
b101 x"
b110 1
b110 u
b110 f"
b11 3
b11 t
b11 e"
b1100 I
b1100 ;"
b1100 F"
b1100 J
b1100 o
b1100 E"
b1000 ?
b1000 p
b1000 G"
b1000 Y"
b10000000110 Q
b10000000110 n
b10000000110 D"
b10000000110 X"
b10000000110 ["
b101 :
b101 r
b101 I"
b1 `
b1 l
b1 B"
b1 T"
b10000 K
b10000 h
b10000 ~
b10000 b"
b1100 @
b1100 g
b1100 }
b1100 c"
b10000101111001110110011 P
b10000101111001110110011 !"
b10000101111001110110011 a"
b10000 >
b10000 ^"
b10000 k"
b10000 o"
b10000 t"
b10000 w"
1!
#60000
0!
#65000
b11000 m"
b11000 s"
b11000 v"
b1010 L"
b1010 V"
b1010 ]"
b11000 H
b11000 _"
b11000 l"
b11000 r"
b11000 u"
b10000 C
b10000 :"
b10000 N"
b10000 Z"
b10 ]
b10 <"
b10 Q"
b10 W"
b1010 $
b1010 9"
b1010 J"
b1010 S"
b1010 \"
b110111 R"
b110111 U"
b111100 %
b111100 v
b111100 3"
b111100 M"
b111100 1#
b111100 4#
b10 T
b10 P"
b10 h"
b10100 >
b10100 ^"
b10100 k"
b10100 o"
b10100 t"
b10100 w"
b10100 K
b10100 h
b10100 ~
b10100 b"
b10000 @
b10000 g
b10000 }
b10000 c"
b111 7
b111 s
b111 8"
b111 x"
b100 1
b100 u
b100 f"
b101 3
b101 t
b101 e"
b10000 I
b10000 ;"
b10000 F"
b10000 J
b10000 o
b10000 E"
b1100 ?
b1100 p
b1100 G"
b1100 Y"
b100 Q
b100 n
b100 D"
b100 X"
b100 ["
b1010 :
b1010 r
b1010 I"
b10100 <
b10100 q
b10100 H"
b10 `
b10 l
b10 B"
b10 T"
b101 6
b101 @"
b101 d"
b101 }"
b10000001110 B
b10000001110 ?"
b10000001110 j"
b10000001110 q"
b1100 G
b1100 >"
b1100 |"
b101 #
b101 A"
b101 &#
b101 )#
b110111 \
b110111 ="
b110111 C"
b110111 {"
b110111 %#
b110111 (#
b11 9
b11 y
b11 4"
b11 .#
b11 5
b11 g"
b11 ##
b11 /#
b1000 F
b1000 "#
b1000 -#
b111100 [
b111100 !#
b111100 ,#
b111100 2#
1.
1*
1!
#70000
0!
#75000
b11100 m"
b11100 s"
b11100 v"
b110111 %
b110111 v
b110111 3"
b110111 M"
b110111 1#
b110111 4#
b1 T
b1 P"
b1 h"
b110111 R"
b110111 U"
b10100 C
b10100 :"
b10100 N"
b10100 Z"
b11100 H
b11100 _"
b11100 l"
b11100 r"
b11100 u"
b101 9
b101 y
b101 4"
b101 .#
b101 5
b101 g"
b101 ##
b101 /#
b1100 F
b1100 "#
b1100 -#
b110111 [
b110111 !#
b110111 ,#
b110111 2#
b111 6
b111 @"
b111 d"
b111 }"
b10000 B
b10000 ?"
b10000 j"
b10000 q"
b10000 G
b10000 >"
b10000 |"
b1010 #
b1010 A"
b1010 &#
b1010 )#
b10 \
b10 ="
b10 C"
b10 {"
b10 %#
b10 (#
b10100 I
b10100 ;"
b10100 F"
b10100 J
b10100 o
b10100 E"
b10000 ?
b10000 p
b10000 G"
b10000 Y"
b11000 K
b11000 h
b11000 ~
b11000 b"
b10100 @
b10100 g
b10100 }
b10100 c"
b11000 >
b11000 ^"
b11000 k"
b11000 o"
b11000 t"
b11000 w"
1!
#80000
0!
#85000
b100000 m"
b100000 s"
b100000 v"
1K"
b0 ]
b0 <"
b0 Q"
b0 W"
b10100 R"
b10100 U"
b100000 H
b100000 _"
b100000 l"
b100000 r"
b100000 u"
b110111 =
b110111 f
b110111 |
b110111 5"
b11000 C
b11000 :"
b11000 N"
b11000 Z"
b0 T
b0 P"
b0 h"
b10 %
b10 v
b10 3"
b10 M"
b10 1#
b10 4#
b11100 >
b11100 ^"
b11100 k"
b11100 o"
b11100 t"
b11100 w"
b11100 K
b11100 h
b11100 ~
b11100 b"
b11000 @
b11000 g
b11000 }
b11000 c"
b11000 I
b11000 ;"
b11000 F"
b11000 J
b11000 o
b11000 E"
b10100 ?
b10100 p
b10100 G"
b10100 Y"
b10100 B
b10100 ?"
b10100 j"
b10100 q"
b10100 G
b10100 >"
b10100 |"
b111 9
b111 y
b111 4"
b111 .#
b111 5
b111 g"
b111 ##
b111 /#
b10000 F
b10000 "#
b10000 -#
b10 [
b10 !#
b10 ,#
b10 2#
1!
#90000
0!
#95000
b100100 m"
b100100 s"
b100100 v"
0K"
b10 ]
b10 <"
b10 Q"
b10 W"
b11100 C
b11100 :"
b11100 N"
b11100 Z"
b110111 R"
b110111 U"
b100100 H
b100100 _"
b100100 l"
b100100 r"
b100100 u"
b10100 F
b10100 "#
b10100 -#
b11000 B
b11000 ?"
b11000 j"
b11000 q"
b11000 G
b11000 >"
b11000 |"
b0 \
b0 ="
b0 C"
b0 {"
b0 %#
b0 (#
b11100 I
b11100 ;"
b11100 F"
b11100 J
b11100 o
b11100 E"
b11000 ?
b11000 p
b11000 G"
b11000 Y"
b110111 <
b110111 q
b110111 H"
b100000 K
b100000 h
b100000 ~
b100000 b"
b11100 @
b11100 g
b11100 }
b11100 c"
b100000 >
b100000 ^"
b100000 k"
b100000 o"
b100000 t"
b100000 w"
1!
#100000
0!
#105000
b101000 m"
b101000 s"
b101000 v"
b101000 H
b101000 _"
b101000 l"
b101000 r"
b101000 u"
b100000 C
b100000 :"
b100000 N"
b100000 Z"
b0 %
b0 v
b0 3"
b0 M"
b0 1#
b0 4#
b100100 >
b100100 ^"
b100100 k"
b100100 o"
b100100 t"
b100100 w"
b100100 K
b100100 h
b100100 ~
b100100 b"
b100000 @
b100000 g
b100000 }
b100000 c"
b100000 I
b100000 ;"
b100000 F"
b100000 J
b100000 o
b100000 E"
b11100 ?
b11100 p
b11100 G"
b11100 Y"
b11100 B
b11100 ?"
b11100 j"
b11100 q"
b11100 G
b11100 >"
b11100 |"
b10 \
b10 ="
b10 C"
b10 {"
b10 %#
b10 (#
b11000 F
b11000 "#
b11000 -#
b0 [
b0 !#
b0 ,#
b0 2#
1!
