Single Cycle (More Instructions)/verification/waveform.vcd
$date
	Sat Jun 27 20:27:40 2026
$end
$version
	Icarus Verilog
$end
$timescale
	1ps
$end
$scope module TopModule_tb $end
$scope module uut $end
$var wire 1 ! CLK $end
$var wire 1 " RST $end
$var wire 1 # Zero $end
$var wire 32 $ WD3 [31:0] $end
$var wire 32 % SrcB [31:0] $end
$var wire 2 & ResultSrc [1:0] $end
$var wire 1 ' RegWrite $end
$var wire 32 ( RD3 [31:0] $end
$var wire 32 ) RD2 [31:0] $end
$var wire 32 * RD1 [31:0] $end
$var wire 32 + RD [31:0] $end
$var wire 32 , PCTarget [31:0] $end
$var wire 2 - PCSrc [1:0] $end
$var wire 32 . PCPlus4 [31:0] $end
$var wire 32 / PCNext [31:0] $end
$var wire 32 0 PC [31:0] $end
$var wire 1 1 Negative $end
$var wire 1 2 MemWrite $end
$var wire 2 3 ImmSrc [1:0] $end
$var wire 32 4 ImmExt [31:0] $end
$var wire 3 5 Cond_Src [2:0] $end
$var wire 1 6 Branch $end
$var wire 1 7 ALUSrc $end
$var wire 32 8 ALUResult [31:0] $end
$var wire 2 9 ALUOp [1:0] $end
$var wire 3 : ALUControl [2:0] $end
$scope module ALU1 $end
$var wire 32 ; SrcB [31:0] $end
$var wire 32 < SrcA [31:0] $end
$var wire 3 = ALUControl [2:0] $end
$var reg 32 > ALUResult [31:0] $end
$var reg 1 1 Negative $end
$var reg 1 # Zero $end
$upscope $end
$scope module ALUDecoder1 $end
$var wire 3 ? funct3 [2:0] $end
$var wire 7 @ funct7 [6:0] $end
$var wire 7 A opcode [6:0] $end
$var wire 2 B ALUOp [1:0] $end
$var reg 3 C ALUControl [2:0] $end
$upscope $end
$scope module BranchDecoder1 $end
$var wire 3 D funct3 [2:0] $end
$var wire 7 E op [6:0] $end
$var reg 3 F Cond_Src [2:0] $end
$upscope $end
$scope module BranchJump1 $end
$var wire 3 G Cond_Src [2:0] $end
$var wire 1 1 Negative $end
$var wire 1 # Zero $end
$var wire 1 6 Branch $end
$var reg 2 H PCSrc [1:0] $end
$upscope $end
$scope module DataMemory1 $end
$var wire 32 I A_DM [31:0] $end
$var wire 1 ! CLK $end
$var wire 1 " RST $end
$var wire 1 2 WE $end
$var wire 32 J WD [31:0] $end
$var reg 32 K RD3 [31:0] $end
$var integer 32 L i [31:0] $end
$upscope $end
$scope module Extend1 $end
$var wire 25 M Imm [24:0] $end
$var wire 2 N ImmSrc [1:0] $end
$var reg 32 O ImmExt [31:0] $end
$upscope $end
$scope module InstructionMemory1 $end
$var wire 32 P A [31:0] $end
$var reg 32 Q RD [31:0] $end
$upscope $end
$scope module MainDecoder1 $end
$var wire 7 R op [6:0] $end
$var reg 2 S ALUOp [1:0] $end
$var reg 1 7 ALUSrc $end
$var reg 1 6 Branch $end
$var reg 2 T ImmSrc [1:0] $end
$var reg 1 2 MemWrite $end
$var reg 1 ' RegWrite $end
$var reg 2 U ResultSrc [1:0] $end
$upscope $end
$scope module PC1 $end
$var wire 1 ! CLK $end
$var wire 1 " RST $end
$var wire 32 V PCNext [31:0] $end
$var reg 32 W PC [31:0] $end
$upscope $end
$scope module PCMux1 $end
$var wire 32 X ALUResult [31:0] $end
$var wire 2 Y PCSrc [1:0] $end
$var wire 32 Z PCTarget [31:0] $end
$var wire 32 [ PCPlus4 [31:0] $end
$var reg 32 \ PCNext [31:0] $end
$upscope $end
$scope module PCPlus41 $end
$var wire 32 ] PC [31:0] $end
$var reg 32 ^ PCPlus4 [31:0] $end
$upscope $end
$scope module PCPlusImm1 $end
$var wire 32 _ ImmExt [31:0] $end
$var wire 32 ` PC [31:0] $end
$var reg 32 a PCTarget [31:0] $end
$upscope $end
$scope module RegisterFile1 $end
$var wire 5 b A1 [4:0] $end
$var wire 5 c A2 [4:0] $end
$var wire 5 d A3 [4:0] $end
$var wire 1 ! CLK $end
$var wire 1 " RST $end
$var wire 1 ' WE3 $end
$var wire 32 e WD3 [31:0] $end
$var reg 32 f RD1 [31:0] $end
$var reg 32 g RD2 [31:0] $end
$var integer 32 h i [31:0] $end
$upscope $end
$scope module ResultMux1 $end
$var wire 32 i ALUResult [31:0] $end
$var wire 32 j PCPlus4 [31:0] $end
$var wire 32 k ReadData [31:0] $end
$var wire 2 l ResultSrc [1:0] $end
$var reg 32 m Result [31:0] $end
$upscope $end
$scope module SrcBMux1 $end
$var wire 1 7 ALUSrc $end
$var wire 32 n ImmExt [31:0] $end
$var wire 32 o RD2 [31:0] $end
$var reg 32 p SrcB [31:0] $end
$upscope $end
$upscope $end
$upscope $end
$enddefinitions $end
$comment Show the parameter values. $end
$dumpall
$end
#0
$dumpvars
bx p
bx o
bx n
bx m
bx l
bx k
bx j
bx i
bx h
bx g
bx f
bx e
bx d
bx c
bx b
bx a
bx `
bx _
bx ^
bx ]
bx \
bx [
bx Z
bx Y
bx X
bx W
bx V
bx U
bx T
bx S
bx R
bx Q
bx P
bx O
bx N
bx M
bx L
bx K
bx J
bx I
bx H
bx G
bx F
bx E
bx D
bx C
bx B
bx A
bx @
bx ?
bx >
bx =
bx <
bx ;
bx :
bx 9
bx 8
x7
x6
bx 5
bx 4
bx 3
x2
x1
bx 0
bx /
bx .
bx -
bx ,
bx +
bx *
bx )
bx (
x'
bx &
bx %
bx $
x#
0"
0!
$end
#5000
b1010 (
b1010 K
b1010 k
b101 $
b101 e
b101 m
01
0#
b101 8
b101 >
b101 I
b101 X
b101 i
b101 %
b101 ;
b101 p
b100 /
b100 V
b100 \
b101 ,
b101 Z
b101 a
b0 -
b0 H
b0 Y
b0 )
b0 J
b0 g
b0 o
b0 *
b0 <
b0 f
b0 3
b0 N
b0 T
b0 &
b0 U
b0 l
17
06
b10 9
b10 B
b10 S
02
1'
b101 4
b101 O
b101 _
b101 n
b0 5
b0 F
b0 G
b0 :
b0 =
b0 C
b1 d
b101 c
b0 b
b10011 R
b1010000000000001 M
b10011 E
b0 D
b0 @
b0 ?
b10011 A
b100 .
b100 [
b100 ^
b100 j
b10100000000000010010011 +
b10100000000000010010011 Q
b0 0
b0 P
b0 W
b0 ]
b0 `
b100000 L
b100000 h
1!
#10000
0!
1"
#15000
b1010 $
b1010 e
b1010 m
b1010 8
b1010 >
b1010 I
b1010 X
b1010 i
b1010 %
b1010 ;
b1010 p
b1000 /
b1000 V
b1000 \
b1010 4
b1010 O
b1010 _
b1010 n
b10 d
b1010 c
b10100000000000010 M
b101000000000000100010011 +
b101000000000000100010011 Q
b1000 .
b1000 [
b1000 ^
b1000 j
b1110 ,
b1110 Z
b1110 a
b100 0
b100 P
b100 W
b100 ]
b100 `
1!
#20000
0!
#25000
b10000 /
b10000 V
b10000 \
b1 -
b1 H
b1 Y
11
b11111111111111111111111111111011 $
b11111111111111111111111111111011 e
b11111111111111111111111111111011 m
b11111111111111111111111111111011 8
b11111111111111111111111111111011 >
b11111111111111111111111111111011 I
b11111111111111111111111111111011 X
b11111111111111111111111111111011 i
b1010 )
b1010 J
b1010 g
b1010 o
b101 *
b101 <
b101 f
bx &
bx U
bx l
16
b1 9
b1 B
b1 S
07
b10 3
b10 N
b10 T
0'
b1000 4
b1000 O
b1000 _
b1000 n
b1 5
b1 F
b1 G
b1 :
b1 =
b1 C
b1000 d
b10 c
b1 b
b1100011 R
b100000110001000 M
b1100011 E
b100 D
b100 ?
b1100011 A
b1100 .
b1100 [
b1100 ^
b1100 j
b1000001100010001100011 +
b1000001100010001100011 Q
b10000 ,
b10000 Z
b10000 a
b1000 0
b1000 P
b1000 W
b1000 ]
b1000 `
1!
#30000
0!
#35000
b101 %
b101 ;
b101 p
b11000 /
b11000 V
b11000 \
b101 $
b101 e
b101 m
01
0#
b101 8
b101 >
b101 I
b101 X
b101 i
b1 -
b1 H
b1 Y
b101 )
b101 J
b101 g
b101 o
b1010 *
b1010 <
b1010 f
b10 5
b10 F
b10 G
b1 c
b10 b
b10001010101000 M
b101 D
b101 ?
b100010101010001100011 +
b100010101010001100011 Q
b10100 .
b10100 [
b10100 ^
b10100 j
b11000 ,
b11000 Z
b11000 a
b10000 0
b10000 P
b10000 W
b10000 ]
b10000 `
1!
#40000
0!
#45000
b100000 /
b100000 V
b100000 \
b0 $
b0 e
b0 m
1#
b0 8
b0 >
b0 I
b0 X
b0 i
b1 -
b1 H
b1 Y
b101 *
b101 <
b101 f
b0 5
b0 F
b0 G
b1 b
b10000100001000 M
b0 D
b0 ?
b11100 .
b11100 [
b11100 ^
b11100 j
b100001000010001100011 +
b100001000010001100011 Q
b100000 ,
b100000 Z
b100000 a
b11000 0
b11000 P
b11000 W
b11000 ]
b11000 `
1!
#50000
0!
#55000
b0 %
b0 ;
b0 p
b101000 /
b101000 V
b101000 \
1#
b0 8
b0 >
b0 I
b0 X
b0 i
b100100 $
b100100 e
b100100 m
b0 :
b0 =
b0 C
b0 )
b0 J
b0 g
b0 o
b0 *
b0 <
b0 f
b11 3
b11 N
b11 T
b10 &
b10 U
b10 l
x7
06
b11 9
b11 B
b11 S
1'
b1000 4
b1000 O
b1000 _
b1000 n
b11 5
b11 F
b11 G
b110 d
b1000 c
b0 b
b1101111 R
b10000000000000110 M
b1101111 E
b1101111 A
b100000000000001101101111 +
b100000000000001101101111 Q
b100100 .
b100100 [
b100100 ^
b100100 j
b101000 ,
b101000 Z
b101000 a
b100000 0
b100000 P
b100000 W
b100000 ]
b100000 `
1!
#60000
0!
#65000
0#
b110000 8
b110000 >
b110000 I
b110000 X
b110000 i
b110000 %
b110000 ;
b110000 p
b101100 /
b101100 V
b101100 \
b0 -
b0 H
b0 Y
b0 3
b0 N
b0 T
b0 &
b0 U
b0 l
17
b10 9
b10 B
b10 S
b110000 4
b110000 O
b110000 _
b110000 n
b0 5
b0 F
b0 G
b110000 $
b110000 e
b110000 m
b1000 d
b10000 c
b10011 R
b1100000000000001000 M
b10011 E
b1 @
b10011 A
b101100 .
b101100 [
b101100 ^
b101100 j
b11000000000000010000010011 +
b11000000000000010000010011 Q
b1011000 ,
b1011000 Z
b1011000 a
b101000 0
b101000 P
b101000 W
b101000 ]
b101000 `
1!
#70000
0!
#75000
b0 %
b0 ;
b0 p
b110000 /
b110000 V
b110000 \
b110000 8
b110000 >
b110000 I
b110000 X
b110000 i
b10 -
b10 H
b10 Y
b110000 *
b110000 <
b110000 f
b10 &
b10 U
b10 l
b11 9
b11 B
b11 S
b0 4
b0 O
b0 _
b0 n
b100 5
b100 F
b100 G
b1001 d
b0 c
b1000 b
b1100111 R
b100000001001 M
b1100111 E
b0 @
b1100111 A
b1000000010011100111 +
b1000000010011100111 Q
b110000 .
b110000 [
b110000 ^
b110000 j
b101100 ,
b101100 Z
b101100 a
b101100 0
b101100 P
b101100 W
b101100 ]
b101100 `
1!
#80000
0!
#85000
b110100 /
b110100 V
b110100 \
b1111011 %
b1111011 ;
b1111011 p
0#
b1111011 8
b1111011 >
b1111011 I
b1111011 X
b1111011 i
b0 -
b0 H
b0 Y
b0 *
b0 <
b0 f
b0 &
b0 U
b0 l
b10 9
b10 B
b10 S
b1111011 4
b1111011 O
b1111011 _
b1111011 n
b0 5
b0 F
b0 G
b1111011 $
b1111011 e
b1111011 m
b1010 d
b11011 c
b0 b
b10011 R
b11110110000000001010 M
b10011 E
b11 @
b10011 A
b110100 .
b110100 [
b110100 ^
b110100 j
b111101100000000010100010011 +
b111101100000000010100010011 Q
b10101011 ,
b10101011 Z
b10101011 a
b110000 0
b110000 P
b110000 W
b110000 ]
b110000 `
1!
#90000
0!
#95000
b0 $
b0 e
b0 m
1#
b0 8
b0 >
b0 I
b0 X
b0 i
b0 %
b0 ;
b0 p
b111000 /
b111000 V
b111000 \
b0 4
b0 O
b0 _
b0 n
b0 d
b0 c
b0 M
b0 @
b10011 +
b10011 Q
b111000 .
b111000 [
b111000 ^
b111000 j
b110100 ,
b110100 Z
b110100 a
b110100 0
b110100 P
b110100 W
b110100 ]
b110100 `
1!
#100000
0!
#105000
b111100 /
b111100 V
b111100 \
b111100 .
b111100 [
b111100 ^
b111100 j
b111000 ,
b111000 Z
b111000 a
b111000 0
b111000 P
b111000 W
b111000 ]
b111000 `
1!
#110000
0!
#115000
b1000000 /
b1000000 V
b1000000 \
b1000000 .
b1000000 [
b1000000 ^
b1000000 j
b111100 ,
b111100 Z
b111100 a
b111100 0
b111100 P
b111100 W
b111100 ]
b111100 `
1!
#120000
0!
#125000
b1000100 /
b1000100 V
b1000100 \
b1000100 .
b1000100 [
b1000100 ^
b1000100 j
b1000000 ,
b1000000 Z
b1000000 a
b1000000 0
b1000000 P
b1000000 W
b1000000 ]
b1000000 `
1!
#130000
0!
#135000
b1001000 /
b1001000 V
b1001000 \
b1001000 .
b1001000 [
b1001000 ^
b1001000 j
b1000100 ,
b1000100 Z
b1000100 a
b1000100 0
b1000100 P
b1000100 W
b1000100 ]
b1000100 `
1!
#140000
0!
#145000
b1001100 /
b1001100 V
b1001100 \
b1001100 .
b1001100 [
b1001100 ^
b1001100 j
b1001000 ,
b1001000 Z
b1001000 a
b1001000 0
b1001000 P
b1001000 W
b1001000 ]
b1001000 `
1!
#150000
0!
#155000
b1010000 /
b1010000 V
b1010000 \
b1010000 .
b1010000 [
b1010000 ^
b1010000 j
b1001100 ,
b1001100 Z
b1001100 a
b1001100 0
b1001100 P
b1001100 W
b1001100 ]
b1001100 `
1!
