Single Cycle (More Instructions)/verification/waveform.vcd
$date
	Thu Oct 23 21:33:22 2025
$end
$version
	Icarus Verilog
$end
$timescale
	1ps
$end
$scope module TopModule_tb $end
$scope module uut $end
$var wire 1 ! CLK $end
$var wire 1 " RST $end
$var wire 1 # Zero $end
$var wire 32 $ WD3 [31:0] $end
$var wire 32 % SrcB [31:0] $end
$var wire 2 & ResultSrc [1:0] $end
$var wire 1 ' RegWrite $end
$var wire 32 ( RD3 [31:0] $end
$var wire 32 ) RD2 [31:0] $end
$var wire 32 * RD1 [31:0] $end
$var wire 32 + RD [31:0] $end
$var wire 32 , PCTarget [31:0] $end
$var wire 1 - PCSrc $end
$var wire 32 . PCPlus4 [31:0] $end
$var wire 32 / PCNext [31:0] $end
$var wire 32 0 PC [31:0] $end
$var wire 1 1 Negative $end
$var wire 1 2 MemWrite $end
$var wire 2 3 ImmSrc [1:0] $end
$var wire 32 4 ImmExt [31:0] $end
$var wire 2 5 Cond_Src [1:0] $end
$var wire 1 6 Branch $end
$var wire 1 7 ALUSrc $end
$var wire 32 8 ALUResult [31:0] $end
$var wire 2 9 ALUOp [1:0] $end
$var wire 3 : ALUControl [2:0] $end
$scope module ALU1 $end
$var wire 32 ; SrcB [31:0] $end
$var wire 32 < SrcA [31:0] $end
$var wire 3 = ALUControl [2:0] $end
$var reg 32 > ALUResult [31:0] $end
$var reg 1 1 Negative $end
$var reg 1 # Zero $end
$upscope $end
$scope module ALUDecoder1 $end
$var wire 3 ? funct3 [2:0] $end
$var wire 7 @ funct7 [6:0] $end
$var wire 7 A op [6:0] $end
$var wire 2 B ALUOp [1:0] $end
$var reg 3 C ALUControl [2:0] $end
$upscope $end
$scope module BranchDecoder1 $end
$var wire 3 D funct3 [2:0] $end
$var wire 7 E op [6:0] $end
$var reg 2 F Cond_Src [1:0] $end
$upscope $end
$scope module BranchJump1 $end
$var wire 2 G Cond_Src [1:0] $end
$var wire 1 1 Negative $end
$var wire 1 # Zero $end
$var wire 1 6 Branch $end
$var reg 1 - PCSrc $end
$upscope $end
$scope module DataMemory1 $end
$var wire 32 H A_DM [31:0] $end
$var wire 1 ! CLK $end
$var wire 1 " RST $end
$var wire 1 2 WE $end
$var wire 32 I WD [31:0] $end
$var reg 32 J RD3 [31:0] $end
$var integer 32 K i [31:0] $end
$upscope $end
$scope module Extend1 $end
$var wire 25 L Imm [24:0] $end
$var wire 2 M ImmSrc [1:0] $end
$var reg 32 N ImmExt [31:0] $end
$upscope $end
$scope module InstructionMemory1 $end
$var wire 32 O A [31:0] $end
$var reg 32 P RD [31:0] $end
$upscope $end
$scope module MainDecoder1 $end
$var wire 7 Q op [6:0] $end
$var reg 2 R ALUOp [1:0] $end
$var reg 1 7 ALUSrc $end
$var reg 1 6 Branch $end
$var reg 2 S ImmSrc [1:0] $end
$var reg 1 2 MemWrite $end
$var reg 1 ' RegWrite $end
$var reg 2 T ResultSrc [1:0] $end
$upscope $end
$scope module PC1 $end
$var wire 1 ! CLK $end
$var wire 1 " RST $end
$var wire 32 U PCNext [31:0] $end
$var reg 32 V PC [31:0] $end
$upscope $end
$scope module PCMux1 $end
$var wire 1 - PCSrc $end
$var wire 32 W PCTarget [31:0] $end
$var wire 32 X PCPlus4 [31:0] $end
$var reg 32 Y PCNext [31:0] $end
$upscope $end
$scope module PCPlus41 $end
$var wire 32 Z PC [31:0] $end
$var reg 32 [ PCPlus4 [31:0] $end
$upscope $end
$scope module PCPlusImm1 $end
$var wire 32 \ ImmExt [31:0] $end
$var wire 32 ] PC [31:0] $end
$var reg 32 ^ PCTarget [31:0] $end
$upscope $end
$scope module RegisterFile1 $end
$var wire 5 _ A1 [4:0] $end
$var wire 5 ` A2 [4:0] $end
$var wire 5 a A3 [4:0] $end
$var wire 1 ! CLK $end
$var wire 1 " RST $end
$var wire 1 ' WE3 $end
$var wire 32 b WD3 [31:0] $end
$var reg 32 c RD1 [31:0] $end
$var reg 32 d RD2 [31:0] $end
$var integer 32 e i [31:0] $end
$upscope $end
$scope module ResultMux1 $end
$var wire 32 f ALUResult [31:0] $end
$var wire 32 g PCPlus4 [31:0] $end
$var wire 32 h ReadData [31:0] $end
$var wire 2 i ResultSrc [1:0] $end
$var reg 32 j Result [31:0] $end
$upscope $end
$scope module SrcBMux1 $end
$var wire 1 7 ALUSrc $end
$var wire 32 k ImmExt [31:0] $end
$var wire 32 l RD2 [31:0] $end
$var reg 32 m SrcB [31:0] $end
$upscope $end
$upscope $end
$upscope $end
$enddefinitions $end
$comment Show the parameter values. $end
$dumpall
$end
#0
$dumpvars
bx m
bx l
bx k
bx j
bx i
bx h
bx g
bx f
bx e
bx d
bx c
bx b
bx a
bx `
bx _
bx ^
bx ]
bx \
bx [
bx Z
bx Y
bx X
bx W
bx V
bx U
bx T
bx S
bx R
bx Q
bx P
bx O
bx N
bx M
bx L
bx K
bx J
bx I
bx H
bx G
bx F
bx E
bx D
bx C
bx B
bx A
bx @
bx ?
bx >
bx =
bx <
bx ;
bx :
bx 9
bx 8
x7
x6
bx 5
bx 4
bx 3
x2
x1
bx 0
bx /
bx .
x-
bx ,
bx +
bx *
bx )
bx (
x'
bx &
bx %
bx $
x#
0"
0!
$end
#5000
b1010 (
b1010 J
b1010 h
b101 $
b101 b
b101 j
01
0#
b101 8
b101 >
b101 H
b101 f
b101 %
b101 ;
b101 m
b100 /
b100 U
b100 Y
b101 ,
b101 W
b101 ^
b101 4
b101 N
b101 \
b101 k
0-
b0 )
b0 I
b0 d
b0 l
b0 *
b0 <
b0 c
b0 3
b0 M
b0 S
b0 &
b0 T
b0 i
17
06
b10 9
b10 B
b10 R
02
1'
b0 5
b0 F
b0 G
b0 :
b0 =
b0 C
b10 a
b101 `
b0 _
b10011 Q
b1010000000000010 L
b10011 E
b0 D
b10011 A
b0 @
b0 ?
b100 .
b100 X
b100 [
b100 g
b10100000000000100010011 +
b10100000000000100010011 P
b0 0
b0 O
b0 V
b0 Z
b0 ]
b100000 K
b100000 e
1!
#10000
0!
1"
#15000
b1010 $
b1010 b
b1010 j
b1010 8
b1010 >
b1010 H
b1010 f
b1010 %
b1010 ;
b1010 m
b1000 /
b1000 U
b1000 Y
b1010 4
b1010 N
b1010 \
b1010 k
b11 a
b1010 `
b10100000000000011 L
b101000000000000110010011 +
b101000000000000110010011 P
b1000 .
b1000 X
b1000 [
b1000 g
b1110 ,
b1110 W
b1110 ^
b100 0
b100 O
b100 V
b100 Z
b100 ]
1!
#20000
0!
#25000
b1100 /
b1100 U
b1100 Y
b1111 $
b1111 b
b1111 j
b1111 8
b1111 >
b1111 H
b1111 f
b1010 )
b1010 I
b1010 d
b1010 l
b101 *
b101 <
b101 c
bx 3
bx M
bx S
07
bx 4
bx N
bx \
bx k
b100 a
b11 `
b10 _
b110011 Q
b110001000000100 L
b110011 E
b110011 A
b1100 .
b1100 X
b1100 [
b1100 g
b1100010000001000110011 +
b1100010000001000110011 P
bx ,
bx W
bx ^
b1000 0
b1000 O
b1000 V
b1000 Z
b1000 ]
1!
#30000
0!
#35000
b11000 /
b11000 U
b11000 Y
b11000 ,
b11000 W
b11000 ^
b11111111111111111111111111111011 $
b11111111111111111111111111111011 b
b11111111111111111111111111111011 j
b1100 4
b1100 N
b1100 \
b1100 k
1-
11
b11111111111111111111111111111011 8
b11111111111111111111111111111011 >
b11111111111111111111111111111011 H
b11111111111111111111111111111011 f
bx &
bx T
bx i
16
b1 9
b1 B
b1 R
b10 3
b10 M
b10 S
0'
b1 5
b1 F
b1 G
b1 :
b1 =
b1 C
b1100 a
b1100011 Q
b110001010001100 L
b1100011 E
b100 D
b1100011 A
b100 ?
b1100010100011001100011 +
b1100010100011001100011 P
b10000 .
b10000 X
b10000 [
b10000 g
b1100 0
b1100 O
b1100 V
b1100 Z
b1100 ]
1!
#40000
0!
#45000
b10 %
b10 ;
b10 m
b11100 /
b11100 U
b11100 Y
b10001 $
b10001 b
b10001 j
0-
01
b10001 8
b10001 >
b10001 H
b10001 f
b101 )
b101 I
b101 d
b101 l
b1111 *
b1111 <
b1111 c
b0 3
b0 M
b0 S
b0 &
b0 T
b0 i
17
06
b10 9
b10 B
b10 R
1'
b10 4
b10 N
b10 \
b10 k
b0 5
b0 F
b0 G
b0 :
b0 =
b0 C
b110 a
b10 `
b100 _
b10011 Q
b100010000000110 L
b10011 E
b0 D
b10011 A
b0 ?
b11100 .
b11100 X
b11100 [
b11100 g
b1000100000001100010011 +
b1000100000001100010011 P
b11010 ,
b11010 W
b11010 ^
b11000 0
b11000 O
b11000 V
b11000 Z
b11000 ]
1!
#50000
0!
#55000
b0 %
b0 ;
b0 m
b101000 /
b101000 U
b101000 Y
bx (
bx J
bx h
b100000 $
b100000 b
b100000 j
1-
x1
x#
bx 8
bx >
bx H
bx f
b0 )
b0 I
b0 d
b0 l
b0 *
b0 <
b0 c
b11 3
b11 M
b11 S
b10 &
b10 T
b10 i
x7
b11 9
b11 B
b11 R
b1100 4
b1100 N
b1100 \
b1100 k
b11 5
b11 F
b11 G
bx :
bx =
bx C
b1001 a
b1100 `
b0 _
b1101111 Q
b11000000000001001 L
b1101111 E
b1101111 A
b110000000000010011101111 +
b110000000000010011101111 P
b100000 .
b100000 X
b100000 [
b100000 g
b101000 ,
b101000 W
b101000 ^
b11100 0
b11100 O
b11100 V
b11100 Z
b11100 ]
1!
#60000
0!
#65000
b10 %
b10 ;
b10 m
b101100 /
b101100 U
b101100 Y
b1010 (
b1010 J
b1010 h
0-
01
0#
b100010 8
b100010 >
b100010 H
b100010 f
b101 )
b101 I
b101 d
b101 l
b100000 *
b100000 <
b100000 c
b0 3
b0 M
b0 S
b0 &
b0 T
b0 i
17
b10 9
b10 B
b10 R
b10 4
b10 N
b10 \
b10 k
b0 5
b0 F
b0 G
b0 :
b0 =
b0 C
b100010 $
b100010 b
b100010 j
b1011 a
b10 `
b1001 _
b10011 Q
b100100100001011 L
b10011 E
b10011 A
b101100 .
b101100 X
b101100 [
b101100 g
b1001001000010110010011 +
b1001001000010110010011 P
b101010 ,
b101010 W
b101010 ^
b101000 0
b101000 O
b101000 V
b101000 Z
b101000 ]
1!
#70000
0!
#75000
b100010 %
b100010 ;
b100010 m
b110000 /
b110000 U
b110000 Y
b100010 $
b100010 b
b100010 j
b100010 8
b100010 >
b100010 H
b100010 f
b100010 )
b100010 I
b100010 d
b100010 l
b0 *
b0 <
b0 c
bx 3
bx M
bx S
07
bx 4
bx N
bx \
bx k
b1100 a
b1011 `
b1000 _
b110011 Q
b10110100000001100 L
b110011 E
b110011 A
b101101000000011000110011 +
b101101000000011000110011 P
b110000 .
b110000 X
b110000 [
b110000 g
bx ,
bx W
bx ^
b101100 0
b101100 O
b101100 V
b101100 Z
b101100 ]
1!
#80000
0!
#85000
bx %
bx ;
bx m
b110100 /
b110100 U
b110100 Y
bx (
bx J
bx h
bx $
bx b
bx j
x1
x#
bx 8
bx >
bx H
bx f
bx )
bx I
bx d
bx l
bx *
bx <
bx c
bx :
bx =
bx C
bx a
bx `
bx _
bx Q
bx L
bx E
bx D
bx A
bx @
bx ?
b110100 .
b110100 X
b110100 [
b110100 g
bx +
bx P
b110000 0
b110000 O
b110000 V
b110000 Z
b110000 ]
1!
#90000
0!
#95000
b111000 /
b111000 U
b111000 Y
b111000 .
b111000 X
b111000 [
b111000 g
b110100 0
b110100 O
b110100 V
b110100 Z
b110100 ]
1!
#100000
0!
#105000
b111100 /
b111100 U
b111100 Y
b111100 .
b111100 X
b111100 [
b111100 g
b111000 0
b111000 O
b111000 V
b111000 Z
b111000 ]
1!
#110000
0!
#115000
b1000000 /
b1000000 U
b1000000 Y
b1000000 .
b1000000 X
b1000000 [
b1000000 g
b111100 0
b111100 O
b111100 V
b111100 Z
b111100 ]
1!
#120000
0!
#125000
b1000100 /
b1000100 U
b1000100 Y
b1000100 .
b1000100 X
b1000100 [
b1000100 g
b1000000 0
b1000000 O
b1000000 V
b1000000 Z
b1000000 ]
1!
